

 Matrix histogram
 ----------------


 data   matrix        mf795 : DSTSK2                                   Distance Skim Car                                                               

 weight matrix        mf05  : temp5                                    Temporary Matrix 5                                                              

  all  origins   all  destinations

 constraint matrix    mf10  : temp10                                   Temporary Matrix 10                                                             
          interval  lower:         1
                    upper:         1  include 

 out of range       above:       12
                    below:        0

 statistics         mean : 40.03245
                    std  : 40.85844

    interval        ------density-------      -----cumulative-----
 (from  ,    to)    absolute  normalized      absolute  normalized

       0      1          151      .0052            151      .0052
       1      2          386      .0132            537      .0183
       2      3          664      .0227           1201      .0410
       3      4          415      .0142           1616      .0552
       4      5          235      .0080           1851      .0632
       5      6          461      .0157           2312      .0789
       6      7          630      .0215           2942      .1004
       7      8          658      .0225           3600      .1229
       8      9          378      .0129           3978      .1358
       9     10          241      .0082           4219      .1440
      10     11          424      .0145           4643      .1585
      11     12          640      .0218           5283      .1804
      12     13          336      .0115           5619      .1918
      13     14          434      .0148           6053      .2067
      14     15          496      .0169           6549      .2236
      15     16          694      .0237           7243      .2473
      16     17          956      .0326           8199      .2799
      17     18          766      .0262           8965      .3061
      18     19          448      .0153           9413      .3214
      19     20          501      .0171           9914      .3385
      20     21          140      .0048          10054      .3432
      21     22          161      .0055          10215      .3487
      22     23          212      .0072          10427      .3560
      23     24          232      .0079          10659      .3639
      24     25          343      .0117          11002      .3756
      25     26          156      .0053          11158      .3809
      26     27          544      .0186          11702      .3995
      27     28          604      .0206          12306      .4201
      28     29          127      .0043          12433      .4245
      29     30          644      .0220          13077      .4465
      30     31          526      .0180          13603      .4644
      31     32          750      .0256          14353      .4900
      32     33          197      .0067          14550      .4967
      33     34          512      .0175          15062      .5142
      34     35          697      .0238          15759      .5380
      35     36          584      .0199          16343      .5580
      36     37          220      .0075          16563      .5655
      37     38          588      .0201          17151      .5855
      38     39          361      .0123          17512      .5979
      39     40          437      .0149          17949      .6128
      40     41           81      .0028          18030      .6155
      41     42          625      .0213          18655      .6369
      42     43          496      .0169          19151      .6538
      43     44          447      .0153          19598      .6691
      44     45          357      .0122          19955      .6813
      45     46          278      .0095          20233      .6908
      46     47          236      .0081          20469      .6988
      47     48          749      .0256          21218      .7244
      48     49          265      .0090          21483      .7334
      49     50          300      .0102          21783      .7437
      50     51          150      .0051          21933      .7488
      51     52          432      .0147          22365      .7635
      52     53          293      .0100          22658      .7735
      53     54           99      .0034          22757      .7769
      54     55          597      .0204          23354      .7973
      55     56          402      .0137          23756      .8110
      56     57          185      .0063          23941      .8174
      57     58          204      .0070          24145      .8243
      58     59          148      .0051          24293      .8294
      59     60          267      .0091          24560      .8385
      60     61          213      .0073          24773      .8458
      61     62          163      .0056          24936      .8513
      62     63          131      .0045          25067      .8558
      63     64          127      .0043          25194      .8601
      64     65          204      .0070          25398      .8671
      65     66          176      .0060          25574      .8731
      66     67           94      .0032          25668      .8763
      67     68          178      .0061          25846      .8824
      68     69          164      .0056          26010      .8880
      69     70          150      .0051          26160      .8931
      70     71           77      .0026          26237      .8957
      71     72           98      .0033          26335      .8991
      72     73          145      .0050          26480      .9040
      73     74          122      .0042          26602      .9082
      74     75          137      .0047          26739      .9129
      75     76           82      .0028          26821      .9157
      76     77           84      .0029          26905      .9185
      77     78           72      .0025          26977      .9210
      78     79           80      .0027          27057      .9237
      79     80           98      .0033          27155      .9271
      80     81           52      .0018          27207      .9289
      81     82           90      .0031          27297      .9319
      82     83           29      .0010          27326      .9329
      83     84           35      .0012          27361      .9341
      84     85           40      .0014          27401      .9355
      85     86           24      .0008          27425      .9363
      86     87           69      .0024          27494      .9387
      87     88           34      .0012          27528      .9398
      88     89           18      .0006          27546      .9404
      89     90           27      .0009          27573      .9413
      90     91           59      .0020          27632      .9434
      91     92           37      .0013          27669      .9446
      92     93           39      .0013          27708      .9460
      93     94           32      .0011          27740      .9470
      94     95           12      .0004          27752      .9475
      95     96           35      .0012          27787      .9487
      96     97           14      .0005          27801      .9491
      97     98           45      .0015          27846      .9507
      98     99           42      .0014          27888      .9521
      99    100           18      .0006          27906      .9527
     100    101           32      .0011          27938      .9538
     101    102           11      .0004          27949      .9542
     102    103           26      .0009          27975      .9551
     103    104           13      .0004          27988      .9555
     104    105           33      .0011          28021      .9566
     105    106           17      .0006          28038      .9572
     106    107           13      .0004          28051      .9577
     107    108           15      .0005          28066      .9582
     108    109            6      .0002          28072      .9584
     109    110            7      .0002          28079      .9586
     110    111           20      .0007          28099      .9593
     111    112           22      .0008          28121      .9601
     112    113            8      .0003          28129      .9603
     113    114           34      .0012          28163      .9615
     114    115            6      .0002          28169      .9617
     115    116           10      .0003          28179      .9620
     116    117            9      .0003          28188      .9623
     117    118           15      .0005          28203      .9629
     118    119           17      .0006          28220      .9634
     119    120           25      .0009          28245      .9643
     120    121           24      .0008          28269      .9651
     121    122           20      .0007          28289      .9658
     122    123           29      .0010          28318      .9668
     123    124           29      .0010          28347      .9678
     124    125           15      .0005          28362      .9683
     125    126            9      .0003          28371      .9686
     126    127           16      .0005          28387      .9691
     127    128           12      .0004          28399      .9695
     128    129           14      .0005          28413      .9700
     129    130           22      .0008          28435      .9708
     130    131           17      .0006          28452      .9714
     131    132           15      .0005          28467      .9719
     132    133            6      .0002          28473      .9721
     133    134           19      .0006          28492      .9727
     134    135           18      .0006          28510      .9733
     135    136           25      .0009          28535      .9742
     136    137           11      .0004          28546      .9746
     137    138           11      .0004          28557      .9749
     138    139           44      .0015          28601      .9764
     139    140           16      .0005          28617      .9770
     140    141           12      .0004          28629      .9774
     141    142            5      .0002          28634      .9776
     142    143           15      .0005          28649      .9781
     143    144           13      .0004          28662      .9785
     144    145           18      .0006          28680      .9791
     145    146           10      .0003          28690      .9795
     146    147           14      .0005          28704      .9800
     147    148            7      .0002          28711      .9802
     148    149           10      .0003          28721      .9805
     149    150            5      .0002          28726      .9807
     150    151            5      .0002          28731      .9809
     151    152            4      .0001          28735      .9810
     152    153            3      .0001          28738      .9811
     153    154           11      .0004          28749      .9815
     154    155            8      .0003          28757      .9818
     155    156           10      .0003          28767      .9821
     156    157           15      .0005          28782      .9826
     157    158           10      .0003          28792      .9830
     158    159            9      .0003          28801      .9833
     159    160            5      .0002          28806      .9834
     160    161            4      .0001          28810      .9836
     161    162            4      .0001          28814      .9837
     162    163           13      .0004          28827      .9842
     163    164            5      .0002          28832      .9843
     164    165            3      .0001          28835      .9844
     165    166            7      .0002          28842      .9847
     166    167            2      .0001          28844      .9847
     167    168            5      .0002          28849      .9849
     168    169            4      .0001          28853      .9850
     169    170            1      .0000          28854      .9851
     170    171           16      .0005          28870      .9856
     171    172            2      .0001          28872      .9857
     172    173            7      .0002          28879      .9859
     173    174            3      .0001          28882      .9860
     174    175            5      .0002          28887      .9862
     175    176            1      .0000          28888      .9862
     176    177            1      .0000          28889      .9863
     177    178            1      .0000          28890      .9863
     178    179            5      .0002          28895      .9865
     179    180            2      .0001          28897      .9865
     180    181            2      .0001          28899      .9866
     181    182            4      .0001          28903      .9868
     182    183            5      .0002          28908      .9869
     183    184            2      .0001          28910      .9870
     184    185            7      .0002          28917      .9872
     185    186            2      .0001          28919      .9873
     186    187            2      .0001          28921      .9874
     187    188            3      .0001          28924      .9875
     188    189            0      .0000          28924      .9875
     189    190            0      .0000          28924      .9875
     190    191            1      .0000          28925      .9875
     191    192            4      .0001          28929      .9876
     192    193            5      .0002          28934      .9878
     193    194            0      .0000          28934      .9878
     194    195            1      .0000          28935      .9878
     195    196            4      .0001          28939      .9880
     196    197            3      .0001          28942      .9881
     197    198            1      .0000          28943      .9881
     198    199            0      .0000          28943      .9881
     199    200            6      .0002          28949      .9883
     200    201            2      .0001          28951      .9884
     201    202            1      .0000          28952      .9884
     202    203            1      .0000          28953      .9885
     203    204            1      .0000          28954      .9885
     204    205            1      .0000          28955      .9885
     205    206            1      .0000          28956      .9886
     206    207            0      .0000          28956      .9886
     207    208            1      .0000          28957      .9886
     208    209            3      .0001          28960      .9887
     209    210            0      .0000          28960      .9887
     210    211            4      .0001          28964      .9888
     211    212            1      .0000          28965      .9889
     212    213            3      .0001          28968      .9890
     213    214            0      .0000          28968      .9890
     214    215            5      .0002          28973      .9891
     215    216            0      .0000          28973      .9891
     216    217            0      .0000          28973      .9891
     217    218            1      .0000          28974      .9892
     218    219            1      .0000          28975      .9892
     219    220            2      .0001          28977      .9893
     220    221            0      .0000          28977      .9893
     221    222            0      .0000          28977      .9893
     222    223            0      .0000          28977      .9893
     223    224            0      .0000          28977      .9893
     224    225            3      .0001          28980      .9894
     225    226            0      .0000          28980      .9894
     226    227            4      .0001          28984      .9895
     227    228            1      .0000          28985      .9896
     228    229            0      .0000          28985      .9896
     229    230            0      .0000          28985      .9896
     230    231            0      .0000          28985      .9896
     231    232            0      .0000          28985      .9896
     232    233            0      .0000          28985      .9896
     233    234            2      .0001          28987      .9896
     234    235            1      .0000          28988      .9897
     235    236            3      .0001          28991      .9898
     236    237            3      .0001          28994      .9899
     237    238            0      .0000          28994      .9899
     238    239            1      .0000          28995      .9899
     239    240            1      .0000          28996      .9899
     240    241            0      .0000          28996      .9899
     241    242            2      .0001          28998      .9900
     242    243            0      .0000          28998      .9900
     243    244            0      .0000          28998      .9900
     244    245            0      .0000          28998      .9900
     245    246            0      .0000          28998      .9900
     246    247            0      .0000          28998      .9900
     247    248            2      .0001          29000      .9901
     248    249            7      .0002          29007      .9903
     249    250            2      .0001          29009      .9904
     250    251            0      .0000          29009      .9904
     251    252            2      .0001          29011      .9904
     252    253            7      .0002          29018      .9907
     253    254            7      .0002          29025      .9909
     254    255            2      .0001          29027      .9910
     255    256            2      .0001          29029      .9911
     256    257            3      .0001          29032      .9912
     257    258            0      .0000          29032      .9912
     258    259           12      .0004          29044      .9916
     259    260            3      .0001          29047      .9917
     260    261            0      .0000          29047      .9917
     261    262            0      .0000          29047      .9917
     262    263            8      .0003          29055      .9919
     263    264            8      .0003          29063      .9922
     264    265            1      .0000          29064      .9923
     265    266            3      .0001          29067      .9924
     266    267            0      .0000          29067      .9924
     267    268            1      .0000          29068      .9924
     268    269            5      .0002          29073      .9926
     269    270            0      .0000          29073      .9926
     270    271            3      .0001          29076      .9927
     271    272            1      .0000          29077      .9927
     272    273            0      .0000          29077      .9927
     273    274            4      .0001          29081      .9928
     274    275            3      .0001          29084      .9929
     275    276            2      .0001          29086      .9930
     276    277            8      .0003          29094      .9933
     277    278           12      .0004          29106      .9937
     278    279            1      .0000          29107      .9937
     279    280            3      .0001          29110      .9938
     280    281            3      .0001          29113      .9939
     281    282            0      .0000          29113      .9939
     282    283            3      .0001          29116      .9940
     283    284            1      .0000          29117      .9941
     284    285            0      .0000          29117      .9941
     285    286           15      .0005          29132      .9946
     286    287            0      .0000          29132      .9946
     287    288            4      .0001          29136      .9947
     288    289            0      .0000          29136      .9947
     289    290            0      .0000          29136      .9947
     290    291            5      .0002          29141      .9949
     291    292            0      .0000          29141      .9949
     292    293            0      .0000          29141      .9949
     293    294            1      .0000          29142      .9949
     294    295            1      .0000          29143      .9949
     295    296            2      .0001          29145      .9950
     296    297            0      .0000          29145      .9950
     297    298           11      .0004          29156      .9954
     298    299            1      .0000          29157      .9954
     299    300            3      .0001          29160      .9955
     300    301            0      .0000          29160      .9955
     301    302            0      .0000          29160      .9955
     302    303            0      .0000          29160      .9955
     303    304            1      .0000          29161      .9956
     304    305            1      .0000          29162      .9956
     305    306            1      .0000          29163      .9956
     306    307            1      .0000          29164      .9957
     307    308            2      .0001          29166      .9957
     308    309            1      .0000          29167      .9958
     309    310            0      .0000          29167      .9958
     310    311            1      .0000          29168      .9958
     311    312            0      .0000          29168      .9958
     312    313            2      .0001          29170      .9959
     313    314            2      .0001          29172      .9959
     314    315            1      .0000          29173      .9960
     315    316            4      .0001          29177      .9961
     316    317            0      .0000          29177      .9961
     317    318            1      .0000          29178      .9961
     318    319            3      .0001          29181      .9962
     319    320            3      .0001          29184      .9963
     320    321            5      .0002          29189      .9965
     321    322            2      .0001          29191      .9966
     322    323            2      .0001          29193      .9967
     323    324            1      .0000          29194      .9967
     324    325            6      .0002          29200      .9969
     325    326            3      .0001          29203      .9970
     326    327            6      .0002          29209      .9972
     327    328            2      .0001          29211      .9973
     328    329            0      .0000          29211      .9973
     329    330            0      .0000          29211      .9973
     330    331            3      .0001          29214      .9974
     331    332            7      .0002          29221      .9976
     332    333            0      .0000          29221      .9976
     333    334           13      .0004          29234      .9981
     334    335            0      .0000          29234      .9981
     335    336            0      .0000          29234      .9981
     336    337            0      .0000          29234      .9981
     337    338            0      .0000          29234      .9981
     338    339            0      .0000          29234      .9981
     339    340            0      .0000          29234      .9981
     340    341            0      .0000          29234      .9981
     341    342            0      .0000          29234      .9981
     342    343            0      .0000          29234      .9981
     343    344           10      .0003          29244      .9984
     344    345            0      .0000          29244      .9984
     345    346            0      .0000          29244      .9984
     346    347            0      .0000          29244      .9984
     347    348            0      .0000          29244      .9984
     348    349            0      .0000          29244      .9984
     349    350            0      .0000          29244      .9984
     350    351            0      .0000          29244      .9984
     351    352            0      .0000          29244      .9984
     352    353            0      .0000          29244      .9984
     353    354            0      .0000          29244      .9984
     354    355            0      .0000          29244      .9984
     355    356            1      .0000          29245      .9984
     356    357            0      .0000          29245      .9984
     357    358            5      .0002          29250      .9986
     358    359            1      .0000          29251      .9986
     359    360            0      .0000          29251      .9986
     360    361            0      .0000          29251      .9986
     361    362            0      .0000          29251      .9986
     362    363            0      .0000          29251      .9986
     363    364            0      .0000          29251      .9986
     364    365            0      .0000          29251      .9986
     365    366            0      .0000          29251      .9986
     366    367            0      .0000          29251      .9986
     367    368            2      .0001          29253      .9987
     368    369            0      .0000          29253      .9987
     369    370            0      .0000          29253      .9987
     370    371            0      .0000          29253      .9987
     371    372            0      .0000          29253      .9987
     372    373            1      .0000          29254      .9987
     373    374            0      .0000          29254      .9987
     374    375            0      .0000          29254      .9987
     375    376            0      .0000          29254      .9987
     376    377            0      .0000          29254      .9987
     377    378            0      .0000          29254      .9987
     378    379            3      .0001          29257      .9988
     379    380            0      .0000          29257      .9988
     380    381            0      .0000          29257      .9988
     381    382            0      .0000          29257      .9988
     382    383            0      .0000          29257      .9988
     383    384            2      .0001          29259      .9989
     384    385            0      .0000          29259      .9989
     385    386            0      .0000          29259      .9989
     386    387            0      .0000          29259      .9989
     387    388            0      .0000          29259      .9989
     388    389            1      .0000          29260      .9989
     389    390            0      .0000          29260      .9989
     390    391            0      .0000          29260      .9989
     391    392            0      .0000          29260      .9989
     392    393            0      .0000          29260      .9989
     393    394            1      .0000          29261      .9990
     394    395            0      .0000          29261      .9990
     395    396            0      .0000          29261      .9990
     396    397            2      .0001          29263      .9990
     397    398            2      .0001          29265      .9991
     398    399            0      .0000          29265      .9991
     399    400            0      .0000          29265      .9991
     400    401            0      .0000          29265      .9991
     401    402            0      .0000          29265      .9991
     402    403            1      .0000          29266      .9991
     403    404            0      .0000          29266      .9991
     404    405            1      .0000          29267      .9992
     405    406            0      .0000          29267      .9992
     406    407            1      .0000          29268      .9992
     407    408            2      .0001          29270      .9993
     408    409            0      .0000          29270      .9993
     409    410            0      .0000          29270      .9993
     410    411            2      .0001          29272      .9994
     411    412            0      .0000          29272      .9994
     412    413            0      .0000          29272      .9994
     413    414            0      .0000          29272      .9994
     414    415            7      .0002          29279      .9996
     415    416            0      .0000          29279      .9996
     416    417            0      .0000          29279      .9996
     417    418            0      .0000          29279      .9996
     418    419            0      .0000          29279      .9996
     419    420            0      .0000          29279      .9996
     420    421            0      .0000          29279      .9996
     421    422            0      .0000          29279      .9996
     422    423            0      .0000          29279      .9996
     423    424            0      .0000          29279      .9996
     424    425            0      .0000          29279      .9996
     425    426            0      .0000          29279      .9996
     426    427            0      .0000          29279      .9996
     427    428            0      .0000          29279      .9996
     428    429            0      .0000          29279      .9996
     429    430            0      .0000          29279      .9996
     430    431            0      .0000          29279      .9996
     431    432            0      .0000          29279      .9996
     432    433            0      .0000          29279      .9996
     433    434            0      .0000          29279      .9996
     434    435            0      .0000          29279      .9996
     435    436            0      .0000          29279      .9996
     436    437            0      .0000          29279      .9996
     437    438            0      .0000          29279      .9996
     438    439            0      .0000          29279      .9996
     439    440            0      .0000          29279      .9996
     440    441            0      .0000          29279      .9996
     441    442            0      .0000          29279      .9996
     442    443            0      .0000          29279      .9996
     443    444            0      .0000          29279      .9996
     444    445            0      .0000          29279      .9996
     445    446            0      .0000          29279      .9996
     446    447            0      .0000          29279      .9996
     447    448            0      .0000          29279      .9996
     448    449            0      .0000          29279      .9996
     449    450            0      .0000          29279      .9996
     450    451            0      .0000          29279      .9996
     451    452            0      .0000          29279      .9996
     452    453            0      .0000          29279      .9996
     453    454            0      .0000          29279      .9996
     454    455            0      .0000          29279      .9996
     455    456            0      .0000          29279      .9996
     456    457            0      .0000          29279      .9996
     457    458            0      .0000          29279      .9996
     458    459            0      .0000          29279      .9996
     459    460            0      .0000          29279      .9996
     460    461            0      .0000          29279      .9996
     461    462            0      .0000          29279      .9996
     462    463            0      .0000          29279      .9996
     463    464            0      .0000          29279      .9996
     464    465            0      .0000          29279      .9996
     465    466            0      .0000          29279      .9996
     466    467            0      .0000          29279      .9996
     467    468            0      .0000          29279      .9996
     468    469            0      .0000          29279      .9996
     469    470            0      .0000          29279      .9996
     470    471            0      .0000          29279      .9996
     471    472            0      .0000          29279      .9996
     472    473            0      .0000          29279      .9996
     473    474            0      .0000          29279      .9996
     474    475            0      .0000          29279      .9996
     475    476            0      .0000          29279      .9996
     476    477            0      .0000          29279      .9996
     477    478            0      .0000          29279      .9996
     478    479            0      .0000          29279      .9996
     479    480            0      .0000          29279      .9996
     480    481            0      .0000          29279      .9996
     481    482            0      .0000          29279      .9996
     482    483            0      .0000          29279      .9996
     483    484            0      .0000          29279      .9996
     484    485            0      .0000          29279      .9996
     485    486            0      .0000          29279      .9996
     486    487            0      .0000          29279      .9996
     487    488            0      .0000          29279      .9996
     488    489            0      .0000          29279      .9996
     489    490            0      .0000          29279      .9996
     490    491            0      .0000          29279      .9996
     491    492            0      .0000          29279      .9996
     492    493            0      .0000          29279      .9996
     493    494            0      .0000          29279      .9996
     494    495            0      .0000          29279      .9996
     495    496            0      .0000          29279      .9996
     496    497            0      .0000          29279      .9996
     497    498            0      .0000          29279      .9996
     498    499            0      .0000          29279      .9996
     499    500            0      .0000          29279      .9996


 MATRIX CALCULATIONS
 *******************


 Expression:

  mf06   = 0

 Result matrix:         mf06  : temp6                                         Temporary Matrix 6                                                               (18-11-21 10:40:04)

 Constraint matrix:     none

 Submatrix:             all origins             all destinations

 Number of expression evaluations:          35721
 Minimum expression value:                .000000   (at      1      1)
 Maximum expression value:                .000000   (at      1      1)
 Average expression value:                .000000
 Sum of expression values:                .000000


 MATRIX CALCULATIONS
 *******************


 Expression:

  mf06   = mf269' + mf270 + mf267' + mf268

 Result matrix:         mf06  : temp6                                         Temporary Matrix 6                                                               (18-11-21 10:40:05)

 Data matrices:         mf269 : MND153                                        Mobile AM HBOEIB Rail                                                            (18-11-21 10:39:19)
                        mf270 : MND154                                        Mobile AM HBOEOB Rail                                                            (18-11-21 10:39:20)
                        mf267 : MND151                                        Mobile AM HBWIB Rail                                                             (18-11-21 10:39:17)
                        mf268 : MND152                                        Mobile AM HBWOB Rail                                                             (18-11-21 10:39:18)

 Constraint matrix:     none

 Submatrix:             all origins             all destinations

 Number of expression evaluations:          35721
 Minimum expression value:                .000000   (at      1      1)
 Maximum expression value:           46679.000000   (at    102    106)
 Average expression value:              18.005319
 Sum of expression values:          643168.000000
