

 Matrix histogram
 ----------------


 data   matrix        mf795 : DSTSK2                                   Distance Skim Car                                                               

 weight matrix        mf05  : temp5                                    Temporary Matrix 5                                                              

  all  origins   all  destinations

 constraint matrix    mf10  : temp10                                   Temporary Matrix 10                                                             
          interval  lower:         1
                    upper:         1  include 

 out of range       above:       27
                    below:        0

 statistics         mean : 39.80061
                    std  : 44.66487

    interval        ------density-------      -----cumulative-----
 (from  ,    to)    absolute  normalized      absolute  normalized

       0      1          189      .0042            189      .0042
       1      2          581      .0130            770      .0173
       2      3         1235      .0277           2005      .0450
       3      4          680      .0153           2685      .0602
       4      5          346      .0078           3031      .0680
       5      6          712      .0160           3743      .0839
       6      7         1137      .0255           4880      .1094
       7      8         1015      .0228           5895      .1322
       8      9          699      .0157           6594      .1479
       9     10          394      .0088           6988      .1567
      10     11          570      .0128           7558      .1695
      11     12         1178      .0264           8736      .1959
      12     13          517      .0116           9253      .2075
      13     14          628      .0141           9881      .2216
      14     15          762      .0171          10643      .2387
      15     16          953      .0214          11596      .2601
      16     17         1558      .0349          13154      .2950
      17     18         1364      .0306          14518      .3256
      18     19          640      .0144          15158      .3399
      19     20          855      .0192          16013      .3591
      20     21          217      .0049          16230      .3640
      21     22          242      .0054          16472      .3694
      22     23          380      .0085          16852      .3779
      23     24          324      .0073          17176      .3852
      24     25          517      .0116          17693      .3968
      25     26          248      .0056          17941      .4024
      26     27          862      .0193          18803      .4217
      27     28         1019      .0229          19822      .4445
      28     29          179      .0040          20001      .4486
      29     30         1016      .0228          21017      .4713
      30     31          776      .0174          21793      .4887
      31     32         1172      .0263          22965      .5150
      32     33          310      .0070          23275      .5220
      33     34          840      .0188          24115      .5408
      34     35         1168      .0262          25283      .5670
      35     36          963      .0216          26246      .5886
      36     37          302      .0068          26548      .5954
      37     38          733      .0164          27281      .6118
      38     39          597      .0134          27878      .6252
      39     40          548      .0123          28426      .6375
      40     41          168      .0038          28594      .6413
      41     42          731      .0164          29325      .6577
      42     43          773      .0173          30098      .6750
      43     44          607      .0136          30705      .6886
      44     45          475      .0107          31180      .6993
      45     46          313      .0070          31493      .7063
      46     47          313      .0070          31806      .7133
      47     48         1031      .0231          32837      .7364
      48     49          383      .0086          33220      .7450
      49     50          487      .0109          33707      .7559
      50     51          298      .0067          34005      .7626
      51     52          681      .0153          34686      .7779
      52     53          389      .0087          35075      .7866
      53     54          159      .0036          35234      .7902
      54     55          867      .0194          36101      .8096
      55     56          641      .0144          36742      .8240
      56     57          273      .0061          37015      .8301
      57     58          266      .0060          37281      .8361
      58     59          225      .0050          37506      .8411
      59     60          375      .0084          37881      .8495
      60     61          270      .0061          38151      .8556
      61     62          198      .0044          38349      .8600
      62     63          175      .0039          38524      .8640
      63     64          161      .0036          38685      .8676
      64     65          278      .0062          38963      .8738
      65     66          235      .0053          39198      .8791
      66     67          122      .0027          39320      .8818
      67     68          234      .0052          39554      .8871
      68     69          254      .0057          39808      .8928
      69     70          230      .0052          40038      .8979
      70     71          111      .0025          40149      .9004
      71     72          140      .0031          40289      .9035
      72     73          185      .0041          40474      .9077
      73     74          174      .0039          40648      .9116
      74     75          195      .0044          40843      .9160
      75     76          111      .0025          40954      .9185
      76     77          112      .0025          41066      .9210
      77     78           70      .0016          41136      .9225
      78     79          102      .0023          41238      .9248
      79     80          114      .0026          41352      .9274
      80     81           70      .0016          41422      .9290
      81     82           90      .0020          41512      .9310
      82     83           47      .0011          41559      .9320
      83     84           42      .0009          41601      .9330
      84     85           49      .0011          41650      .9341
      85     86           38      .0009          41688      .9349
      86     87          101      .0023          41789      .9372
      87     88           53      .0012          41842      .9384
      88     89           35      .0008          41877      .9392
      89     90           33      .0007          41910      .9399
      90     91           66      .0015          41976      .9414
      91     92           67      .0015          42043      .9429
      92     93           48      .0011          42091      .9440
      93     94           35      .0008          42126      .9447
      94     95            8      .0002          42134      .9449
      95     96           47      .0011          42181      .9460
      96     97           22      .0005          42203      .9465
      97     98           71      .0016          42274      .9481
      98     99           61      .0014          42335      .9494
      99    100           24      .0005          42359      .9500
     100    101           32      .0007          42391      .9507
     101    102           25      .0006          42416      .9512
     102    103           39      .0009          42455      .9521
     103    104           36      .0008          42491      .9529
     104    105           51      .0011          42542      .9541
     105    106           50      .0011          42592      .9552
     106    107           15      .0003          42607      .9555
     107    108           25      .0006          42632      .9561
     108    109           11      .0002          42643      .9563
     109    110            9      .0002          42652      .9565
     110    111           20      .0004          42672      .9570
     111    112           34      .0008          42706      .9577
     112    113           16      .0004          42722      .9581
     113    114           57      .0013          42779      .9594
     114    115           11      .0002          42790      .9596
     115    116           20      .0004          42810      .9601
     116    117           10      .0002          42820      .9603
     117    118           29      .0007          42849      .9610
     118    119           32      .0007          42881      .9617
     119    120           25      .0006          42906      .9622
     120    121           27      .0006          42933      .9628
     121    122           34      .0008          42967      .9636
     122    123           28      .0006          42995      .9642
     123    124           47      .0011          43042      .9653
     124    125           25      .0006          43067      .9658
     125    126           26      .0006          43093      .9664
     126    127           23      .0005          43116      .9669
     127    128           12      .0003          43128      .9672
     128    129           18      .0004          43146      .9676
     129    130           27      .0006          43173      .9682
     130    131           16      .0004          43189      .9686
     131    132           17      .0004          43206      .9690
     132    133           11      .0002          43217      .9692
     133    134           31      .0007          43248      .9699
     134    135           14      .0003          43262      .9702
     135    136           27      .0006          43289      .9708
     136    137           18      .0004          43307      .9712
     137    138           24      .0005          43331      .9718
     138    139           38      .0009          43369      .9726
     139    140           18      .0004          43387      .9730
     140    141           24      .0005          43411      .9736
     141    142            9      .0002          43420      .9738
     142    143           19      .0004          43439      .9742
     143    144           15      .0003          43454      .9745
     144    145           22      .0005          43476      .9750
     145    146           19      .0004          43495      .9754
     146    147           30      .0007          43525      .9761
     147    148            8      .0002          43533      .9763
     148    149           14      .0003          43547      .9766
     149    150           20      .0004          43567      .9771
     150    151            8      .0002          43575      .9772
     151    152            6      .0001          43581      .9774
     152    153           10      .0002          43591      .9776
     153    154           10      .0002          43601      .9778
     154    155            9      .0002          43610      .9780
     155    156           13      .0003          43623      .9783
     156    157           18      .0004          43641      .9787
     157    158           15      .0003          43656      .9791
     158    159           11      .0002          43667      .9793
     159    160            8      .0002          43675      .9795
     160    161            4      .0001          43679      .9796
     161    162            8      .0002          43687      .9797
     162    163           14      .0003          43701      .9801
     163    164           14      .0003          43715      .9804
     164    165           13      .0003          43728      .9807
     165    166           11      .0002          43739      .9809
     166    167            3      .0001          43742      .9810
     167    168           12      .0003          43754      .9813
     168    169            6      .0001          43760      .9814
     169    170            2      .0000          43762      .9814
     170    171           17      .0004          43779      .9818
     171    172            0      .0000          43779      .9818
     172    173            8      .0002          43787      .9820
     173    174           10      .0002          43797      .9822
     174    175            5      .0001          43802      .9823
     175    176            1      .0000          43803      .9824
     176    177            2      .0000          43805      .9824
     177    178            0      .0000          43805      .9824
     178    179            5      .0001          43810      .9825
     179    180            4      .0001          43814      .9826
     180    181            3      .0001          43817      .9827
     181    182            4      .0001          43821      .9828
     182    183            4      .0001          43825      .9828
     183    184            2      .0000          43827      .9829
     184    185            7      .0002          43834      .9830
     185    186            2      .0000          43836      .9831
     186    187            1      .0000          43837      .9831
     187    188            2      .0000          43839      .9832
     188    189            0      .0000          43839      .9832
     189    190            0      .0000          43839      .9832
     190    191            1      .0000          43840      .9832
     191    192            0      .0000          43840      .9832
     192    193            4      .0001          43844      .9833
     193    194            0      .0000          43844      .9833
     194    195            2      .0000          43846      .9833
     195    196            2      .0000          43848      .9834
     196    197            5      .0001          43853      .9835
     197    198            2      .0000          43855      .9835
     198    199            2      .0000          43857      .9836
     199    200            5      .0001          43862      .9837
     200    201            3      .0001          43865      .9837
     201    202            0      .0000          43865      .9837
     202    203            1      .0000          43866      .9838
     203    204            4      .0001          43870      .9839
     204    205            5      .0001          43875      .9840
     205    206            5      .0001          43880      .9841
     206    207            2      .0000          43882      .9841
     207    208            1      .0000          43883      .9841
     208    209            6      .0001          43889      .9843
     209    210            0      .0000          43889      .9843
     210    211            3      .0001          43892      .9843
     211    212            2      .0000          43894      .9844
     212    213            3      .0001          43897      .9845
     213    214            5      .0001          43902      .9846
     214    215            2      .0000          43904      .9846
     215    216            1      .0000          43905      .9846
     216    217            2      .0000          43907      .9847
     217    218            3      .0001          43910      .9847
     218    219            5      .0001          43915      .9849
     219    220            3      .0001          43918      .9849
     220    221            2      .0000          43920      .9850
     221    222            1      .0000          43921      .9850
     222    223            1      .0000          43922      .9850
     223    224            1      .0000          43923      .9850
     224    225            4      .0001          43927      .9851
     225    226            0      .0000          43927      .9851
     226    227            3      .0001          43930      .9852
     227    228            1      .0000          43931      .9852
     228    229            1      .0000          43932      .9852
     229    230            4      .0001          43936      .9853
     230    231            0      .0000          43936      .9853
     231    232            1      .0000          43937      .9854
     232    233            0      .0000          43937      .9854
     233    234            2      .0000          43939      .9854
     234    235            3      .0001          43942      .9855
     235    236            3      .0001          43945      .9855
     236    237            6      .0001          43951      .9857
     237    238            0      .0000          43951      .9857
     238    239            1      .0000          43952      .9857
     239    240            3      .0001          43955      .9858
     240    241            0      .0000          43955      .9858
     241    242            3      .0001          43958      .9858
     242    243            5      .0001          43963      .9859
     243    244            1      .0000          43964      .9860
     244    245            0      .0000          43964      .9860
     245    246            4      .0001          43968      .9861
     246    247            1      .0000          43969      .9861
     247    248            3      .0001          43972      .9861
     248    249            9      .0002          43981      .9863
     249    250            2      .0000          43983      .9864
     250    251            1      .0000          43984      .9864
     251    252            1      .0000          43985      .9864
     252    253           13      .0003          43998      .9867
     253    254            7      .0002          44005      .9869
     254    255            8      .0002          44013      .9871
     255    256            1      .0000          44014      .9871
     256    257            7      .0002          44021      .9872
     257    258            0      .0000          44021      .9872
     258    259           13      .0003          44034      .9875
     259    260            3      .0001          44037      .9876
     260    261            2      .0000          44039      .9876
     261    262            5      .0001          44044      .9878
     262    263           12      .0003          44056      .9880
     263    264           17      .0004          44073      .9884
     264    265            1      .0000          44074      .9884
     265    266            2      .0000          44076      .9885
     266    267            0      .0000          44076      .9885
     267    268            3      .0001          44079      .9885
     268    269            9      .0002          44088      .9887
     269    270            4      .0001          44092      .9888
     270    271            1      .0000          44093      .9889
     271    272            1      .0000          44094      .9889
     272    273            1      .0000          44095      .9889
     273    274            9      .0002          44104      .9891
     274    275           11      .0002          44115      .9893
     275    276            6      .0001          44121      .9895
     276    277           15      .0003          44136      .9898
     277    278           31      .0007          44167      .9905
     278    279            4      .0001          44171      .9906
     279    280            3      .0001          44174      .9907
     280    281            5      .0001          44179      .9908
     281    282            1      .0000          44180      .9908
     282    283            6      .0001          44186      .9909
     283    284            1      .0000          44187      .9910
     284    285            1      .0000          44188      .9910
     285    286           25      .0006          44213      .9915
     286    287            4      .0001          44217      .9916
     287    288            7      .0002          44224      .9918
     288    289            0      .0000          44224      .9918
     289    290            3      .0001          44227      .9919
     290    291           15      .0003          44242      .9922
     291    292            3      .0001          44245      .9923
     292    293            0      .0000          44245      .9923
     293    294            0      .0000          44245      .9923
     294    295            4      .0001          44249      .9924
     295    296            4      .0001          44253      .9924
     296    297            2      .0000          44255      .9925
     297    298           15      .0003          44270      .9928
     298    299            5      .0001          44275      .9929
     299    300            5      .0001          44280      .9930
     300    301            0      .0000          44280      .9930
     301    302            0      .0000          44280      .9930
     302    303            1      .0000          44281      .9931
     303    304            3      .0001          44284      .9931
     304    305            2      .0000          44286      .9932
     305    306            8      .0002          44294      .9934
     306    307            1      .0000          44295      .9934
     307    308            6      .0001          44301      .9935
     308    309            1      .0000          44302      .9935
     309    310            3      .0001          44305      .9936
     310    311            2      .0000          44307      .9937
     311    312            3      .0001          44310      .9937
     312    313            0      .0000          44310      .9937
     313    314            1      .0000          44311      .9937
     314    315            4      .0001          44315      .9938
     315    316           17      .0004          44332      .9942
     316    317            0      .0000          44332      .9942
     317    318            0      .0000          44332      .9942
     318    319            8      .0002          44340      .9944
     319    320           12      .0003          44352      .9947
     320    321           12      .0003          44364      .9949
     321    322            4      .0001          44368      .9950
     322    323            7      .0002          44375      .9952
     323    324            0      .0000          44375      .9952
     324    325           13      .0003          44388      .9955
     325    326           22      .0005          44410      .9960
     326    327           10      .0002          44420      .9962
     327    328            4      .0001          44424      .9963
     328    329            0      .0000          44424      .9963
     329    330            3      .0001          44427      .9963
     330    331           14      .0003          44441      .9967
     331    332           27      .0006          44468      .9973
     332    333            0      .0000          44468      .9973
     333    334           23      .0005          44491      .9978
     334    335            0      .0000          44491      .9978
     335    336            0      .0000          44491      .9978
     336    337            0      .0000          44491      .9978
     337    338            1      .0000          44492      .9978
     338    339            1      .0000          44493      .9978
     339    340            0      .0000          44493      .9978
     340    341            0      .0000          44493      .9978
     341    342            0      .0000          44493      .9978
     342    343            0      .0000          44493      .9978
     343    344           23      .0005          44516      .9983
     344    345            0      .0000          44516      .9983
     345    346            0      .0000          44516      .9983
     346    347            0      .0000          44516      .9983
     347    348            0      .0000          44516      .9983
     348    349            0      .0000          44516      .9983
     349    350            0      .0000          44516      .9983
     350    351            0      .0000          44516      .9983
     351    352            0      .0000          44516      .9983
     352    353            0      .0000          44516      .9983
     353    354            0      .0000          44516      .9983
     354    355            0      .0000          44516      .9983
     355    356            0      .0000          44516      .9983
     356    357            0      .0000          44516      .9983
     357    358            5      .0001          44521      .9985
     358    359            0      .0000          44521      .9985
     359    360            1      .0000          44522      .9985
     360    361            0      .0000          44522      .9985
     361    362            0      .0000          44522      .9985
     362    363            0      .0000          44522      .9985
     363    364            0      .0000          44522      .9985
     364    365            0      .0000          44522      .9985
     365    366            0      .0000          44522      .9985
     366    367            0      .0000          44522      .9985
     367    368            1      .0000          44523      .9985
     368    369            1      .0000          44524      .9985
     369    370            1      .0000          44525      .9985
     370    371            0      .0000          44525      .9985
     371    372            0      .0000          44525      .9985
     372    373            2      .0000          44527      .9986
     373    374            0      .0000          44527      .9986
     374    375            0      .0000          44527      .9986
     375    376            0      .0000          44527      .9986
     376    377            0      .0000          44527      .9986
     377    378            0      .0000          44527      .9986
     378    379            1      .0000          44528      .9986
     379    380            0      .0000          44528      .9986
     380    381            1      .0000          44529      .9986
     381    382            0      .0000          44529      .9986
     382    383            0      .0000          44529      .9986
     383    384            4      .0001          44533      .9987
     384    385            0      .0000          44533      .9987
     385    386            0      .0000          44533      .9987
     386    387            0      .0000          44533      .9987
     387    388            0      .0000          44533      .9987
     388    389            1      .0000          44534      .9987
     389    390            1      .0000          44535      .9988
     390    391            0      .0000          44535      .9988
     391    392            0      .0000          44535      .9988
     392    393            0      .0000          44535      .9988
     393    394            3      .0001          44538      .9988
     394    395            0      .0000          44538      .9988
     395    396            0      .0000          44538      .9988
     396    397            4      .0001          44542      .9989
     397    398            1      .0000          44543      .9989
     398    399            1      .0000          44544      .9990
     399    400            0      .0000          44544      .9990
     400    401            0      .0000          44544      .9990
     401    402            0      .0000          44544      .9990
     402    403            6      .0001          44550      .9991
     403    404            1      .0000          44551      .9991
     404    405            2      .0000          44553      .9992
     405    406            0      .0000          44553      .9992
     406    407            0      .0000          44553      .9992
     407    408            4      .0001          44557      .9993
     408    409            0      .0000          44557      .9993
     409    410            0      .0000          44557      .9993
     410    411            0      .0000          44557      .9993
     411    412            0      .0000          44557      .9993
     412    413            0      .0000          44557      .9993
     413    414            0      .0000          44557      .9993
     414    415            6      .0001          44563      .9994
     415    416            0      .0000          44563      .9994
     416    417            0      .0000          44563      .9994
     417    418            0      .0000          44563      .9994
     418    419            0      .0000          44563      .9994
     419    420            0      .0000          44563      .9994
     420    421            0      .0000          44563      .9994
     421    422            0      .0000          44563      .9994
     422    423            0      .0000          44563      .9994
     423    424            0      .0000          44563      .9994
     424    425            0      .0000          44563      .9994
     425    426            0      .0000          44563      .9994
     426    427            0      .0000          44563      .9994
     427    428            0      .0000          44563      .9994
     428    429            0      .0000          44563      .9994
     429    430            0      .0000          44563      .9994
     430    431            0      .0000          44563      .9994
     431    432            0      .0000          44563      .9994
     432    433            0      .0000          44563      .9994
     433    434            0      .0000          44563      .9994
     434    435            0      .0000          44563      .9994
     435    436            0      .0000          44563      .9994
     436    437            0      .0000          44563      .9994
     437    438            0      .0000          44563      .9994
     438    439            0      .0000          44563      .9994
     439    440            0      .0000          44563      .9994
     440    441            0      .0000          44563      .9994
     441    442            0      .0000          44563      .9994
     442    443            0      .0000          44563      .9994
     443    444            0      .0000          44563      .9994
     444    445            0      .0000          44563      .9994
     445    446            0      .0000          44563      .9994
     446    447            0      .0000          44563      .9994
     447    448            0      .0000          44563      .9994
     448    449            0      .0000          44563      .9994
     449    450            0      .0000          44563      .9994
     450    451            0      .0000          44563      .9994
     451    452            0      .0000          44563      .9994
     452    453            0      .0000          44563      .9994
     453    454            0      .0000          44563      .9994
     454    455            0      .0000          44563      .9994
     455    456            0      .0000          44563      .9994
     456    457            0      .0000          44563      .9994
     457    458            0      .0000          44563      .9994
     458    459            0      .0000          44563      .9994
     459    460            0      .0000          44563      .9994
     460    461            0      .0000          44563      .9994
     461    462            0      .0000          44563      .9994
     462    463            0      .0000          44563      .9994
     463    464            0      .0000          44563      .9994
     464    465            0      .0000          44563      .9994
     465    466            0      .0000          44563      .9994
     466    467            0      .0000          44563      .9994
     467    468            0      .0000          44563      .9994
     468    469            0      .0000          44563      .9994
     469    470            0      .0000          44563      .9994
     470    471            0      .0000          44563      .9994
     471    472            0      .0000          44563      .9994
     472    473            0      .0000          44563      .9994
     473    474            0      .0000          44563      .9994
     474    475            0      .0000          44563      .9994
     475    476            0      .0000          44563      .9994
     476    477            0      .0000          44563      .9994
     477    478            0      .0000          44563      .9994
     478    479            0      .0000          44563      .9994
     479    480            0      .0000          44563      .9994
     480    481            0      .0000          44563      .9994
     481    482            0      .0000          44563      .9994
     482    483            0      .0000          44563      .9994
     483    484            0      .0000          44563      .9994
     484    485            0      .0000          44563      .9994
     485    486            0      .0000          44563      .9994
     486    487            0      .0000          44563      .9994
     487    488            0      .0000          44563      .9994
     488    489            0      .0000          44563      .9994
     489    490            0      .0000          44563      .9994
     490    491            0      .0000          44563      .9994
     491    492            0      .0000          44563      .9994
     492    493            0      .0000          44563      .9994
     493    494            0      .0000          44563      .9994
     494    495            0      .0000          44563      .9994
     495    496            0      .0000          44563      .9994
     496    497            0      .0000          44563      .9994
     497    498            0      .0000          44563      .9994
     498    499            0      .0000          44563      .9994
     499    500            0      .0000          44563      .9994


 MATRIX CALCULATIONS
 *******************


 Expression:

  mf06   = 0

 Result matrix:         mf06  : temp6                                         Temporary Matrix 6                                                               (18-11-21 10:40:08)

 Constraint matrix:     none

 Submatrix:             all origins             all destinations

 Number of expression evaluations:          35721
 Minimum expression value:                .000000   (at      1      1)
 Maximum expression value:                .000000   (at      1      1)
 Average expression value:                .000000
 Sum of expression values:                .000000


 MATRIX CALCULATIONS
 *******************


 Expression:

  mf06   = mf644' + mf645 + mf642' + mf643

 Result matrix:         mf06  : temp6                                         Temporary Matrix 6                                                               (18-11-21 10:40:08)

 Data matrices:         mf644 : MND453                                        Mobile OP HBOEIB Rail                                                            (18-11-21 10:39:20)
                        mf645 : MND454                                        Mobile OP HBOEOB Rail                                                            (18-11-21 10:39:21)
                        mf642 : MND451                                        Mobile OP HBWIB Rail                                                             (18-11-21 10:39:17)
                        mf643 : MND452                                        Mobile OP HBWOB Rail                                                             (18-11-21 10:39:18)

 Constraint matrix:     none

 Submatrix:             all origins             all destinations

 Number of expression evaluations:          35721
 Minimum expression value:                .000000   (at      1      1)
 Maximum expression value:           44900.000000   (at    102    106)
 Average expression value:              17.539653
 Sum of expression values:          626534.000000
