

 Matrix histogram
 ----------------


 data   matrix        mf795 : DSTSK2                                   Distance Skim Car                                                               

 weight matrix        mf01  : temp1                                    Temporary Matrix 1                                                              

  all  origins   all  destinations

 constraint matrix    mf10  : temp10                                   Temporary Matrix 10                                                             
          interval  lower:         1
                    upper:         1  include 

 out of range       above:   .91563
                    below:        0

 statistics         mean : 20.60127
                    std  : 17.38816

    interval        ------density-------      -----cumulative-----
 (from  ,    to)    absolute  normalized      absolute  normalized

       0      1            0      .0000              0      .0000
       1      2     2.672622      .0000       2.672622      .0000
       2      3     228.7129      .0012       231.3855      .0012
       3      4      530.935      .0027       762.3205      .0039
       4      5     4653.953      .0238       5416.273      .0277
       5      6     15575.11      .0797       20991.39      .1074
       6      7     11648.88      .0596       32640.27      .1670
       7      8     6842.449      .0350       39482.72      .2020
       8      9     7912.062      .0405       47394.78      .2424
       9     10     5369.573      .0275       52764.35      .2699
      10     11     6491.991      .0332       59256.35      .3031
      11     12     9457.023      .0484       68713.37      .3515
      12     13     6983.938      .0357       75697.31      .3872
      13     14     8479.713      .0434       84177.02      .4306
      14     15     5785.368      .0296       89962.39      .4602
      15     16      9150.95      .0468       99113.33      .5070
      16     17     9169.148      .0469       108282.5      .5539
      17     18     7762.464      .0397       116044.9      .5936
      18     19     7169.542      .0367       123214.5      .6303
      19     20     3849.633      .0197       127064.1      .6500
      20     21     2430.234      .0124       129494.3      .6624
      21     22     2823.779      .0144       132318.1      .6769
      22     23     4555.625      .0233       136873.7      .7002
      23     24     2773.522      .0142       139647.3      .7144
      24     25     4094.773      .0209         143742      .7353
      25     26     1523.892      .0078       145265.9      .7431
      26     27     2999.132      .0153         148265      .7584
      27     28     2688.955      .0138         150954      .7722
      28     29      1629.56      .0083       152583.6      .7805
      29     30     4915.986      .0251       157499.5      .8057
      30     31     2283.932      .0117       159783.5      .8174
      31     32     2957.918      .0151       162741.4      .8325
      32     33     1073.955      .0055       163815.4      .8380
      33     34      1482.37      .0076       165297.7      .8456
      34     35     2232.871      .0114       167530.6      .8570
      35     36     2349.211      .0120       169879.8      .8690
      36     37     929.8062      .0048       170809.6      .8738
      37     38     2107.282      .0108       172916.9      .8845
      38     39     1181.277      .0060       174098.2      .8906
      39     40     707.5344      .0036       174805.7      .8942
      40     41     611.9504      .0031       175417.7      .8973
      41     42     1258.743      .0064       176676.4      .9038
      42     43     1319.507      .0067       177995.9      .9105
      43     44     1018.558      .0052       179014.5      .9157
      44     45     1252.347      .0064       180266.8      .9221
      45     46     702.4014      .0036       180969.2      .9257
      46     47     465.7153      .0024         181435      .9281
      47     48     1192.422      .0061       182627.4      .9342
      48     49     575.7818      .0029       183203.2      .9372
      49     50     940.1561      .0048       184143.3      .9420
      50     51     382.5428      .0020       184525.9      .9439
      51     52     663.8225      .0034       185189.7      .9473
      52     53     442.6662      .0023       185632.4      .9496
      53     54     258.6994      .0013       185891.1      .9509
      54     55     1074.698      .0055       186965.8      .9564
      55     56      755.537      .0039       187721.3      .9603
      56     57     489.4461      .0025       188210.7      .9628
      57     58     294.9309      .0015       188505.7      .9643
      58     59     495.2615      .0025         189001      .9668
      59     60     370.4556      .0019       189371.4      .9687
      60     61     295.0912      .0015       189666.5      .9702
      61     62     308.7814      .0016       189975.3      .9718
      62     63     250.7581      .0013         190226      .9731
      63     64     171.8916      .0009       190397.9      .9740
      64     65     217.7882      .0011       190615.7      .9751
      65     66     309.4927      .0016       190925.2      .9767
      66     67     160.1922      .0008       191085.4      .9775
      67     68     265.6099      .0014         191351      .9788
      68     69     330.2493      .0017       191681.3      .9805
      69     70     227.0937      .0012       191908.4      .9817
      70     71     103.7784      .0005       192012.1      .9822
      71     72     146.8493      .0008         192159      .9830
      72     73     116.4458      .0006       192275.4      .9836
      73     74     112.7954      .0006       192388.2      .9841
      74     75     174.9866      .0009       192563.2      .9850
      75     76      115.598      .0006       192678.8      .9856
      76     77     121.7987      .0006       192800.6      .9863
      77     78     83.18113      .0004       192883.8      .9867
      78     79     101.7593      .0005       192985.6      .9872
      79     80     114.5862      .0006       193100.2      .9878
      80     81     104.5114      .0005       193204.7      .9883
      81     82     239.6232      .0012       193444.3      .9896
      82     83     46.77809      .0002       193491.1      .9898
      83     84     38.25286      .0002       193529.3      .9900
      84     85     35.33201      .0002       193564.7      .9902
      85     86     22.37397      .0001         193587      .9903
      86     87     119.0221      .0006         193706      .9909
      87     88     57.94595      .0003         193764      .9912
      88     89     29.19589      .0001       193793.2      .9913
      89     90     30.93956      .0002       193824.1      .9915
      90     91     147.1866      .0008       193971.3      .9922
      91     92     80.00951      .0004       194051.3      .9927
      92     93     56.35285      .0003       194107.7      .9929
      93     94     84.03169      .0004       194191.7      .9934
      94     95     3.984525      .0000       194195.7      .9934
      95     96     60.48817      .0003       194256.2      .9937
      96     97      13.0101      .0001       194269.2      .9938
      97     98     91.62291      .0005       194360.8      .9942
      98     99     53.31293      .0003       194414.2      .9945
      99    100     30.95476      .0002       194445.1      .9947
     100    101     41.61445      .0002       194486.7      .9949
     101    102     22.89734      .0001       194509.6      .9950
     102    103     17.72894      .0001       194527.3      .9951
     103    104     21.37629      .0001       194548.7      .9952
     104    105     52.78407      .0003       194601.5      .9955
     105    106     31.53721      .0002         194633      .9956
     106    107     12.81906      .0001       194645.8      .9957
     107    108     17.47397      .0001       194663.3      .9958
     108    109      11.4864      .0001       194674.8      .9958
     109    110     12.13583      .0001       194686.9      .9959
     110    111     14.30735      .0001       194701.2      .9960
     111    112     26.04028      .0001       194727.3      .9961
     112    113     19.34037      .0001       194746.6      .9962
     113    114     42.39489      .0002         194789      .9964
     114    115     16.60166      .0001       194805.6      .9965
     115    116     27.64064      .0001       194833.3      .9967
     116    117     15.77636      .0001       194849.1      .9967
     117    118     23.95716      .0001         194873      .9969
     118    119      52.7354      .0003       194925.7      .9971
     119    120     23.47255      .0001       194949.2      .9972
     120    121     24.45639      .0001       194973.7      .9974
     121    122     25.18198      .0001       194998.9      .9975
     122    123     32.83061      .0002       195031.7      .9977
     123    124     21.64737      .0001       195053.3      .9978
     124    125     12.57749      .0001       195065.9      .9978
     125    126     22.32365      .0001       195088.2      .9980
     126    127     19.41483      .0001       195107.7      .9981
     127    128      6.80921      .0000       195114.5      .9981
     128    129     11.56297      .0001         195126      .9982
     129    130     14.96801      .0001         195141      .9982
     130    131     17.31325      .0001       195158.3      .9983
     131    132     8.646817      .0000         195167      .9984
     132    133     12.79226      .0001       195179.7      .9984
     133    134     15.17319      .0001       195194.9      .9985
     134    135     18.38346      .0001       195213.3      .9986
     135    136     10.41567      .0001       195223.7      .9987
     136    137     5.641873      .0000       195229.4      .9987
     137    138     13.33167      .0001       195242.7      .9987
     138    139     11.33804      .0001         195254      .9988
     139    140     4.819159      .0000       195258.9      .9988
     140    141     4.157495      .0000         195263      .9989
     141    142     1.643671      .0000       195264.7      .9989
     142    143     12.60666      .0001       195277.3      .9989
     143    144     7.987406      .0000       195285.2      .9990
     144    145     10.16577      .0001       195295.4      .9990
     145    146     7.665049      .0000       195303.1      .9991
     146    147      14.3416      .0001       195317.4      .9991
     147    148     3.480525      .0000       195320.9      .9991
     148    149     5.711425      .0000       195326.6      .9992
     149    150     8.131027      .0000       195334.8      .9992
     150    151     3.382347      .0000       195338.1      .9992
     151    152     3.211063      .0000       195341.4      .9993
     152    153     7.867271      .0000       195349.2      .9993
     153    154     1.717351      .0000         195351      .9993
     154    155     3.390172      .0000       195354.3      .9993
     155    156      3.94982      .0000       195358.3      .9993
     156    157     6.958042      .0000       195365.2      .9994
     157    158      8.74998      .0000         195374      .9994
     158    159     3.344869      .0000       195377.3      .9994
     159    160     4.186268      .0000       195381.5      .9995
     160    161      .846697      .0000       195382.4      .9995
     161    162      .820619      .0000       195383.2      .9995
     162    163     5.191351      .0000       195388.4      .9995
     163    164      .851266      .0000       195389.2      .9995
     164    165      .847234      .0000       195390.1      .9995
     165    166            0      .0000       195390.1      .9995
     166    167            0      .0000       195390.1      .9995
     167    168     1.325499      .0000       195391.4      .9995
     168    169     2.519307      .0000       195393.9      .9995
     169    170     2.413456      .0000       195396.3      .9995
     170    171     6.601076      .0000       195402.9      .9996
     171    172            0      .0000       195402.9      .9996
     172    173     3.904884      .0000       195406.8      .9996
     173    174       .82238      .0000       195407.7      .9996
     174    175     2.704532      .0000       195410.4      .9996
     175    176            0      .0000       195410.4      .9996
     176    177      .832627      .0000       195411.2      .9996
     177    178     1.704845      .0000       195412.9      .9996
     178    179       .78954      .0000       195413.7      .9996
     179    180     4.247842      .0000       195417.9      .9996
     180    181            0      .0000       195417.9      .9996
     181    182       .83331      .0000       195418.8      .9997
     182    183            0      .0000       195418.8      .9997
     183    184     2.596426      .0000       195421.4      .9997
     184    185     3.238123      .0000       195424.6      .9997
     185    186            0      .0000       195424.6      .9997
     186    187            0      .0000       195424.6      .9997
     187    188            0      .0000       195424.6      .9997
     188    189            0      .0000       195424.6      .9997
     189    190            0      .0000       195424.6      .9997
     190    191      .832627      .0000       195425.4      .9997
     191    192      .789539      .0000       195426.2      .9997
     192    193      .832627      .0000         195427      .9997
     193    194      .774322      .0000       195427.8      .9997
     194    195            0      .0000       195427.8      .9997
     195    196            0      .0000       195427.8      .9997
     196    197     1.790282      .0000       195429.6      .9997
     197    198            0      .0000       195429.6      .9997
     198    199      .887262      .0000       195430.5      .9997
     199    200      .532595      .0000         195431      .9997
     200    201      .890695      .0000       195431.9      .9997
     201    202      .894911      .0000       195432.8      .9997
     202    203       .86884      .0000       195433.7      .9997
     203    204            0      .0000       195433.7      .9997
     204    205      .832627      .0000       195434.5      .9997
     205    206            0      .0000       195434.5      .9997
     206    207            0      .0000       195434.5      .9997
     207    208            0      .0000       195434.5      .9997
     208    209      .789539      .0000       195435.3      .9997
     209    210            0      .0000       195435.3      .9997
     210    211            0      .0000       195435.3      .9997
     211    212            0      .0000       195435.3      .9997
     212    213            0      .0000       195435.3      .9997
     213    214            0      .0000       195435.3      .9997
     214    215      .859227      .0000       195436.2      .9997
     215    216            0      .0000       195436.2      .9997
     216    217            0      .0000       195436.2      .9997
     217    218            0      .0000       195436.2      .9997
     218    219            0      .0000       195436.2      .9997
     219    220      .890543      .0000       195437.1      .9997
     220    221            0      .0000       195437.1      .9997
     221    222            0      .0000       195437.1      .9997
     222    223            0      .0000       195437.1      .9997
     223    224            0      .0000       195437.1      .9997
     224    225            0      .0000       195437.1      .9997
     225    226            0      .0000       195437.1      .9997
     226    227            0      .0000       195437.1      .9997
     227    228            0      .0000       195437.1      .9997
     228    229      .889676      .0000         195438      .9997
     229    230     1.597785      .0000       195439.6      .9998
     230    231            0      .0000       195439.6      .9998
     231    232      .885046      .0000       195440.5      .9998
     232    233            0      .0000       195440.5      .9998
     233    234      .924805      .0000       195441.4      .9998
     234    235            0      .0000       195441.4      .9998
     235    236            0      .0000       195441.4      .9998
     236    237            0      .0000       195441.4      .9998
     237    238            0      .0000       195441.4      .9998
     238    239            0      .0000       195441.4      .9998
     239    240            0      .0000       195441.4      .9998
     240    241            0      .0000       195441.4      .9998
     241    242            0      .0000       195441.4      .9998
     242    243            0      .0000       195441.4      .9998
     243    244            0      .0000       195441.4      .9998
     244    245            0      .0000       195441.4      .9998
     245    246            0      .0000       195441.4      .9998
     246    247            0      .0000       195441.4      .9998
     247    248            0      .0000       195441.4      .9998
     248    249            0      .0000       195441.4      .9998
     249    250            0      .0000       195441.4      .9998
     250    251            0      .0000       195441.4      .9998
     251    252      .859277      .0000       195442.2      .9998
     252    253     4.148554      .0000       195446.4      .9998
     253    254     3.241929      .0000       195449.6      .9998
     254    255            0      .0000       195449.6      .9998
     255    256            0      .0000       195449.6      .9998
     256    257            0      .0000       195449.6      .9998
     257    258            0      .0000       195449.6      .9998
     258    259            0      .0000       195449.6      .9998
     259    260            0      .0000       195449.6      .9998
     260    261      .890695      .0000       195450.5      .9998
     261    262            0      .0000       195450.5      .9998
     262    263     2.394881      .0000       195452.9      .9998
     263    264            0      .0000       195452.9      .9998
     264    265            0      .0000       195452.9      .9998
     265    266            0      .0000       195452.9      .9998
     266    267            0      .0000       195452.9      .9998
     267    268            0      .0000       195452.9      .9998
     268    269      .904098      .0000       195453.8      .9998
     269    270      .904098      .0000       195454.7      .9998
     270    271      .896607      .0000       195455.6      .9998
     271    272            0      .0000       195455.6      .9998
     272    273            0      .0000       195455.6      .9998
     273    274      .876595      .0000       195456.5      .9998
     274    275      .872665      .0000       195457.4      .9998
     275    276      .906454      .0000       195458.3      .9999
     276    277     1.757692      .0000         195460      .9999
     277    278      .883873      .0000       195460.9      .9999
     278    279            0      .0000       195460.9      .9999
     279    280     1.799392      .0000       195462.7      .9999
     280    281            0      .0000       195462.7      .9999
     281    282            0      .0000       195462.7      .9999
     282    283            0      .0000       195462.7      .9999
     283    284     1.741409      .0000       195464.4      .9999
     284    285            0      .0000       195464.4      .9999
     285    286            0      .0000       195464.4      .9999
     286    287            0      .0000       195464.4      .9999
     287    288      .907616      .0000       195465.3      .9999
     288    289            0      .0000       195465.3      .9999
     289    290            0      .0000       195465.3      .9999
     290    291            0      .0000       195465.3      .9999
     291    292            0      .0000       195465.3      .9999
     292    293            0      .0000       195465.3      .9999
     293    294            0      .0000       195465.3      .9999
     294    295            0      .0000       195465.3      .9999
     295    296      1.53054      .0000       195466.9      .9999
     296    297            0      .0000       195466.9      .9999
     297    298            0      .0000       195466.9      .9999
     298    299     2.556329      .0000       195469.4      .9999
     299    300            0      .0000       195469.4      .9999
     300    301            0      .0000       195469.4      .9999
     301    302            0      .0000       195469.4      .9999
     302    303            0      .0000       195469.4      .9999
     303    304            0      .0000       195469.4      .9999
     304    305            0      .0000       195469.4      .9999
     305    306            0      .0000       195469.4      .9999
     306    307            0      .0000       195469.4      .9999
     307    308            0      .0000       195469.4      .9999
     308    309            0      .0000       195469.4      .9999
     309    310            0      .0000       195469.4      .9999
     310    311            0      .0000       195469.4      .9999
     311    312      .887272      .0000       195470.3      .9999
     312    313            0      .0000       195470.3      .9999
     313    314            0      .0000       195470.3      .9999
     314    315            0      .0000       195470.3      .9999
     315    316     2.534806      .0000       195472.9      .9999
     316    317            0      .0000       195472.9      .9999
     317    318      .901652      .0000       195473.8      .9999
     318    319            0      .0000       195473.8      .9999
     319    320            0      .0000       195473.8      .9999
     320    321            0      .0000       195473.8      .9999
     321    322            0      .0000       195473.8      .9999
     322    323            0      .0000       195473.8      .9999
     323    324            0      .0000       195473.8      .9999
     324    325      .905622      .0000       195474.7      .9999
     325    326     2.580998      .0000       195477.2      .9999
     326    327            0      .0000       195477.2      .9999
     327    328            0      .0000       195477.2      .9999
     328    329            0      .0000       195477.2      .9999
     329    330            0      .0000       195477.2      .9999
     330    331            0      .0000       195477.2      .9999
     331    332     1.079926      .0000       195478.3     1.0000
     332    333            0      .0000       195478.3     1.0000
     333    334            0      .0000       195478.3     1.0000
     334    335            0      .0000       195478.3     1.0000
     335    336            0      .0000       195478.3     1.0000
     336    337            0      .0000       195478.3     1.0000
     337    338            0      .0000       195478.3     1.0000
     338    339            0      .0000       195478.3     1.0000
     339    340            0      .0000       195478.3     1.0000
     340    341            0      .0000       195478.3     1.0000
     341    342            0      .0000       195478.3     1.0000
     342    343            0      .0000       195478.3     1.0000
     343    344     3.626943      .0000         195482     1.0000
     344    345            0      .0000         195482     1.0000
     345    346            0      .0000         195482     1.0000
     346    347            0      .0000         195482     1.0000
     347    348            0      .0000         195482     1.0000
     348    349            0      .0000         195482     1.0000
     349    350            0      .0000         195482     1.0000
     350    351            0      .0000         195482     1.0000
     351    352            0      .0000         195482     1.0000
     352    353            0      .0000         195482     1.0000
     353    354            0      .0000         195482     1.0000
     354    355            0      .0000         195482     1.0000
     355    356            0      .0000         195482     1.0000
     356    357            0      .0000         195482     1.0000
     357    358      .913325      .0000       195482.9     1.0000
     358    359            0      .0000       195482.9     1.0000
     359    360            0      .0000       195482.9     1.0000
     360    361            0      .0000       195482.9     1.0000
     361    362            0      .0000       195482.9     1.0000
     362    363            0      .0000       195482.9     1.0000
     363    364            0      .0000       195482.9     1.0000
     364    365            0      .0000       195482.9     1.0000
     365    366            0      .0000       195482.9     1.0000
     366    367            0      .0000       195482.9     1.0000
     367    368            0      .0000       195482.9     1.0000
     368    369            0      .0000       195482.9     1.0000
     369    370            0      .0000       195482.9     1.0000
     370    371            0      .0000       195482.9     1.0000
     371    372            0      .0000       195482.9     1.0000
     372    373            0      .0000       195482.9     1.0000
     373    374            0      .0000       195482.9     1.0000
     374    375            0      .0000       195482.9     1.0000
     375    376            0      .0000       195482.9     1.0000
     376    377            0      .0000       195482.9     1.0000
     377    378            0      .0000       195482.9     1.0000
     378    379            0      .0000       195482.9     1.0000
     379    380            0      .0000       195482.9     1.0000
     380    381            0      .0000       195482.9     1.0000
     381    382            0      .0000       195482.9     1.0000
     382    383            0      .0000       195482.9     1.0000
     383    384      .575495      .0000       195483.4     1.0000
     384    385            0      .0000       195483.4     1.0000
     385    386            0      .0000       195483.4     1.0000
     386    387            0      .0000       195483.4     1.0000
     387    388            0      .0000       195483.4     1.0000
     388    389            0      .0000       195483.4     1.0000
     389    390            0      .0000       195483.4     1.0000
     390    391            0      .0000       195483.4     1.0000
     391    392            0      .0000       195483.4     1.0000
     392    393            0      .0000       195483.4     1.0000
     393    394            0      .0000       195483.4     1.0000
     394    395            0      .0000       195483.4     1.0000
     395    396            0      .0000       195483.4     1.0000
     396    397     1.831909      .0000       195485.3     1.0000
     397    398      .910975      .0000       195486.2     1.0000
     398    399            0      .0000       195486.2     1.0000
     399    400            0      .0000       195486.2     1.0000
     400    401            0      .0000       195486.2     1.0000
     401    402            0      .0000       195486.2     1.0000
     402    403            0      .0000       195486.2     1.0000
     403    404            0      .0000       195486.2     1.0000
     404    405            0      .0000       195486.2     1.0000
     405    406            0      .0000       195486.2     1.0000
     406    407            0      .0000       195486.2     1.0000
     407    408            0      .0000       195486.2     1.0000
     408    409            0      .0000       195486.2     1.0000
     409    410            0      .0000       195486.2     1.0000
     410    411            0      .0000       195486.2     1.0000
     411    412            0      .0000       195486.2     1.0000
     412    413            0      .0000       195486.2     1.0000
     413    414            0      .0000       195486.2     1.0000
     414    415            0      .0000       195486.2     1.0000
     415    416            0      .0000       195486.2     1.0000
     416    417            0      .0000       195486.2     1.0000
     417    418            0      .0000       195486.2     1.0000
     418    419            0      .0000       195486.2     1.0000
     419    420            0      .0000       195486.2     1.0000
     420    421            0      .0000       195486.2     1.0000
     421    422            0      .0000       195486.2     1.0000
     422    423            0      .0000       195486.2     1.0000
     423    424            0      .0000       195486.2     1.0000
     424    425            0      .0000       195486.2     1.0000
     425    426            0      .0000       195486.2     1.0000
     426    427            0      .0000       195486.2     1.0000
     427    428            0      .0000       195486.2     1.0000
     428    429            0      .0000       195486.2     1.0000
     429    430            0      .0000       195486.2     1.0000
     430    431            0      .0000       195486.2     1.0000
     431    432            0      .0000       195486.2     1.0000
     432    433            0      .0000       195486.2     1.0000
     433    434            0      .0000       195486.2     1.0000
     434    435            0      .0000       195486.2     1.0000
     435    436            0      .0000       195486.2     1.0000
     436    437            0      .0000       195486.2     1.0000
     437    438            0      .0000       195486.2     1.0000
     438    439            0      .0000       195486.2     1.0000
     439    440            0      .0000       195486.2     1.0000
     440    441            0      .0000       195486.2     1.0000
     441    442            0      .0000       195486.2     1.0000
     442    443            0      .0000       195486.2     1.0000
     443    444            0      .0000       195486.2     1.0000
     444    445            0      .0000       195486.2     1.0000
     445    446            0      .0000       195486.2     1.0000
     446    447            0      .0000       195486.2     1.0000
     447    448            0      .0000       195486.2     1.0000
     448    449            0      .0000       195486.2     1.0000
     449    450            0      .0000       195486.2     1.0000
     450    451            0      .0000       195486.2     1.0000
     451    452            0      .0000       195486.2     1.0000
     452    453            0      .0000       195486.2     1.0000
     453    454            0      .0000       195486.2     1.0000
     454    455            0      .0000       195486.2     1.0000
     455    456            0      .0000       195486.2     1.0000
     456    457            0      .0000       195486.2     1.0000
     457    458            0      .0000       195486.2     1.0000
     458    459            0      .0000       195486.2     1.0000
     459    460            0      .0000       195486.2     1.0000
     460    461            0      .0000       195486.2     1.0000
     461    462            0      .0000       195486.2     1.0000
     462    463            0      .0000       195486.2     1.0000
     463    464            0      .0000       195486.2     1.0000
     464    465            0      .0000       195486.2     1.0000
     465    466            0      .0000       195486.2     1.0000
     466    467            0      .0000       195486.2     1.0000
     467    468            0      .0000       195486.2     1.0000
     468    469            0      .0000       195486.2     1.0000
     469    470            0      .0000       195486.2     1.0000
     470    471            0      .0000       195486.2     1.0000
     471    472            0      .0000       195486.2     1.0000
     472    473            0      .0000       195486.2     1.0000
     473    474            0      .0000       195486.2     1.0000
     474    475            0      .0000       195486.2     1.0000
     475    476            0      .0000       195486.2     1.0000
     476    477            0      .0000       195486.2     1.0000
     477    478            0      .0000       195486.2     1.0000
     478    479            0      .0000       195486.2     1.0000
     479    480            0      .0000       195486.2     1.0000
     480    481            0      .0000       195486.2     1.0000
     481    482            0      .0000       195486.2     1.0000
     482    483            0      .0000       195486.2     1.0000
     483    484            0      .0000       195486.2     1.0000
     484    485            0      .0000       195486.2     1.0000
     485    486            0      .0000       195486.2     1.0000
     486    487            0      .0000       195486.2     1.0000
     487    488            0      .0000       195486.2     1.0000
     488    489            0      .0000       195486.2     1.0000
     489    490            0      .0000       195486.2     1.0000
     490    491            0      .0000       195486.2     1.0000
     491    492            0      .0000       195486.2     1.0000
     492    493            0      .0000       195486.2     1.0000
     493    494            0      .0000       195486.2     1.0000
     494    495            0      .0000       195486.2     1.0000
     495    496            0      .0000       195486.2     1.0000
     496    497            0      .0000       195486.2     1.0000
     497    498            0      .0000       195486.2     1.0000
     498    499            0      .0000       195486.2     1.0000
     499    500            0      .0000       195486.2     1.0000


 MATRIX CALCULATIONS
 *******************


 Expression:

  mf01   = 0

 Result matrix:         mf01  : temp1                                         Temporary Matrix 1                                                               (18-11-21 10:44:11)

 Constraint matrix:     none

 Submatrix:             all origins             all destinations

 Number of expression evaluations:          35721
 Minimum expression value:                .000000   (at      1      1)
 Maximum expression value:                .000000   (at      1      1)
 Average expression value:                .000000
 Sum of expression values:                .000000


 MATRIX CALCULATIONS
 *******************


 Expression:

  mf01   = mf469 + mf468'

 Result matrix:         mf01  : temp1                                         Temporary Matrix 1                                                               (18-11-21 10:44:11)

 Data matrices:         mf469 : MND326                                        Mobile PM HBOOB Car                                                              (18-11-21 10:43:55)
                        mf468 : MND325                                        Mobile PM HBOIB Car                                                              (18-11-21 10:43:55)

 Constraint matrix:     none

 Submatrix:             all origins             all destinations

 Number of expression evaluations:          35721
 Minimum expression value:                .000000   (at      1      1)
 Maximum expression value:           96036.765625   (at    102    102)
 Average expression value:              20.026586
 Sum of expression values:          715369.687500
