

 Matrix histogram
 ----------------


 data   matrix        mf795 : DSTSK2                                   Distance Skim Car                                                               

 weight matrix        mf01  : temp1                                    Temporary Matrix 1                                                              

  all  origins   all  destinations

 constraint matrix    mf10  : temp10                                   Temporary Matrix 10                                                             
          interval  lower:         1
                    upper:         1  include 

 out of range       above: 4552.025
                    below:        0

 statistics         mean : 25.76581
                    std  : 49.50458

    interval        ------density-------      -----cumulative-----
 (from  ,    to)    absolute  normalized      absolute  normalized

       0      1            0      .0000              0      .0000
       1      2     26.26991      .0000       26.26991      .0000
       2      3     1619.509      .0009       1645.778      .0010
       3      4     2863.948      .0017       4509.727      .0026
       4      5     52209.26      .0305       56718.99      .0331
       5      6     145600.1      .0850       202319.1      .1181
       6      7     144487.7      .0844       346806.8      .2025
       7      8     72263.48      .0422       419070.3      .2447
       8      9     72278.62      .0422       491348.9      .2869
       9     10      54357.1      .0317         545706      .3186
      10     11     58909.77      .0344       604615.8      .3530
      11     12     81032.95      .0473       685648.7      .4003
      12     13     60794.52      .0355       746443.2      .4358
      13     14        74348      .0434       820791.2      .4792
      14     15     50211.41      .0293       871002.6      .5085
      15     16     88792.24      .0518       959794.9      .5604
      16     17     83357.37      .0487        1043152      .6091
      17     18     69151.71      .0404        1112304      .6494
      18     19      61540.5      .0359        1173845      .6854
      19     20     28885.52      .0169        1202730      .7022
      20     21     17577.21      .0103        1220307      .7125
      21     22     19576.96      .0114        1239884      .7239
      22     23     34226.72      .0200        1274111      .7439
      23     24     20117.57      .0117        1294229      .7557
      24     25     26678.53      .0156        1320907      .7712
      25     26     11012.34      .0064        1331920      .7777
      26     27     21195.88      .0124        1353115      .7900
      27     28     17913.14      .0105        1371029      .8005
      28     29     11195.13      .0065        1382224      .8070
      29     30     34703.68      .0203        1416927      .8273
      30     31     15106.95      .0088        1432034      .8361
      31     32     18369.97      .0107        1450404      .8468
      32     33     7154.258      .0042        1457559      .8510
      33     34     8905.072      .0052        1466464      .8562
      34     35     12919.78      .0075        1479383      .8638
      35     36     14579.22      .0085        1493963      .8723
      36     37     6263.506      .0037        1500226      .8759
      37     38     11529.42      .0067        1511756      .8827
      38     39     6952.567      .0041        1518708      .8867
      39     40     4454.965      .0026        1523163      .8893
      40     41      3626.79      .0021        1526790      .8914
      41     42     6853.058      .0040        1533643      .8954
      42     43     6958.642      .0041        1540602      .8995
      43     44     5972.102      .0035        1546574      .9030
      44     45     7572.982      .0044        1554147      .9074
      45     46     3813.145      .0022        1557960      .9096
      46     47     2485.445      .0015        1560445      .9111
      47     48     6233.579      .0036        1566679      .9147
      48     49     3532.477      .0021        1570211      .9168
      49     50     5771.974      .0034        1575983      .9202
      50     51     2704.785      .0016        1578688      .9217
      51     52     4223.705      .0025        1582912      .9242
      52     53     2965.944      .0017        1585878      .9259
      53     54     1680.436      .0010        1587558      .9269
      54     55     5109.227      .0030        1592668      .9299
      55     56     4709.402      .0027        1597377      .9327
      56     57     3308.058      .0019        1600685      .9346
      57     58     2087.988      .0012        1602773      .9358
      58     59     2777.206      .0016        1605550      .9374
      59     60     2466.334      .0014        1608017      .9389
      60     61     2020.668      .0012        1610037      .9400
      61     62     1797.675      .0010        1611835      .9411
      62     63     1609.864      .0009        1613445      .9420
      63     64     1447.354      .0008        1614892      .9429
      64     65      1380.59      .0008        1616273      .9437
      65     66     1825.488      .0011        1618098      .9448
      66     67     1132.604      .0007        1619231      .9454
      67     68     2087.379      .0012        1621318      .9466
      68     69     2721.398      .0016        1624040      .9482
      69     70     1642.905      .0010        1625682      .9492
      70     71     879.1416      .0005        1626562      .9497
      71     72     1322.461      .0008        1627884      .9505
      72     73     1215.791      .0007        1629100      .9512
      73     74     1269.752      .0007        1630370      .9519
      74     75     1350.356      .0008        1631720      .9527
      75     76     991.8247      .0006        1632712      .9533
      76     77     1003.231      .0006        1633715      .9539
      77     78     685.1775      .0004        1634400      .9543
      78     79     621.0706      .0004        1635021      .9546
      79     80     1234.522      .0007        1636256      .9554
      80     81     1026.029      .0006        1637282      .9560
      81     82     1977.508      .0012        1639259      .9571
      82     83     503.1015      .0003        1639762      .9574
      83     84      577.648      .0003        1640340      .9577
      84     85     479.3371      .0003        1640819      .9580
      85     86      353.659      .0002        1641173      .9582
      86     87     1430.446      .0008        1642604      .9591
      87     88     594.2883      .0003        1643198      .9594
      88     89     305.0895      .0002        1643503      .9596
      89     90     475.6297      .0003        1643979      .9599
      90     91     1510.514      .0009        1645489      .9607
      91     92     1329.578      .0008        1646819      .9615
      92     93     762.0297      .0004        1647581      .9620
      93     94     952.2926      .0006        1648533      .9625
      94     95     142.2212      .0001        1648675      .9626
      95     96     1013.908      .0006        1649689      .9632
      96     97     351.2274      .0002        1650040      .9634
      97     98     1260.441      .0007        1651301      .9641
      98     99     935.2366      .0005        1652236      .9647
      99    100     404.3306      .0002        1652640      .9649
     100    101     584.4816      .0003        1653225      .9653
     101    102     342.6026      .0002        1653568      .9655
     102    103     392.2149      .0002        1653960      .9657
     103    104     402.4467      .0002        1654362      .9659
     104    105     809.2573      .0005        1655172      .9664
     105    106      667.379      .0004        1655839      .9668
     106    107     273.2187      .0002        1656112      .9669
     107    108     323.4354      .0002        1656436      .9671
     108    109     190.9391      .0001        1656627      .9672
     109    110      190.466      .0001        1656817      .9674
     110    111     419.4851      .0002        1657237      .9676
     111    112     533.6757      .0003        1657770      .9679
     112    113     404.3721      .0002        1658175      .9682
     113    114     998.8463      .0006        1659173      .9687
     114    115     258.1215      .0002        1659432      .9689
     115    116     557.9805      .0003        1659990      .9692
     116    117     314.6127      .0002        1660304      .9694
     117    118     487.0794      .0003        1660791      .9697
     118    119     820.0606      .0005        1661611      .9702
     119    120     511.7534      .0003        1662123      .9705
     120    121     432.1934      .0003        1662555      .9707
     121    122     460.5422      .0003        1663016      .9710
     122    123     683.5079      .0004        1663699      .9714
     123    124       557.13      .0003        1664256      .9717
     124    125     509.4804      .0003        1664766      .9720
     125    126     459.5634      .0003        1665226      .9723
     126    127     396.2365      .0002        1665622      .9725
     127    128     357.1245      .0002        1665979      .9727
     128    129     421.7097      .0002        1666401      .9730
     129    130     598.3532      .0003        1666999      .9733
     130    131     407.7095      .0002        1667407      .9735
     131    132     432.6301      .0003        1667839      .9738
     132    133     300.5571      .0002        1668140      .9740
     133    134     707.6328      .0004        1668848      .9744
     134    135     451.1044      .0003        1669299      .9746
     135    136     494.7499      .0003        1669793      .9749
     136    137     336.2986      .0002        1670130      .9751
     137    138     406.2178      .0002        1670536      .9754
     138    139     687.0447      .0004        1671223      .9758
     139    140     269.5369      .0002        1671492      .9759
     140    141     313.9859      .0002        1671806      .9761
     141    142     126.7803      .0001        1671933      .9762
     142    143      426.792      .0002        1672360      .9764
     143    144     446.9317      .0003        1672807      .9767
     144    145      488.882      .0003        1673296      .9770
     145    146     352.5286      .0002        1673648      .9772
     146    147     631.0507      .0004        1674279      .9776
     147    148     303.4961      .0002        1674583      .9777
     148    149     277.4596      .0002        1674860      .9779
     149    150     310.5054      .0002        1675171      .9781
     150    151     269.3797      .0002        1675440      .9782
     151    152     97.83656      .0001        1675538      .9783
     152    153     265.7215      .0002        1675804      .9784
     153    154     176.4907      .0001        1675980      .9785
     154    155     194.4717      .0001        1676175      .9787
     155    156     435.6464      .0003        1676610      .9789
     156    157     632.9081      .0004        1677243      .9793
     157    158     354.3302      .0002        1677598      .9795
     158    159     341.4873      .0002        1677939      .9797
     159    160     266.3786      .0002        1678205      .9798
     160    161     127.3105      .0001        1678333      .9799
     161    162      132.387      .0001        1678465      .9800
     162    163     302.0994      .0002        1678767      .9802
     163    164     207.9363      .0001        1678975      .9803
     164    165     287.7698      .0002        1679263      .9805
     165    166      163.869      .0001        1679427      .9806
     166    167     41.81202      .0000        1679468      .9806
     167    168     250.0855      .0001        1679719      .9807
     168    169     157.0352      .0001        1679876      .9808
     169    170     102.1387      .0001        1679978      .9809
     170    171     406.2012      .0002        1680384      .9811
     171    172     21.61093      .0000        1680406      .9811
     172    173     254.0097      .0001        1680660      .9813
     173    174     292.5522      .0002        1680952      .9815
     174    175     114.1694      .0001        1681066      .9815
     175    176     44.73352      .0000        1681111      .9815
     176    177     167.3927      .0001        1681278      .9816
     177    178     25.43707      .0000        1681304      .9817
     178    179     73.02053      .0000        1681377      .9817
     179    180     88.13753      .0001        1681465      .9818
     180    181     185.8961      .0001        1681651      .9819
     181    182     91.64939      .0001        1681742      .9819
     182    183     190.9504      .0001        1681933      .9820
     183    184     150.6113      .0001        1682084      .9821
     184    185      156.002      .0001        1682240      .9822
     185    186     46.34478      .0000        1682286      .9822
     186    187     70.77293      .0000        1682357      .9823
     187    188     152.2371      .0001        1682509      .9824
     188    189     24.48673      .0000        1682534      .9824
     189    190     16.13045      .0000        1682550      .9824
     190    191     77.04488      .0000        1682627      .9824
     191    192     72.63981      .0000        1682700      .9825
     192    193     172.6367      .0001        1682872      .9826
     193    194     54.57832      .0000        1682927      .9826
     194    195     59.44677      .0000        1682986      .9826
     195    196     89.56305      .0001        1683076      .9827
     196    197     97.92061      .0001        1683174      .9827
     197    198     76.08982      .0000        1683250      .9828
     198    199     97.84584      .0001        1683348      .9829
     199    200     144.5147      .0001        1683492      .9829
     200    201     72.73717      .0000        1683565      .9830
     201    202     66.52997      .0000        1683632      .9830
     202    203     33.32711      .0000        1683665      .9830
     203    204     94.57119      .0001        1683760      .9831
     204    205     75.14905      .0000        1683835      .9831
     205    206     182.1003      .0001        1684017      .9832
     206    207     87.26242      .0001        1684104      .9833
     207    208     28.10486      .0000        1684132      .9833
     208    209     182.3552      .0001        1684315      .9834
     209    210     29.14772      .0000        1684344      .9834
     210    211     46.28523      .0000        1684390      .9835
     211    212     57.58818      .0000        1684448      .9835
     212    213     66.74838      .0000        1684514      .9835
     213    214     128.4651      .0001        1684643      .9836
     214    215     82.59876      .0000        1684725      .9837
     215    216     8.210087      .0000        1684734      .9837
     216    217     42.44704      .0000        1684776      .9837
     217    218      53.1136      .0000        1684829      .9837
     218    219     132.7981      .0001        1684962      .9838
     219    220     99.99687      .0001        1685062      .9839
     220    221     48.24876      .0000        1685110      .9839
     221    222     13.53126      .0000        1685124      .9839
     222    223      48.0099      .0000        1685172      .9839
     223    224     102.0567      .0001        1685274      .9840
     224    225     98.81962      .0001        1685373      .9840
     225    226     12.79938      .0000        1685385      .9840
     226    227     143.1309      .0001        1685529      .9841
     227    228     38.15747      .0000        1685567      .9841
     228    229     22.33491      .0000        1685589      .9842
     229    230     128.5104      .0001        1685718      .9842
     230    231     5.849269      .0000        1685723      .9842
     231    232      60.1533      .0000        1685784      .9843
     232    233     52.03519      .0000        1685836      .9843
     233    234     130.1788      .0001        1685966      .9844
     234    235     95.22147      .0001        1686061      .9844
     235    236     56.26914      .0000        1686117      .9845
     236    237     163.7881      .0001        1686281      .9846
     237    238        70.07      .0000        1686351      .9846
     238    239     38.19953      .0000        1686389      .9846
     239    240     124.7599      .0001        1686514      .9847
     240    241     9.653371      .0000        1686524      .9847
     241    242     87.82379      .0001        1686612      .9848
     242    243     214.3073      .0001        1686826      .9849
     243    244     68.28211      .0000        1686894      .9849
     244    245     11.96827      .0000        1686906      .9849
     245    246     48.93121      .0000        1686955      .9850
     246    247     59.36848      .0000        1687014      .9850
     247    248     94.03858      .0001        1687108      .9850
     248    249     157.1332      .0001        1687265      .9851
     249    250     31.36682      .0000        1687297      .9852
     250    251     97.67685      .0001        1687394      .9852
     251    252     82.20848      .0000        1687477      .9853
     252    253     360.0277      .0002        1687837      .9855
     253    254     302.8672      .0002        1688140      .9856
     254    255     176.5599      .0001        1688316      .9858
     255    256      69.8752      .0000        1688386      .9858
     256    257     128.8889      .0001        1688515      .9859
     257    258     57.89827      .0000        1688573      .9859
     258    259     281.4796      .0002        1688854      .9861
     259    260     279.1899      .0002        1689133      .9862
     260    261     235.5873      .0001        1689369      .9864
     261    262     159.7257      .0001        1689529      .9865
     262    263     478.2695      .0003        1690007      .9867
     263    264     159.3312      .0001        1690166      .9868
     264    265     92.66667      .0001        1690259      .9869
     265    266       187.79      .0001        1690447      .9870
     266    267     75.44635      .0000        1690522      .9870
     267    268     93.29551      .0001        1690616      .9871
     268    269     156.0935      .0001        1690772      .9872
     269    270     124.9094      .0001        1690897      .9873
     270    271     98.28332      .0001        1690995      .9873
     271    272     45.01214      .0000        1691040      .9873
     272    273     19.43131      .0000        1691059      .9874
     273    274     298.5698      .0002        1691358      .9875
     274    275     303.8041      .0002        1691662      .9877
     275    276     256.6358      .0001        1691918      .9879
     276    277     403.1667      .0002        1692321      .9881
     277    278     844.1923      .0005        1693166      .9886
     278    279     86.94295      .0001        1693253      .9886
     279    280     108.8433      .0001        1693361      .9887
     280    281     234.5105      .0001        1693596      .9888
     281    282     63.13529      .0000        1693659      .9889
     282    283     183.7678      .0001        1693843      .9890
     283    284     96.79247      .0001        1693940      .9890
     284    285     58.49654      .0000        1693998      .9891
     285    286     1078.816      .0006        1695077      .9897
     286    287     86.40553      .0001        1695163      .9897
     287    288     314.0712      .0002        1695477      .9899
     288    289     12.62867      .0000        1695490      .9899
     289    290     16.97325      .0000        1695507      .9900
     290    291     425.0089      .0002        1695932      .9902
     291    292     65.10233      .0000        1695997      .9902
     292    293     8.873345      .0000        1696006      .9902
     293    294     12.07312      .0000        1696018      .9902
     294    295     48.52206      .0000        1696067      .9903
     295    296     312.6004      .0002        1696379      .9905
     296    297     32.67322      .0000        1696412      .9905
     297    298     327.5615      .0002        1696739      .9907
     298    299     238.3177      .0001        1696978      .9908
     299    300     160.7851      .0001        1697139      .9909
     300    301     3.486381      .0000        1697142      .9909
     301    302     26.36559      .0000        1697168      .9909
     302    303     28.41272      .0000        1697197      .9909
     303    304     174.1698      .0001        1697371      .9910
     304    305     144.9318      .0001        1697516      .9911
     305    306     453.2168      .0003        1697969      .9914
     306    307     109.0253      .0001        1698078      .9915
     307    308     202.7455      .0001        1698281      .9916
     308    309      72.6235      .0000        1698353      .9916
     309    310     90.03258      .0001        1698443      .9917
     310    311     102.9246      .0001        1698546      .9917
     311    312     202.7834      .0001        1698749      .9918
     312    313     45.69385      .0000        1698795      .9919
     313    314     139.4888      .0001        1698934      .9920
     314    315     135.0273      .0001        1699069      .9920
     315    316      410.085      .0002        1699479      .9923
     316    317            0      .0000        1699479      .9923
     317    318     101.8018      .0001        1699581      .9923
     318    319     239.4564      .0001        1699821      .9925
     319    320     273.7589      .0002        1700094      .9926
     320    321      339.055      .0002        1700433      .9928
     321    322     153.0194      .0001        1700586      .9929
     322    323     143.0636      .0001        1700730      .9930
     323    324     44.67865      .0000        1700774      .9930
     324    325     313.8858      .0002        1701088      .9932
     325    326     423.6556      .0002        1701512      .9935
     326    327     238.4798      .0001        1701750      .9936
     327    328     95.97716      .0001        1701846      .9937
     328    329            0      .0000        1701846      .9937
     329    330     63.97473      .0000        1701910      .9937
     330    331     516.6679      .0003        1702427      .9940
     331    332     762.5745      .0004        1703189      .9944
     332    333            0      .0000        1703189      .9944
     333    334      979.668      .0006        1704169      .9950
     334    335            0      .0000        1704169      .9950
     335    336            0      .0000        1704169      .9950
     336    337            0      .0000        1704169      .9950
     337    338     37.01617      .0000        1704206      .9950
     338    339     113.4653      .0001        1704320      .9951
     339    340            0      .0000        1704320      .9951
     340    341            0      .0000        1704320      .9951
     341    342            0      .0000        1704320      .9951
     342    343            0      .0000        1704320      .9951
     343    344     1099.122      .0006        1705419      .9957
     344    345            0      .0000        1705419      .9957
     345    346            0      .0000        1705419      .9957
     346    347            0      .0000        1705419      .9957
     347    348            0      .0000        1705419      .9957
     348    349            0      .0000        1705419      .9957
     349    350            0      .0000        1705419      .9957
     350    351            0      .0000        1705419      .9957
     351    352            0      .0000        1705419      .9957
     352    353            0      .0000        1705419      .9957
     353    354            0      .0000        1705419      .9957
     354    355     19.31325      .0000        1705438      .9957
     355    356     5.164321      .0000        1705443      .9958
     356    357            0      .0000        1705443      .9958
     357    358     602.9697      .0004        1706046      .9961
     358    359     5.154417      .0000        1706051      .9961
     359    360     4.900543      .0000        1706056      .9961
     360    361     2.658409      .0000        1706059      .9961
     361    362            0      .0000        1706059      .9961
     362    363            0      .0000        1706059      .9961
     363    364            0      .0000        1706059      .9961
     364    365            0      .0000        1706059      .9961
     365    366            0      .0000        1706059      .9961
     366    367            0      .0000        1706059      .9961
     367    368     18.07321      .0000        1706077      .9961
     368    369     18.29432      .0000        1706095      .9961
     369    370     5.570201      .0000        1706101      .9961
     370    371            0      .0000        1706101      .9961
     371    372            0      .0000        1706101      .9961
     372    373     66.70444      .0000        1706168      .9962
     373    374     3.593542      .0000        1706171      .9962
     374    375            0      .0000        1706171      .9962
     375    376            0      .0000        1706171      .9962
     376    377     10.01445      .0000        1706181      .9962
     377    378     4.680128      .0000        1706186      .9962
     378    379     64.46723      .0000        1706250      .9962
     379    380            0      .0000        1706250      .9962
     380    381     35.46525      .0000        1706286      .9962
     381    382     21.19525      .0000        1706307      .9963
     382    383     7.811735      .0000        1706315      .9963
     383    384     68.98167      .0000        1706384      .9963
     384    385            0      .0000        1706384      .9963
     385    386            0      .0000        1706384      .9963
     386    387     39.29884      .0000        1706423      .9963
     387    388            0      .0000        1706423      .9963
     388    389     98.74993      .0001        1706522      .9964
     389    390     45.38106      .0000        1706567      .9964
     390    391      53.8778      .0000        1706621      .9964
     391    392            0      .0000        1706621      .9964
     392    393     10.70565      .0000        1706632      .9964
     393    394     33.55561      .0000        1706665      .9965
     394    395     19.99554      .0000        1706685      .9965
     395    396            0      .0000        1706685      .9965
     396    397     130.2896      .0001        1706816      .9966
     397    398     196.8924      .0001        1707012      .9967
     398    399     57.09717      .0000        1707070      .9967
     399    400     3.419691      .0000        1707073      .9967
     400    401     5.228702      .0000        1707078      .9967
     401    402            0      .0000        1707078      .9967
     402    403      127.336      .0001        1707206      .9968
     403    404     33.05552      .0000        1707239      .9968
     404    405     93.91538      .0001        1707332      .9969
     405    406            0      .0000        1707332      .9969
     406    407     36.29395      .0000        1707369      .9969
     407    408       84.408      .0000        1707453      .9969
     408    409            0      .0000        1707453      .9969
     409    410     47.45559      .0000        1707501      .9970
     410    411     173.1318      .0001        1707674      .9971
     411    412            0      .0000        1707674      .9971
     412    413     15.68547      .0000        1707689      .9971
     413    414            0      .0000        1707689      .9971
     414    415     477.5831      .0003        1708167      .9973
     415    416            0      .0000        1708167      .9973
     416    417            0      .0000        1708167      .9973
     417    418            0      .0000        1708167      .9973
     418    419            0      .0000        1708167      .9973
     419    420            0      .0000        1708167      .9973
     420    421            0      .0000        1708167      .9973
     421    422            0      .0000        1708167      .9973
     422    423            0      .0000        1708167      .9973
     423    424            0      .0000        1708167      .9973
     424    425            0      .0000        1708167      .9973
     425    426            0      .0000        1708167      .9973
     426    427            0      .0000        1708167      .9973
     427    428            0      .0000        1708167      .9973
     428    429            0      .0000        1708167      .9973
     429    430            0      .0000        1708167      .9973
     430    431            0      .0000        1708167      .9973
     431    432            0      .0000        1708167      .9973
     432    433            0      .0000        1708167      .9973
     433    434            0      .0000        1708167      .9973
     434    435            0      .0000        1708167      .9973
     435    436            0      .0000        1708167      .9973
     436    437            0      .0000        1708167      .9973
     437    438            0      .0000        1708167      .9973
     438    439            0      .0000        1708167      .9973
     439    440            0      .0000        1708167      .9973
     440    441            0      .0000        1708167      .9973
     441    442            0      .0000        1708167      .9973
     442    443            0      .0000        1708167      .9973
     443    444            0      .0000        1708167      .9973
     444    445            0      .0000        1708167      .9973
     445    446            0      .0000        1708167      .9973
     446    447            0      .0000        1708167      .9973
     447    448            0      .0000        1708167      .9973
     448    449            0      .0000        1708167      .9973
     449    450            0      .0000        1708167      .9973
     450    451            0      .0000        1708167      .9973
     451    452            0      .0000        1708167      .9973
     452    453            0      .0000        1708167      .9973
     453    454            0      .0000        1708167      .9973
     454    455            0      .0000        1708167      .9973
     455    456            0      .0000        1708167      .9973
     456    457            0      .0000        1708167      .9973
     457    458            0      .0000        1708167      .9973
     458    459            0      .0000        1708167      .9973
     459    460            0      .0000        1708167      .9973
     460    461            0      .0000        1708167      .9973
     461    462            0      .0000        1708167      .9973
     462    463            0      .0000        1708167      .9973
     463    464            0      .0000        1708167      .9973
     464    465            0      .0000        1708167      .9973
     465    466            0      .0000        1708167      .9973
     466    467            0      .0000        1708167      .9973
     467    468            0      .0000        1708167      .9973
     468    469            0      .0000        1708167      .9973
     469    470            0      .0000        1708167      .9973
     470    471            0      .0000        1708167      .9973
     471    472            0      .0000        1708167      .9973
     472    473            0      .0000        1708167      .9973
     473    474            0      .0000        1708167      .9973
     474    475            0      .0000        1708167      .9973
     475    476            0      .0000        1708167      .9973
     476    477            0      .0000        1708167      .9973
     477    478            0      .0000        1708167      .9973
     478    479            0      .0000        1708167      .9973
     479    480            0      .0000        1708167      .9973
     480    481            0      .0000        1708167      .9973
     481    482            0      .0000        1708167      .9973
     482    483            0      .0000        1708167      .9973
     483    484            0      .0000        1708167      .9973
     484    485            0      .0000        1708167      .9973
     485    486            0      .0000        1708167      .9973
     486    487            0      .0000        1708167      .9973
     487    488            0      .0000        1708167      .9973
     488    489            0      .0000        1708167      .9973
     489    490            0      .0000        1708167      .9973
     490    491            0      .0000        1708167      .9973
     491    492            0      .0000        1708167      .9973
     492    493            0      .0000        1708167      .9973
     493    494            0      .0000        1708167      .9973
     494    495            0      .0000        1708167      .9973
     495    496            0      .0000        1708167      .9973
     496    497            0      .0000        1708167      .9973
     497    498            0      .0000        1708167      .9973
     498    499            0      .0000        1708167      .9973
     499    500            0      .0000        1708167      .9973
