

 Matrix histogram
 ----------------


 data   matrix        mf172 : DSTSK                                    Distance Skim Car                                                               

 weight matrix        mf597 : MrgL4210                                 Merged OP NHBO Car                                                              

  all  origins   all  destinations

 constraint matrix    mf10  : temp10                                   Temporary Matrix 10                                                             
          interval  lower:         1
                    upper:         1  include 

 out of range       above: 10.40023
                    below:        0

 statistics         mean :  22.4408
                    std  : 26.33761

    interval        ------density-------      -----cumulative-----
 (from  ,    to)    absolute  normalized      absolute  normalized

       0      1     244.8516      .0094       244.8516      .0094
       1      2     407.2185      .0156       652.0701      .0249
       2      3     761.4675      .0291       1413.538      .0541
       3      4     345.8585      .0132       1759.396      .0673
       4      5     590.4847      .0226       2349.881      .0899
       5      6     705.5544      .0270       3055.435      .1168
       6      7      1021.33      .0391       4076.766      .1559
       7      8     838.5348      .0321         4915.3      .1879
       8      9     1003.761      .0384       5919.062      .2263
       9     10     1713.774      .0655       7632.836      .2919
      10     11     917.6342      .0351        8550.47      .3269
      11     12     1390.134      .0532       9940.604      .3801
      12     13     1142.522      .0437       11083.13      .4238
      13     14      930.562      .0356       12013.69      .4594
      14     15     834.1353      .0319       12847.82      .4913
      15     16     1288.349      .0493       14136.17      .5405
      16     17     647.6915      .0248       14783.86      .5653
      17     18     1015.236      .0388        15799.1      .6041
      18     19     773.2691      .0296       16572.37      .6337
      19     20     730.9984      .0280       17303.37      .6616
      20     21     408.9121      .0156       17712.28      .6773
      21     22     589.6979      .0225       18301.98      .6998
      22     23     314.7633      .0120       18616.74      .7119
      23     24      290.233      .0111       18906.97      .7230
      24     25     359.7039      .0138       19266.68      .7367
      25     26      245.261      .0094       19511.94      .7461
      26     27     319.2199      .0122       19831.16      .7583
      27     28     225.6009      .0086       20056.76      .7669
      28     29     239.6204      .0092       20296.38      .7761
      29     30     504.7441      .0193       20801.13      .7954
      30     31     348.6892      .0133       21149.82      .8087
      31     32     267.7049      .0102       21417.52      .8190
      32     33     291.4448      .0111       21708.97      .8301
      33     34     339.0508      .0130       22048.02      .8431
      34     35     144.5857      .0055        22192.6      .8486
      35     36     160.1359      .0061       22352.74      .8547
      36     37     84.46182      .0032        22437.2      .8579
      37     38      145.112      .0055       22582.31      .8635
      38     39     105.9121      .0040       22688.22      .8675
      39     40      141.963      .0054       22830.19      .8730
      40     41     91.46613      .0035       22921.65      .8765
      41     42     149.4016      .0057       23071.06      .8822
      42     43     94.72839      .0036       23165.78      .8858
      43     44     116.4526      .0045       23282.24      .8903
      44     45     124.4973      .0048       23406.74      .8950
      45     46     66.16123      .0025        23472.9      .8975
      46     47     73.84011      .0028       23546.74      .9004
      47     48     88.21623      .0034       23634.95      .9037
      48     49     73.18328      .0028       23708.14      .9065
      49     50     122.4321      .0047       23830.57      .9112
      50     51     78.23255      .0030        23908.8      .9142
      51     52     66.75558      .0026       23975.56      .9168
      52     53     47.62109      .0018       24023.18      .9186
      53     54     70.15853      .0027       24093.34      .9213
      54     55     182.9225      .0070       24276.26      .9283
      55     56     99.79524      .0038       24376.05      .9321
      56     57     71.24625      .0027        24447.3      .9348
      57     58     46.06719      .0018       24493.37      .9366
      58     59     50.33023      .0019        24543.7      .9385
      59     60     50.76184      .0019       24594.46      .9404
      60     61     45.43065      .0017       24639.89      .9422
      61     62     44.55854      .0017       24684.45      .9439
      62     63     31.61702      .0012       24716.06      .9451
      63     64     49.68094      .0019       24765.75      .9470
      64     65     36.79444      .0014       24802.54      .9484
      65     66     40.36972      .0015       24842.91      .9499
      66     67     38.15431      .0015       24881.06      .9514
      67     68     45.29744      .0017       24926.36      .9531
      68     69     43.84441      .0017        24970.2      .9548
      69     70     34.47907      .0013       25004.68      .9561
      70     71     19.82158      .0008        25024.5      .9569
      71     72      35.6986      .0014        25060.2      .9582
      72     73     29.90296      .0011       25090.11      .9594
      73     74     38.35744      .0015       25128.46      .9609
      74     75     25.55929      .0010       25154.02      .9618
      75     76     21.83868      .0008       25175.86      .9627
      76     77     18.38126      .0007       25194.24      .9634
      77     78     18.47406      .0007       25212.72      .9641
      78     79     13.84051      .0005       25226.56      .9646
      79     80     13.83717      .0005       25240.39      .9651
      80     81     14.41873      .0006       25254.81      .9657
      81     82     32.95312      .0013       25287.76      .9669
      82     83     18.13319      .0007        25305.9      .9676
      83     84     19.73101      .0008       25325.63      .9684
      84     85     13.58565      .0005       25339.21      .9689
      85     86     20.38483      .0008        25359.6      .9697
      86     87     27.49179      .0011       25387.09      .9707
      87     88     13.21403      .0005       25400.31      .9712
      88     89     13.31123      .0005       25413.62      .9718
      89     90     19.13115      .0007       25432.75      .9725
      90     91     25.91213      .0010       25458.66      .9735
      91     92     36.06625      .0014       25494.73      .9749
      92     93     11.30107      .0004       25506.03      .9753
      93     94     12.49264      .0005       25518.52      .9758
      94     95      10.8828      .0004        25529.4      .9762
      95     96     20.55484      .0008       25549.96      .9770
      96     97     12.58987      .0005       25562.55      .9775
      97     98     24.30228      .0009       25586.85      .9784
      98     99     14.14692      .0005          25601      .9789
      99    100     11.28348      .0004       25612.28      .9794
     100    101     10.86021      .0004       25623.14      .9798
     101    102     8.277326      .0003       25631.41      .9801
     102    103     9.566032      .0004       25640.98      .9805
     103    104     12.76696      .0005       25653.75      .9809
     104    105     10.05905      .0004       25663.81      .9813
     105    106       12.164      .0005       25675.97      .9818
     106    107     7.089156      .0003       25683.06      .9821
     107    108     8.981488      .0003       25692.04      .9824
     108    109      7.47735      .0003       25699.52      .9827
     109    110      6.88558      .0003       25706.41      .9830
     110    111     6.257517      .0002       25712.66      .9832
     111    112     4.562618      .0002       25717.23      .9834
     112    113     21.58943      .0008       25738.82      .9842
     113    114     16.19264      .0006       25755.01      .9848
     114    115     10.56294      .0004       25765.57      .9852
     115    116     18.83318      .0007       25784.41      .9859
     116    117     9.726505      .0004       25794.13      .9863
     117    118     12.27332      .0005       25806.41      .9868
     118    119     14.80489      .0006       25821.21      .9873
     119    120     8.278605      .0003       25829.49      .9877
     120    121      8.07413      .0003       25837.56      .9880
     121    122     5.490715      .0002       25843.05      .9882
     122    123     7.909517      .0003       25850.96      .9885
     123    124     5.920201      .0002       25856.88      .9887
     124    125     11.16162      .0004       25868.05      .9891
     125    126     6.866482      .0003       25874.91      .9894
     126    127     7.248386      .0003       25882.16      .9897
     127    128     8.120335      .0003       25890.28      .9900
     128    129     9.029428      .0003       25899.31      .9903
     129    130     6.199792      .0002       25905.51      .9906
     130    131     7.338384      .0003       25912.85      .9908
     131    132     8.035504      .0003       25920.88      .9912
     132    133     5.943024      .0002       25926.83      .9914
     133    134     12.55658      .0005       25939.38      .9919
     134    135     8.333202      .0003       25947.72      .9922
     135    136     5.528218      .0002       25953.25      .9924
     136    137     6.081333      .0002       25959.33      .9926
     137    138     3.836104      .0001       25963.16      .9928
     138    139     7.633639      .0003        25970.8      .9931
     139    140     5.415904      .0002       25976.21      .9933
     140    141     4.819164      .0002       25981.03      .9935
     141    142     4.122671      .0002       25985.15      .9936
     142    143     4.713298      .0002       25989.87      .9938
     143    144     3.905428      .0001       25993.77      .9939
     144    145     3.625267      .0001        25997.4      .9941
     145    146     7.729902      .0003       26005.13      .9944
     146    147     6.644506      .0003       26011.77      .9946
     147    148     6.937498      .0003       26018.71      .9949
     148    149     3.721491      .0001       26022.43      .9950
     149    150     9.496916      .0004       26031.93      .9954
     150    151     4.538927      .0002       26036.47      .9956
     151    152     5.145301      .0002       26041.61      .9958
     152    153     2.743494      .0001       26044.35      .9959
     153    154     3.625179      .0001       26047.98      .9960
     154    155     4.520158      .0002        26052.5      .9962
     155    156     2.468295      .0001       26054.97      .9963
     156    157       2.2633      .0001       26057.23      .9964
     157    158     4.882534      .0002       26062.11      .9966
     158    159       5.3717      .0002       26067.49      .9968
     159    160     3.552892      .0001       26071.04      .9969
     160    161     1.721882      .0001       26072.76      .9970
     161    162     1.372506      .0001       26074.13      .9970
     162    163     1.407709      .0001       26075.54      .9971
     163    164      2.37934      .0001       26077.92      .9972
     164    165     2.483393      .0001        26080.4      .9973
     165    166     1.445649      .0001       26081.85      .9973
     166    167     2.195753      .0001       26084.04      .9974
     167    168     1.080258      .0000       26085.12      .9974
     168    169      .876815      .0000          26086      .9975
     169    170     1.139258      .0000       26087.14      .9975
     170    171     1.401225      .0001       26088.54      .9976
     171    172     2.185815      .0001       26090.73      .9976
     172    173     2.026407      .0001       26092.75      .9977
     173    174     1.345515      .0001        26094.1      .9978
     174    175     1.031825      .0000       26095.13      .9978
     175    176     1.171415      .0000        26096.3      .9979
     176    177      .273056      .0000       26096.58      .9979
     177    178      .897753      .0000       26097.47      .9979
     178    179      .583176      .0000       26098.06      .9979
     179    180        .9409      .0000          26099      .9980
     180    181     1.144195      .0000       26100.14      .9980
     181    182     1.201663      .0000       26101.34      .9981
     182    183      .333534      .0000       26101.68      .9981
     183    184     1.665815      .0001       26103.34      .9981
     184    185      .949806      .0000       26104.29      .9982
     185    186     1.104249      .0000        26105.4      .9982
     186    187      .564272      .0000       26105.96      .9982
     187    188      .672507      .0000       26106.63      .9983
     188    189      .688294      .0000       26107.32      .9983
     189    190     1.188868      .0000       26108.51      .9983
     190    191      .743343      .0000       26109.25      .9984
     191    192      .964059      .0000       26110.22      .9984
     192    193      .297435      .0000       26110.52      .9984
     193    194      .559338      .0000       26111.08      .9984
     194    195      .768015      .0000       26111.84      .9985
     195    196      .432055      .0000       26112.27      .9985
     196    197      .639329      .0000       26112.91      .9985
     197    198      .536314      .0000       26113.45      .9985
     198    199      .952117      .0000        26114.4      .9986
     199    200     1.138236      .0000       26115.54      .9986
     200    201      .739499      .0000       26116.28      .9986
     201    202       .60584      .0000       26116.89      .9986
     202    203      .561198      .0000       26117.45      .9987
     203    204      .386106      .0000       26117.83      .9987
     204    205      .291325      .0000       26118.12      .9987
     205    206      .567504      .0000       26118.69      .9987
     206    207      .418772      .0000       26119.11      .9987
     207    208     1.105458      .0000       26120.22      .9988
     208    209     1.028324      .0000       26121.25      .9988
     209    210      .354081      .0000        26121.6      .9988
     210    211      .569052      .0000       26122.17      .9989
     211    212      .131435      .0000        26122.3      .9989
     212    213      .469755      .0000       26122.77      .9989
     213    214      .164078      .0000       26122.93      .9989
     214    215       .25017      .0000       26123.18      .9989
     215    216      .329525      .0000       26123.51      .9989
     216    217      .405527      .0000       26123.92      .9989
     217    218      .728858      .0000       26124.65      .9989
     218    219      .455099      .0000        26125.1      .9990
     219    220         .091      .0000       26125.19      .9990
     220    221      .120551      .0000       26125.32      .9990
     221    222      .057807      .0000       26125.37      .9990
     222    223      .652866      .0000       26126.03      .9990
     223    224        .4368      .0000       26126.46      .9990
     224    225      .271304      .0000       26126.74      .9990
     225    226      .904909      .0000       26127.64      .9991
     226    227      .270171      .0000       26127.91      .9991
     227    228      .371041      .0000       26128.28      .9991
     228    229      .083746      .0000       26128.36      .9991
     229    230      .048058      .0000       26128.41      .9991
     230    231      .007061      .0000       26128.42      .9991
     231    232      .378464      .0000        26128.8      .9991
     232    233      .273819      .0000       26129.07      .9991
     233    234      .200364      .0000       26129.27      .9991
     234    235      .065717      .0000       26129.34      .9991
     235    236      .124836      .0000       26129.47      .9991
     236    237      .059936      .0000       26129.53      .9991
     237    238      .048465      .0000       26129.58      .9991
     238    239      .388996      .0000       26129.96      .9991
     239    240      .076934      .0000       26130.04      .9992
     240    241      .130073      .0000       26130.17      .9992
     241    242      .055208      .0000       26130.23      .9992
     242    243      .153766      .0000       26130.38      .9992
     243    244       .07155      .0000       26130.45      .9992
     244    245      .057884      .0000       26130.51      .9992
     245    246      .039269      .0000       26130.55      .9992
     246    247      .073643      .0000       26130.62      .9992
     247    248      .041995      .0000       26130.67      .9992
     248    249      .043319      .0000       26130.71      .9992
     249    250      .033051      .0000       26130.74      .9992
     250    251      .174477      .0000       26130.92      .9992
     251    252       .10658      .0000       26131.02      .9992
     252    253      .333147      .0000       26131.36      .9992
     253    254      .142723      .0000        26131.5      .9992
     254    255      .080175      .0000       26131.58      .9992
     255    256      .097361      .0000       26131.68      .9992
     256    257      .043458      .0000       26131.72      .9992
     257    258      .077877      .0000        26131.8      .9992
     258    259      .187943      .0000       26131.99      .9992
     259    260      .174744      .0000       26132.16      .9992
     260    261      .259519      .0000       26132.42      .9992
     261    262      .110321      .0000       26132.53      .9992
     262    263      .176404      .0000       26132.71      .9993
     263    264      .147004      .0000       26132.85      .9993
     264    265      .094099      .0000       26132.95      .9993
     265    266      .067007      .0000       26133.01      .9993
     266    267      .153196      .0000       26133.16      .9993
     267    268      .076752      .0000       26133.24      .9993
     268    269       .24765      .0000       26133.49      .9993
     269    270      .254634      .0000       26133.74      .9993
     270    271      .399209      .0000       26134.14      .9993
     271    272      .146728      .0000       26134.29      .9993
     272    273      .125402      .0000       26134.41      .9993
     273    274      .431865      .0000       26134.84      .9993
     274    275      .088461      .0000       26134.93      .9993
     275    276      .056801      .0000       26134.99      .9993
     276    277       .19803      .0000       26135.19      .9993
     277    278      .145489      .0000       26135.33      .9994
     278    279      .129457      .0000       26135.46      .9994
     279    280      .176679      .0000       26135.64      .9994
     280    281      .100321      .0000       26135.74      .9994
     281    282      .051216      .0000       26135.79      .9994
     282    283      .017252      .0000        26135.8      .9994
     283    284      .036263      .0000       26135.84      .9994
     284    285      .070586      .0000       26135.91      .9994
     285    286      .144549      .0000       26136.06      .9994
     286    287      .352785      .0000       26136.41      .9994
     287    288      .064842      .0000       26136.47      .9994
     288    289      .138121      .0000       26136.61      .9994
     289    290      .142092      .0000       26136.75      .9994
     290    291      .100881      .0000       26136.86      .9994
     291    292      .006271      .0000       26136.86      .9994
     292    293      .051061      .0000       26136.91      .9994
     293    294      .036522      .0000       26136.95      .9994
     294    295      .206861      .0000       26137.16      .9994
     295    296      .016365      .0000       26137.17      .9994
     296    297      .015736      .0000       26137.19      .9994
     297    298      .146115      .0000       26137.33      .9994
     298    299      .066275      .0000        26137.4      .9994
     299    300      .025371      .0000       26137.43      .9994
     300    301      .020396      .0000       26137.45      .9994
     301    302      .026083      .0000       26137.47      .9994
     302    303      .027189      .0000        26137.5      .9994
     303    304      .064713      .0000       26137.56      .9994
     304    305      .085378      .0000       26137.65      .9994
     305    306      .083295      .0000       26137.73      .9994
     306    307      .070845      .0000        26137.8      .9994
     307    308      .038458      .0000       26137.84      .9994
     308    309      .034574      .0000       26137.88      .9995
     309    310      .088646      .0000       26137.97      .9995
     310    311      .058719      .0000       26138.02      .9995
     311    312      .074708      .0000        26138.1      .9995
     312    313      .065657      .0000       26138.16      .9995
     313    314      .134798      .0000        26138.3      .9995
     314    315      .332286      .0000       26138.63      .9995
     315    316      .108739      .0000       26138.74      .9995
     316    317      .102171      .0000       26138.84      .9995
     317    318      .089706      .0000       26138.93      .9995
     318    319      .022651      .0000       26138.96      .9995
     319    320      .046137      .0000          26139      .9995
     320    321      .088546      .0000       26139.09      .9995
     321    322      .055042      .0000       26139.15      .9995
     322    323      .057803      .0000        26139.2      .9995
     323    324      .088377      .0000       26139.29      .9995
     324    325      .162366      .0000       26139.45      .9995
     325    326      .055246      .0000       26139.51      .9995
     326    327      .013303      .0000       26139.52      .9995
     327    328      .013258      .0000       26139.54      .9995
     328    329      .036195      .0000       26139.57      .9995
     329    330      .140675      .0000       26139.71      .9995
     330    331      .070528      .0000       26139.78      .9995
     331    332      .223383      .0000       26140.01      .9995
     332    333      .191595      .0000        26140.2      .9995
     333    334      .175786      .0000       26140.37      .9995
     334    335      .014105      .0000       26140.39      .9995
     335    336      .011137      .0000        26140.4      .9995
     336    337            0      .0000        26140.4      .9995
     337    338      .078839      .0000       26140.48      .9996
     338    339      .009036      .0000       26140.49      .9996
     339    340      .090218      .0000       26140.58      .9996
     340    341      .031408      .0000       26140.61      .9996
     341    342            0      .0000       26140.61      .9996
     342    343            0      .0000       26140.61      .9996
     343    344            0      .0000       26140.61      .9996
     344    345            0      .0000       26140.61      .9996
     345    346      .077421      .0000       26140.69      .9996
     346    347            0      .0000       26140.69      .9996
     347    348            0      .0000       26140.69      .9996
     348    349            0      .0000       26140.69      .9996
     349    350            0      .0000       26140.69      .9996
     350    351            0      .0000       26140.69      .9996
     351    352      .004929      .0000       26140.69      .9996
     352    353            0      .0000       26140.69      .9996
     353    354      .002334      .0000       26140.69      .9996
     354    355      .016261      .0000       26140.71      .9996
     355    356      .002455      .0000       26140.71      .9996
     356    357      .000473      .0000       26140.71      .9996
     357    358       .09445      .0000       26140.81      .9996
     358    359      .000721      .0000       26140.81      .9996
     359    360      .002797      .0000       26140.81      .9996
     360    361            0      .0000       26140.81      .9996
     361    362      .000796      .0000       26140.81      .9996
     362    363      .000653      .0000       26140.81      .9996
     363    364            0      .0000       26140.81      .9996
     364    365            0      .0000       26140.81      .9996
     365    366      .000907      .0000       26140.81      .9996
     366    367      .000001      .0000       26140.81      .9996
     367    368      .000007      .0000       26140.81      .9996
     368    369      .002901      .0000       26140.81      .9996
     369    370      .000014      .0000       26140.81      .9996
     370    371      .000005      .0000       26140.81      .9996
     371    372      .000743      .0000       26140.81      .9996
     372    373      .026345      .0000       26140.83      .9996
     373    374      .010432      .0000       26140.84      .9996
     374    375      .007344      .0000       26140.85      .9996
     375    376      .019271      .0000       26140.87      .9996
     376    377      .007431      .0000       26140.88      .9996
     377    378       .00901      .0000       26140.89      .9996
     378    379      .021242      .0000       26140.91      .9996
     379    380      .009043      .0000       26140.92      .9996
     380    381      .007382      .0000       26140.93      .9996
     381    382      .006348      .0000       26140.93      .9996
     382    383      .002979      .0000       26140.94      .9996
     383    384      .009691      .0000       26140.95      .9996
     384    385      .000002      .0000       26140.95      .9996
     385    386       .00406      .0000       26140.95      .9996
     386    387      .011549      .0000       26140.96      .9996
     387    388      .003987      .0000       26140.97      .9996
     388    389      .016521      .0000       26140.98      .9996
     389    390      .016235      .0000          26141      .9996
     390    391      .096238      .0000       26141.09      .9996
     391    392       .00948      .0000        26141.1      .9996
     392    393      .015917      .0000       26141.12      .9996
     393    394      .101749      .0000       26141.22      .9996
     394    395      .004664      .0000       26141.23      .9996
     395    396      .011001      .0000       26141.24      .9996
     396    397      .001051      .0000       26141.24      .9996
     397    398      .382806      .0000       26141.62      .9996
     398    399      .019253      .0000       26141.64      .9996
     399    400      .010621      .0000       26141.65      .9996
     400    401      .018312      .0000       26141.67      .9996
     401    402      .002221      .0000       26141.67      .9996
     402    403      .004521      .0000       26141.67      .9996
     403    404      .002111      .0000       26141.68      .9996
     404    405      .008167      .0000       26141.68      .9996
     405    406      .010495      .0000       26141.69      .9996
     406    407      .020829      .0000       26141.72      .9996
     407    408      .014333      .0000       26141.73      .9996
     408    409      .016669      .0000       26141.75      .9996
     409    410      .001745      .0000       26141.75      .9996
     410    411      .016637      .0000       26141.77      .9996
     411    412      .003519      .0000       26141.77      .9996
     412    413      .000731      .0000       26141.77      .9996
     413    414      .009097      .0000       26141.78      .9996
     414    415      .038366      .0000       26141.82      .9996
     415    416            0      .0000       26141.82      .9996
     416    417            0      .0000       26141.82      .9996
     417    418            0      .0000       26141.82      .9996
     418    419            0      .0000       26141.82      .9996
     419    420            0      .0000       26141.82      .9996
     420    421            0      .0000       26141.82      .9996
     421    422      .009671      .0000       26141.83      .9996
     422    423            0      .0000       26141.83      .9996
     423    424            0      .0000       26141.83      .9996
     424    425            0      .0000       26141.83      .9996
     425    426            0      .0000       26141.83      .9996
     426    427            0      .0000       26141.83      .9996
     427    428            0      .0000       26141.83      .9996
     428    429            0      .0000       26141.83      .9996
     429    430            0      .0000       26141.83      .9996
     430    431            0      .0000       26141.83      .9996
     431    432            0      .0000       26141.83      .9996
     432    433            0      .0000       26141.83      .9996
     433    434            0      .0000       26141.83      .9996
     434    435            0      .0000       26141.83      .9996
     435    436            0      .0000       26141.83      .9996
     436    437            0      .0000       26141.83      .9996
     437    438            0      .0000       26141.83      .9996
     438    439            0      .0000       26141.83      .9996
     439    440            0      .0000       26141.83      .9996
     440    441            0      .0000       26141.83      .9996
     441    442            0      .0000       26141.83      .9996
     442    443            0      .0000       26141.83      .9996
     443    444            0      .0000       26141.83      .9996
     444    445            0      .0000       26141.83      .9996
     445    446            0      .0000       26141.83      .9996
     446    447            0      .0000       26141.83      .9996
     447    448            0      .0000       26141.83      .9996
     448    449            0      .0000       26141.83      .9996
     449    450            0      .0000       26141.83      .9996
     450    451            0      .0000       26141.83      .9996
     451    452            0      .0000       26141.83      .9996
     452    453            0      .0000       26141.83      .9996
     453    454            0      .0000       26141.83      .9996
     454    455            0      .0000       26141.83      .9996
     455    456            0      .0000       26141.83      .9996
     456    457            0      .0000       26141.83      .9996
     457    458            0      .0000       26141.83      .9996
     458    459            0      .0000       26141.83      .9996
     459    460            0      .0000       26141.83      .9996
     460    461            0      .0000       26141.83      .9996
     461    462            0      .0000       26141.83      .9996
     462    463            0      .0000       26141.83      .9996
     463    464            0      .0000       26141.83      .9996
     464    465            0      .0000       26141.83      .9996
     465    466            0      .0000       26141.83      .9996
     466    467            0      .0000       26141.83      .9996
     467    468            0      .0000       26141.83      .9996
     468    469            0      .0000       26141.83      .9996
     469    470            0      .0000       26141.83      .9996
     470    471            0      .0000       26141.83      .9996
     471    472            0      .0000       26141.83      .9996
     472    473            0      .0000       26141.83      .9996
     473    474            0      .0000       26141.83      .9996
     474    475            0      .0000       26141.83      .9996
     475    476            0      .0000       26141.83      .9996
     476    477            0      .0000       26141.83      .9996
     477    478            0      .0000       26141.83      .9996
     478    479            0      .0000       26141.83      .9996
     479    480            0      .0000       26141.83      .9996
     480    481            0      .0000       26141.83      .9996
     481    482            0      .0000       26141.83      .9996
     482    483            0      .0000       26141.83      .9996
     483    484            0      .0000       26141.83      .9996
     484    485            0      .0000       26141.83      .9996
     485    486            0      .0000       26141.83      .9996
     486    487            0      .0000       26141.83      .9996
     487    488            0      .0000       26141.83      .9996
     488    489            0      .0000       26141.83      .9996
     489    490            0      .0000       26141.83      .9996
     490    491            0      .0000       26141.83      .9996
     491    492            0      .0000       26141.83      .9996
     492    493            0      .0000       26141.83      .9996
     493    494            0      .0000       26141.83      .9996
     494    495            0      .0000       26141.83      .9996
     495    496            0      .0000       26141.83      .9996
     496    497            0      .0000       26141.83      .9996
     497    498            0      .0000       26141.83      .9996
     498    499            0      .0000       26141.83      .9996
     499    500            0      .0000       26141.83      .9996
