

 Matrix histogram
 ----------------


 data   matrix        mf795 : DSTSK2                                   Distance Skim Car                                                               

 weight matrix        mf01  : temp1                                    Temporary Matrix 1                                                              

  all  origins   all  destinations

 constraint matrix    mf10  : temp10                                   Temporary Matrix 10                                                             
          interval  lower:         1
                    upper:         1  include 

 out of range       above: 170.1959
                    below:        0

 statistics         mean : 20.54497
                    std  : 47.54135

    interval        ------density-------      -----cumulative-----
 (from  ,    to)    absolute  normalized      absolute  normalized

       0      1     5129.974      .0727       5129.974      .0727
       1      2      4562.13      .0646       9692.105      .1373
       2      3     6301.629      .0893       15993.73      .2266
       3      4     3652.814      .0517       19646.55      .2783
       4      5     1345.713      .0191       20992.26      .2974
       5      6     4239.721      .0601       25231.98      .3574
       6      7     4835.689      .0685       30067.67      .4259
       7      8     1446.745      .0205       31514.42      .4464
       8      9     2268.258      .0321       33782.67      .4786
       9     10     1376.332      .0195          35159      .4981
      10     11      1689.56      .0239       36848.56      .5220
      11     12     3120.867      .0442       39969.43      .5662
      12     13     1806.278      .0256       41775.71      .5918
      13     14       2018.5      .0286       43794.21      .6204
      14     15     1323.959      .0188       45118.17      .6391
      15     16     2911.261      .0412       48029.43      .6804
      16     17     2743.019      .0389       50772.45      .7192
      17     18     1835.241      .0260       52607.69      .7452
      18     19     1635.338      .0232       54243.03      .7684
      19     20      791.664      .0112       55034.69      .7796
      20     21     527.1825      .0075       55561.88      .7871
      21     22     580.4788      .0082       56142.36      .7953
      22     23      871.626      .0123       57013.98      .8077
      23     24     670.7144      .0095        57684.7      .8172
      24     25     707.4146      .0100       58392.11      .8272
      25     26     312.3181      .0044       58704.43      .8316
      26     27     674.8715      .0096        59379.3      .8412
      27     28     584.6657      .0083       59963.96      .8495
      28     29     351.9684      .0050       60315.93      .8544
      29     30     1042.706      .0148       61358.64      .8692
      30     31     484.1623      .0069        61842.8      .8761
      31     32     495.2253      .0070       62338.03      .8831
      32     33     242.3795      .0034       62580.41      .8865
      33     34     272.1907      .0039        62852.6      .8904
      34     35     323.3079      .0046       63175.91      .8950
      35     36     432.4851      .0061       63608.39      .9011
      36     37     153.6436      .0022       63762.04      .9033
      37     38     329.8065      .0047       64091.84      .9079
      38     39     179.9808      .0025       64271.82      .9105
      39     40     137.1275      .0019       64408.95      .9124
      40     41     73.47365      .0010       64482.42      .9135
      41     42      170.603      .0024       64653.03      .9159
      42     43     205.1348      .0029       64858.16      .9188
      43     44     202.7741      .0029       65060.94      .9217
      44     45     238.7663      .0034        65299.7      .9250
      45     46     88.84886      .0013       65388.55      .9263
      46     47      73.3325      .0010       65461.88      .9273
      47     48     163.4132      .0023        65625.3      .9296
      48     49     121.3677      .0017       65746.67      .9314
      49     50     211.7648      .0030       65958.43      .9344
      50     51     104.1958      .0015       66062.63      .9358
      51     52     136.3273      .0019       66198.96      .9378
      52     53     92.83842      .0013       66291.79      .9391
      53     54     70.19269      .0010       66361.99      .9401
      54     55     105.9479      .0015       66467.93      .9416
      55     56     122.2446      .0017       66590.17      .9433
      56     57     102.4967      .0015       66692.67      .9448
      57     58     64.87767      .0009       66757.55      .9457
      58     59     73.31735      .0010       66830.87      .9467
      59     60     94.74716      .0013       66925.62      .9481
      60     61     68.74128      .0010       66994.36      .9490
      61     62      59.6135      .0008       67053.98      .9499
      62     63     26.24861      .0004       67080.23      .9503
      63     64     71.41184      .0010       67151.64      .9513
      64     65     55.49679      .0008       67207.14      .9521
      65     66     59.15987      .0008        67266.3      .9529
      66     67     54.10897      .0008       67320.41      .9537
      67     68     61.49769      .0009       67381.91      .9545
      68     69     87.96221      .0012       67469.87      .9558
      69     70     76.34036      .0011       67546.21      .9569
      70     71     21.65673      .0003       67567.87      .9572
      71     72     46.16406      .0007       67614.03      .9578
      72     73     57.69593      .0008       67671.73      .9586
      73     74     34.00924      .0005       67705.74      .9591
      74     75     39.68548      .0006       67745.42      .9597
      75     76     23.38032      .0003       67768.81      .9600
      76     77     25.43984      .0004       67794.25      .9604
      77     78     19.18542      .0003       67813.43      .9606
      78     79     21.45611      .0003       67834.89      .9610
      79     80     36.90298      .0005       67871.79      .9615
      80     81     29.53626      .0004       67901.33      .9619
      81     82     48.22283      .0007       67949.56      .9626
      82     83     19.53556      .0003        67969.1      .9629
      83     84     19.47413      .0003       67988.57      .9631
      84     85     13.53319      .0002        68002.1      .9633
      85     86     12.61174      .0002       68014.71      .9635
      86     87     44.70912      .0006       68059.42      .9641
      87     88     19.51239      .0003       68078.94      .9644
      88     89     7.323917      .0001       68086.26      .9645
      89     90     11.38444      .0002       68097.64      .9647
      90     91     45.72896      .0006       68143.37      .9653
      91     92      70.8935      .0010       68214.26      .9663
      92     93     22.73875      .0003          68237      .9666
      93     94     26.15148      .0004       68263.15      .9670
      94     95     7.120358      .0001       68270.27      .9671
      95     96     38.46115      .0005       68308.73      .9677
      96     97     9.292934      .0001       68318.02      .9678
      97     98     50.57423      .0007        68368.6      .9685
      98     99     31.59325      .0004       68400.19      .9690
      99    100      14.0885      .0002       68414.28      .9692
     100    101     14.46482      .0002       68428.74      .9694
     101    102     12.69692      .0002       68441.43      .9695
     102    103     15.05703      .0002       68456.49      .9698
     103    104      16.5928      .0002       68473.08      .9700
     104    105     10.18502      .0001       68483.27      .9701
     105    106     16.02071      .0002       68499.29      .9704
     106    107     5.465975      .0001       68504.76      .9704
     107    108      5.38346      .0001       68510.14      .9705
     108    109     12.23327      .0002       68522.38      .9707
     109    110      6.21508      .0001        68528.6      .9708
     110    111      9.31113      .0001       68537.91      .9709
     111    112     13.96843      .0002       68551.88      .9711
     112    113     20.66469      .0003       68572.54      .9714
     113    114     34.93296      .0005       68607.47      .9719
     114    115     14.79148      .0002       68622.26      .9721
     115    116     14.35186      .0002       68636.61      .9723
     116    117     10.18141      .0001       68646.79      .9725
     117    118     16.27415      .0002       68663.07      .9727
     118    119     26.11899      .0004       68689.18      .9731
     119    120     20.54114      .0003       68709.72      .9733
     120    121     19.39052      .0003       68729.11      .9736
     121    122      12.3989      .0002       68741.51      .9738
     122    123      26.8113      .0004       68768.32      .9742
     123    124     12.10681      .0002       68780.43      .9743
     124    125     34.52725      .0005       68814.96      .9748
     125    126     16.92688      .0002       68831.89      .9751
     126    127     16.98379      .0002       68848.87      .9753
     127    128     10.32516      .0001        68859.2      .9755
     128    129     21.36257      .0003       68880.56      .9758
     129    130     18.43934      .0003          68899      .9760
     130    131     12.04728      .0002       68911.04      .9762
     131    132     15.83622      .0002       68926.88      .9764
     132    133      13.5152      .0002       68940.39      .9766
     133    134     32.82043      .0005       68973.21      .9771
     134    135      20.5227      .0003       68993.74      .9774
     135    136     14.96166      .0002        69008.7      .9776
     136    137     14.99877      .0002        69023.7      .9778
     137    138     19.94315      .0003       69043.64      .9781
     138    139     37.00041      .0005       69080.64      .9786
     139    140     11.54658      .0002       69092.19      .9788
     140    141     6.422769      .0001       69098.61      .9789
     141    142     2.396688      .0000       69101.01      .9789
     142    143     13.34362      .0002       69114.35      .9791
     143    144     24.97644      .0004       69139.33      .9794
     144    145     20.59109      .0003       69159.92      .9797
     145    146     10.50439      .0001       69170.43      .9799
     146    147     25.64946      .0004       69196.08      .9802
     147    148     18.72512      .0003       69214.81      .9805
     148    149     11.44884      .0002       69226.25      .9807
     149    150     6.989264      .0001       69233.25      .9808
     150    151      11.3813      .0002       69244.63      .9809
     151    152     3.786269      .0001       69248.42      .9810
     152    153     12.77976      .0002        69261.2      .9812
     153    154     3.829269      .0001       69265.03      .9812
     154    155     7.221414      .0001       69272.25      .9813
     155    156     18.38434      .0003       69290.63      .9816
     156    157     26.31432      .0004       69316.94      .9819
     157    158     12.16453      .0002        69329.1      .9821
     158    159     7.464883      .0001       69336.57      .9822
     159    160     12.60825      .0002       69349.18      .9824
     160    161     2.494226      .0000       69351.67      .9824
     161    162     2.351895      .0000       69354.03      .9825
     162    163     8.911615      .0001       69362.94      .9826
     163    164     4.919003      .0001       69367.86      .9827
     164    165     8.052159      .0001       69375.92      .9828
     165    166     1.840049      .0000       69377.76      .9828
     166    167     1.356231      .0000       69379.12      .9828
     167    168     8.337074      .0001       69387.46      .9829
     168    169     4.766836      .0001       69392.22      .9830
     169    170     2.768327      .0000       69394.99      .9831
     170    171     6.042782      .0001       69401.03      .9831
     171    172            0      .0000       69401.03      .9831
     172    173     8.209359      .0001       69409.24      .9833
     173    174     11.31999      .0002       69420.56      .9834
     174    175     5.428906      .0001       69425.99      .9835
     175    176      .842522      .0000       69426.83      .9835
     176    177     5.254893      .0001       69432.09      .9836
     177    178     1.125458      .0000       69433.21      .9836
     178    179     5.390768      .0001        69438.6      .9837
     179    180     1.149314      .0000       69439.75      .9837
     180    181     6.206227      .0001       69445.96      .9838
     181    182     2.053579      .0000       69448.01      .9838
     182    183     3.762055      .0001       69451.78      .9839
     183    184      6.42598      .0001       69458.21      .9839
     184    185     5.080843      .0001       69463.28      .9840
     185    186     1.829778      .0000       69465.11      .9840
     186    187     1.356846      .0000       69466.47      .9841
     187    188     6.558625      .0001       69473.03      .9842
     188    189       .75445      .0000       69473.79      .9842
     189    190      .891633      .0000       69474.68      .9842
     190    191     6.771893      .0001       69481.46      .9843
     191    192     4.340958      .0001        69485.8      .9843
     192    193     6.011365      .0001       69491.81      .9844
     193    194     2.012633      .0000       69493.82      .9845
     194    195     2.276866      .0000        69496.1      .9845
     195    196     3.641713      .0001       69499.74      .9845
     196    197     2.447324      .0000       69502.18      .9846
     197    198     2.650136      .0000       69504.83      .9846
     198    199     2.751533      .0000       69507.58      .9846
     199    200     7.532693      .0001       69515.11      .9848
     200    201     2.288911      .0000        69517.4      .9848
     201    202     1.838949      .0000       69519.24      .9848
     202    203     1.031374      .0000       69520.27      .9848
     203    204     5.898675      .0001       69526.17      .9849
     204    205     2.769309      .0000       69528.93      .9849
     205    206     6.679082      .0001       69535.61      .9850
     206    207      .529977      .0000       69536.14      .9851
     207    208     1.786409      .0000       69537.93      .9851
     208    209      5.18059      .0001       69543.11      .9851
     209    210     1.140666      .0000       69544.25      .9852
     210    211     1.871042      .0000       69546.12      .9852
     211    212     3.535644      .0001       69549.66      .9852
     212    213     3.058176      .0000       69552.71      .9853
     213    214     7.456216      .0001       69560.17      .9854
     214    215     1.881526      .0000       69562.05      .9854
     215    216            0      .0000       69562.05      .9854
     216    217     2.515007      .0000       69564.57      .9855
     217    218     3.504112      .0000       69568.07      .9855
     218    219     4.342435      .0001       69572.42      .9856
     219    220     1.795389      .0000       69574.21      .9856
     220    221     2.037448      .0000       69576.25      .9856
     221    222            0      .0000       69576.25      .9856
     222    223      .613341      .0000       69576.87      .9856
     223    224     5.266832      .0001       69582.14      .9857
     224    225     3.852653      .0001       69585.99      .9858
     225    226      .331536      .0000       69586.32      .9858
     226    227     9.605064      .0001       69595.92      .9859
     227    228            0      .0000       69595.92      .9859
     228    229      .525924      .0000       69596.44      .9859
     229    230     4.899974      .0001       69601.34      .9860
     230    231      .373024      .0000       69601.71      .9860
     231    232     3.855808      .0001       69605.57      .9860
     232    233            0      .0000       69605.57      .9860
     233    234     2.165563      .0000       69607.74      .9861
     234    235     2.531084      .0000       69610.27      .9861
     235    236      .919324      .0000       69611.19      .9861
     236    237     2.130547      .0000       69613.32      .9861
     237    238      3.34822      .0000       69616.67      .9862
     238    239     2.192399      .0000       69618.87      .9862
     239    240     8.361175      .0001       69627.23      .9863
     240    241            0      .0000       69627.23      .9863
     241    242      3.11038      .0000       69630.34      .9864
     242    243     14.50175      .0002       69644.84      .9866
     243    244     4.497375      .0001       69649.34      .9867
     244    245       .50659      .0000       69649.85      .9867
     245    246     2.265887      .0000       69652.11      .9867
     246    247     3.005865      .0000       69655.12      .9867
     247    248     5.320855      .0001       69660.44      .9868
     248    249     5.385941      .0001       69665.82      .9869
     249    250      .428168      .0000       69666.25      .9869
     250    251     1.136957      .0000       69667.39      .9869
     251    252     4.440901      .0001       69671.83      .9870
     252    253     12.04994      .0002       69683.88      .9871
     253    254     9.039709      .0001       69692.92      .9873
     254    255     4.017852      .0001       69696.93      .9873
     255    256     1.009888      .0000       69697.94      .9873
     256    257     1.868041      .0000       69699.81      .9874
     257    258     1.548606      .0000       69701.35      .9874
     258    259     12.17631      .0002       69713.53      .9876
     259    260     14.89144      .0002       69728.42      .9878
     260    261     9.823707      .0001       69738.25      .9879
     261    262     8.120648      .0001       69746.36      .9880
     262    263     21.41293      .0003       69767.78      .9883
     263    264     19.29393      .0003       69787.07      .9886
     264    265     6.298255      .0001       69793.37      .9887
     265    266      9.80667      .0001       69803.17      .9888
     266    267     2.611863      .0000       69805.78      .9889
     267    268     4.709612      .0001        69810.5      .9889
     268    269     3.327566      .0000       69813.82      .9890
     269    270     7.719717      .0001       69821.54      .9891
     270    271     1.893525      .0000       69823.43      .9891
     271    272     1.480657      .0000       69824.92      .9891
     272    273     2.343118      .0000       69827.26      .9892
     273    274     11.94179      .0002       69839.21      .9893
     274    275     8.450072      .0001       69847.66      .9895
     275    276      18.4726      .0003       69866.13      .9897
     276    277     4.510246      .0001       69870.64      .9898
     277    278     36.32365      .0005       69906.96      .9903
     278    279      4.07933      .0001       69911.03      .9904
     279    280     5.035616      .0001       69916.07      .9904
     280    281     9.199398      .0001       69925.28      .9906
     281    282      2.48901      .0000       69927.77      .9906
     282    283     3.102713      .0000       69930.87      .9906
     283    284     2.546457      .0000       69933.42      .9907
     284    285     2.505506      .0000       69935.92      .9907
     285    286      31.8004      .0005       69967.72      .9912
     286    287     1.775186      .0000        69969.5      .9912
     287    288     15.58659      .0002       69985.08      .9914
     288    289      .506925      .0000       69985.59      .9914
     289    290            0      .0000       69985.59      .9914
     290    291     7.472023      .0001       69993.06      .9915
     291    292     1.518397      .0000       69994.57      .9915
     292    293            0      .0000       69994.57      .9915
     293    294      .331775      .0000        69994.9      .9915
     294    295     4.137418      .0001       69999.04      .9916
     295    296     16.90882      .0002       70015.95      .9918
     296    297      .300939      .0000       70016.25      .9919
     297    298     11.08557      .0002       70027.34      .9920
     298    299     4.177233      .0001       70031.52      .9921
     299    300     1.826499      .0000       70033.35      .9921
     300    301      .541338      .0000       70033.89      .9921
     301    302     2.914277      .0000        70036.8      .9921
     302    303            0      .0000        70036.8      .9921
     303    304     6.405028      .0001       70043.21      .9922
     304    305     4.777015      .0001       70047.98      .9923
     305    306     10.65468      .0002       70058.64      .9925
     306    307     3.192779      .0000       70061.83      .9925
     307    308     6.106441      .0001       70067.94      .9926
     308    309     1.346382      .0000       70069.28      .9926
     309    310     2.254477      .0000       70071.54      .9926
     310    311     15.30388      .0002       70086.85      .9929
     311    312     6.382343      .0001       70093.23      .9929
     312    313     2.210983      .0000       70095.44      .9930
     313    314     2.423011      .0000       70097.86      .9930
     314    315     7.035326      .0001        70104.9      .9931
     315    316     15.47891      .0002       70120.38      .9933
     316    317            0      .0000       70120.38      .9933
     317    318     3.063848      .0000       70123.44      .9934
     318    319     9.415304      .0001       70132.85      .9935
     319    320     9.998476      .0001       70142.85      .9936
     320    321      18.4052      .0003       70161.26      .9939
     321    322     2.890167      .0000       70164.15      .9939
     322    323     1.775492      .0000       70165.92      .9940
     323    324     2.200151      .0000       70168.13      .9940
     324    325     8.130109      .0001       70176.26      .9941
     325    326     19.99223      .0003       70196.25      .9944
     326    327      6.25681      .0001       70202.51      .9945
     327    328       6.4863      .0001          70209      .9946
     328    329            0      .0000          70209      .9946
     329    330     2.993334      .0000       70211.99      .9946
     330    331     20.60682      .0003        70232.6      .9949
     331    332     38.26358      .0005       70270.86      .9955
     332    333            0      .0000       70270.86      .9955
     333    334     31.14772      .0004       70302.01      .9959
     334    335            0      .0000       70302.01      .9959
     335    336            0      .0000       70302.01      .9959
     336    337            0      .0000       70302.01      .9959
     337    338      .157266      .0000       70302.17      .9959
     338    339     6.664342      .0001       70308.83      .9960
     339    340            0      .0000       70308.83      .9960
     340    341            0      .0000       70308.83      .9960
     341    342            0      .0000       70308.83      .9960
     342    343            0      .0000       70308.83      .9960
     343    344      35.2447      .0005       70344.07      .9965
     344    345            0      .0000       70344.07      .9965
     345    346            0      .0000       70344.07      .9965
     346    347            0      .0000       70344.07      .9965
     347    348            0      .0000       70344.07      .9965
     348    349            0      .0000       70344.07      .9965
     349    350            0      .0000       70344.07      .9965
     350    351            0      .0000       70344.07      .9965
     351    352            0      .0000       70344.07      .9965
     352    353            0      .0000       70344.07      .9965
     353    354            0      .0000       70344.07      .9965
     354    355            0      .0000       70344.07      .9965
     355    356            0      .0000       70344.07      .9965
     356    357            0      .0000       70344.07      .9965
     357    358      12.5189      .0002       70356.59      .9967
     358    359      .640267      .0000       70357.23      .9967
     359    360     1.281497      .0000       70358.51      .9967
     360    361            0      .0000       70358.51      .9967
     361    362            0      .0000       70358.51      .9967
     362    363            0      .0000       70358.51      .9967
     363    364            0      .0000       70358.51      .9967
     364    365            0      .0000       70358.51      .9967
     365    366            0      .0000       70358.51      .9967
     366    367            0      .0000       70358.51      .9967
     367    368            0      .0000       70358.51      .9967
     368    369      .400261      .0000       70358.91      .9967
     369    370            0      .0000       70358.91      .9967
     370    371            0      .0000       70358.91      .9967
     371    372            0      .0000       70358.91      .9967
     372    373     3.239191      .0000       70362.15      .9968
     373    374      .320119      .0000       70362.47      .9968
     374    375            0      .0000       70362.47      .9968
     375    376            0      .0000       70362.47      .9968
     376    377            0      .0000       70362.47      .9968
     377    378      .959482      .0000       70363.43      .9968
     378    379     3.238924      .0000       70366.67      .9968
     379    380            0      .0000       70366.67      .9968
     380    381      .711299      .0000       70367.39      .9968
     381    382      .319986      .0000       70367.71      .9968
     382    383      .320063      .0000       70368.03      .9968
     383    384     3.182173      .0000       70371.21      .9969
     384    385            0      .0000       70371.21      .9969
     385    386            0      .0000       70371.21      .9969
     386    387     1.496781      .0000       70372.71      .9969
     387    388            0      .0000       70372.71      .9969
     388    389     1.218496      .0000       70373.92      .9969
     389    390     1.393591      .0000       70375.32      .9969
     390    391     1.610088      .0000       70376.92      .9970
     391    392            0      .0000       70376.92      .9970
     392    393      .319986      .0000       70377.25      .9970
     393    394      .556524      .0000        70377.8      .9970
     394    395      .568186      .0000       70378.37      .9970
     395    396            0      .0000       70378.37      .9970
     396    397     1.037841      .0000       70379.41      .9970
     397    398     6.759165      .0001       70386.17      .9971
     398    399     3.750371      .0001       70389.92      .9971
     399    400            0      .0000       70389.92      .9971
     400    401            0      .0000       70389.92      .9971
     401    402            0      .0000       70389.92      .9971
     402    403     2.343574      .0000       70392.26      .9972
     403    404      .553362      .0000       70392.82      .9972
     404    405     2.681483      .0000        70395.5      .9972
     405    406            0      .0000        70395.5      .9972
     406    407            0      .0000        70395.5      .9972
     407    408     2.005765      .0000        70397.5      .9973
     408    409            0      .0000        70397.5      .9973
     409    410      .738381      .0000       70398.25      .9973
     410    411     2.160565      .0000       70400.41      .9973
     411    412            0      .0000       70400.41      .9973
     412    413            0      .0000       70400.41      .9973
     413    414            0      .0000       70400.41      .9973
     414    415     20.87461      .0003       70421.28      .9976
     415    416            0      .0000       70421.28      .9976
     416    417            0      .0000       70421.28      .9976
     417    418            0      .0000       70421.28      .9976
     418    419            0      .0000       70421.28      .9976
     419    420            0      .0000       70421.28      .9976
     420    421            0      .0000       70421.28      .9976
     421    422            0      .0000       70421.28      .9976
     422    423            0      .0000       70421.28      .9976
     423    424            0      .0000       70421.28      .9976
     424    425            0      .0000       70421.28      .9976
     425    426            0      .0000       70421.28      .9976
     426    427            0      .0000       70421.28      .9976
     427    428            0      .0000       70421.28      .9976
     428    429            0      .0000       70421.28      .9976
     429    430            0      .0000       70421.28      .9976
     430    431            0      .0000       70421.28      .9976
     431    432            0      .0000       70421.28      .9976
     432    433            0      .0000       70421.28      .9976
     433    434            0      .0000       70421.28      .9976
     434    435            0      .0000       70421.28      .9976
     435    436            0      .0000       70421.28      .9976
     436    437            0      .0000       70421.28      .9976
     437    438            0      .0000       70421.28      .9976
     438    439            0      .0000       70421.28      .9976
     439    440            0      .0000       70421.28      .9976
     440    441            0      .0000       70421.28      .9976
     441    442            0      .0000       70421.28      .9976
     442    443            0      .0000       70421.28      .9976
     443    444            0      .0000       70421.28      .9976
     444    445            0      .0000       70421.28      .9976
     445    446            0      .0000       70421.28      .9976
     446    447            0      .0000       70421.28      .9976
     447    448            0      .0000       70421.28      .9976
     448    449            0      .0000       70421.28      .9976
     449    450            0      .0000       70421.28      .9976
     450    451            0      .0000       70421.28      .9976
     451    452            0      .0000       70421.28      .9976
     452    453            0      .0000       70421.28      .9976
     453    454            0      .0000       70421.28      .9976
     454    455            0      .0000       70421.28      .9976
     455    456            0      .0000       70421.28      .9976
     456    457            0      .0000       70421.28      .9976
     457    458            0      .0000       70421.28      .9976
     458    459            0      .0000       70421.28      .9976
     459    460            0      .0000       70421.28      .9976
     460    461            0      .0000       70421.28      .9976
     461    462            0      .0000       70421.28      .9976
     462    463            0      .0000       70421.28      .9976
     463    464            0      .0000       70421.28      .9976
     464    465            0      .0000       70421.28      .9976
     465    466            0      .0000       70421.28      .9976
     466    467            0      .0000       70421.28      .9976
     467    468            0      .0000       70421.28      .9976
     468    469            0      .0000       70421.28      .9976
     469    470            0      .0000       70421.28      .9976
     470    471            0      .0000       70421.28      .9976
     471    472            0      .0000       70421.28      .9976
     472    473            0      .0000       70421.28      .9976
     473    474            0      .0000       70421.28      .9976
     474    475            0      .0000       70421.28      .9976
     475    476            0      .0000       70421.28      .9976
     476    477            0      .0000       70421.28      .9976
     477    478            0      .0000       70421.28      .9976
     478    479            0      .0000       70421.28      .9976
     479    480            0      .0000       70421.28      .9976
     480    481            0      .0000       70421.28      .9976
     481    482            0      .0000       70421.28      .9976
     482    483            0      .0000       70421.28      .9976
     483    484            0      .0000       70421.28      .9976
     484    485            0      .0000       70421.28      .9976
     485    486            0      .0000       70421.28      .9976
     486    487            0      .0000       70421.28      .9976
     487    488            0      .0000       70421.28      .9976
     488    489            0      .0000       70421.28      .9976
     489    490            0      .0000       70421.28      .9976
     490    491            0      .0000       70421.28      .9976
     491    492            0      .0000       70421.28      .9976
     492    493            0      .0000       70421.28      .9976
     493    494            0      .0000       70421.28      .9976
     494    495            0      .0000       70421.28      .9976
     495    496            0      .0000       70421.28      .9976
     496    497            0      .0000       70421.28      .9976
     497    498            0      .0000       70421.28      .9976
     498    499            0      .0000       70421.28      .9976
     499    500            0      .0000       70421.28      .9976


 MATRIX CALCULATIONS
 *******************


 Expression:

  mf01   = mf465 + mf464' + mf469 + mf468'

 Result matrix:         mf01  : temp1                                         Temporary Matrix 1                                                               (18-11-21 10:46:01)

 Data matrices:         mf465 : MND322                                        Mobile PM HBWOB Car                                                              (18-11-21 10:44:20)
                        mf464 : MND321                                        Mobile PM HBWIB Car                                                              (18-11-21 10:44:18)
                        mf469 : MND326                                        Mobile PM HBOOB Car                                                              (18-11-21 10:44:23)
                        mf468 : MND325                                        Mobile PM HBOIB Car                                                              (18-11-21 10:44:21)

 Constraint matrix:     none

 Submatrix:             all origins             all destinations

 Number of expression evaluations:          35721
 Minimum expression value:                .000000   (at      1     22)
 Maximum expression value:         1918380.500000   (at    142    142)
 Average expression value:             457.987030
 Sum of expression values:        16359755.000000


 MATRIX CALCULATIONS
 *******************


 Expression:

  mf02   = mf471 + mf470' + mf914 + mf909'

 Result matrix:         mf02  : temp2                                         Temporary Matrix 2                                                               (18-11-21 10:46:01)

 Data matrices:         mf471 : MND328                                        Mobile PM HBEBOB Car                                                             (18-11-21 10:45:40)
                        mf470 : MND327                                        Mobile PM HBEBIB Car                                                             (18-11-21 10:45:41)
                        mf914 : MND3220                                       Mobile PM HBEDOB Car                                                             (18-11-21 10:44:33)
                        mf909 : MND3219                                       Mobile PM HBEDIB Car                                                             (18-11-21 10:44:32)

 Constraint matrix:     none

 Submatrix:             all origins             all destinations

 Number of expression evaluations:          35721
 Minimum expression value:                .000000   (at      1     22)
 Maximum expression value:          469125.093750   (at    142    142)
 Average expression value:             121.462905
 Sum of expression values:         4338776.500000


 MATRIX CALCULATIONS
 *******************


 Expression:

  mf03   = mf01 + mf02

 Result matrix:         mf03  : temp3                                         Temporary Matrix 3                                                               (18-11-21 10:46:01)

 Data matrices:         mf01  : temp1                                         Temporary Matrix 1                                                               (18-11-21 10:46:01)
                        mf02  : temp2                                         Temporary Matrix 2                                                               (18-11-21 10:46:01)

 Constraint matrix:     none

 Submatrix:             all origins             all destinations

 Number of expression evaluations:          35721
 Minimum expression value:                .000000   (at      1     22)
 Maximum expression value:         2387505.500000   (at    142    142)
 Average expression value:             579.449829
 Sum of expression values:        20698528.000000
