

 Matrix histogram
 ----------------


 data   matrix        mf795 : DSTSK2                                   Distance Skim Car                                                               

 weight matrix        mf01  : temp1                                    Temporary Matrix 1                                                              

  all  origins   all  destinations

 constraint matrix    mf10  : temp10                                   Temporary Matrix 10                                                             
          interval  lower:         1
                    upper:         1  include 

 out of range       above: 1885.721
                    below:        0

 statistics         mean : 115.8396
                    std  :  140.024

    interval        ------density-------      -----cumulative-----
 (from  ,    to)    absolute  normalized      absolute  normalized

       0      1     571.2388      .0112       571.2388      .0112
       1      2     558.3358      .0109       1129.574      .0221
       2      3     833.7963      .0163       1963.371      .0384
       3      4     412.4049      .0081       2375.776      .0465
       4      5     222.1668      .0044       2597.943      .0509
       5      6     788.4787      .0154       3386.421      .0663
       6      7     828.2807      .0162       4214.702      .0825
       7      8     406.6837      .0080       4621.386      .0905
       8      9     570.9544      .0112        5192.34      .1017
       9     10     397.3604      .0078       5589.701      .1094
      10     11     400.3583      .0078       5990.059      .1173
      11     12     962.0328      .0188       6952.092      .1361
      12     13     638.5464      .0125       7590.638      .1486
      13     14     907.2555      .0178       8497.894      .1664
      14     15     667.2709      .0131       9165.165      .1795
      15     16     859.2007      .0168       10024.37      .1963
      16     17      1113.19      .0218       11137.55      .2181
      17     18     1103.569      .0216       12241.12      .2397
      18     19     913.3789      .0179        13154.5      .2576
      19     20     496.2887      .0097       13650.79      .2673
      20     21     344.9551      .0068       13995.75      .2740
      21     22     382.1177      .0075       14377.86      .2815
      22     23     520.5336      .0102        14898.4      .2917
      23     24     502.0825      .0098       15400.48      .3015
      24     25     654.4144      .0128       16054.89      .3144
      25     26     257.1642      .0050       16312.06      .3194
      26     27     666.0697      .0130       16978.13      .3324
      27     28     485.0228      .0095       17463.15      .3419
      28     29     485.7916      .0095       17948.94      .3514
      29     30     1667.871      .0327       19616.81      .3841
      30     31     356.1855      .0070          19973      .3911
      31     32     515.4282      .0101       20488.43      .4012
      32     33     255.3564      .0050       20743.78      .4062
      33     34     253.9489      .0050       20997.73      .4111
      34     35     286.0936      .0056       21283.83      .4167
      35     36     365.8869      .0072       21649.71      .4239
      36     37     255.7263      .0050       21905.44      .4289
      37     38     570.3671      .0112       22475.81      .4401
      38     39     202.6801      .0040       22678.49      .4441
      39     40     134.1626      .0026       22812.65      .4467
      40     41     149.5353      .0029       22962.18      .4496
      41     42     245.5688      .0048       23207.75      .4544
      42     43     250.3186      .0049       23458.07      .4593
      43     44     206.3031      .0040       23664.37      .4634
      44     45     274.7312      .0054        23939.1      .4687
      45     46     161.9385      .0032       24101.04      .4719
      46     47     71.32772      .0014       24172.37      .4733
      47     48     270.8084      .0053       24443.18      .4786
      48     49     145.4239      .0028        24588.6      .4815
      49     50     434.5511      .0085       25023.15      .4900
      50     51     131.5351      .0026       25154.69      .4925
      51     52     159.3591      .0031       25314.05      .4957
      52     53     129.6886      .0025       25443.74      .4982
      53     54     112.7399      .0022       25556.48      .5004
      54     55     148.5422      .0029       25705.02      .5033
      55     56     221.8352      .0043       25926.85      .5077
      56     57     345.2968      .0068       26272.15      .5144
      57     58     135.1648      .0026       26407.32      .5171
      58     59     265.1964      .0052       26672.51      .5223
      59     60     179.9297      .0035       26852.44      .5258
      60     61     116.3295      .0023       26968.77      .5281
      61     62     211.6617      .0041       27180.43      .5322
      62     63     118.4087      .0023       27298.84      .5345
      63     64     169.0867      .0033       27467.93      .5378
      64     65      96.0518      .0019       27563.98      .5397
      65     66     153.3065      .0030       27717.29      .5427
      66     67      114.411      .0022        27831.7      .5450
      67     68     160.3982      .0031        27992.1      .5481
      68     69     344.7727      .0068       28336.87      .5548
      69     70     136.2418      .0027       28473.11      .5575
      70     71     102.6213      .0020       28575.73      .5595
      71     72     149.4344      .0029       28725.17      .5625
      72     73     115.3255      .0023       28840.49      .5647
      73     74     148.6887      .0029       28989.18      .5676
      74     75     111.9989      .0022       29101.18      .5698
      75     76     97.53694      .0019       29198.72      .5717
      76     77     112.8815      .0022        29311.6      .5739
      77     78     66.60865      .0013       29378.21      .5752
      78     79     47.61172      .0009       29425.82      .5762
      79     80     199.0608      .0039       29624.88      .5801
      80     81     187.4247      .0037        29812.3      .5837
      81     82     222.6005      .0044        30034.9      .5881
      82     83     76.11975      .0015       30111.02      .5896
      83     84      114.676      .0022        30225.7      .5918
      84     85     66.60997      .0013       30292.31      .5931
      85     86     50.34706      .0010       30342.66      .5941
      86     87     248.3557      .0049       30591.01      .5990
      87     88     88.43177      .0017       30679.44      .6007
      88     89     38.39168      .0008       30717.83      .6015
      89     90     65.13854      .0013       30782.97      .6027
      90     91      251.248      .0049       31034.22      .6077
      91     92     270.3132      .0053       31304.53      .6130
      92     93     144.6106      .0028       31449.15      .6158
      93     94     183.6372      .0036       31632.78      .6194
      94     95     19.23612      .0004       31652.02      .6198
      95     96     115.1178      .0023       31767.14      .6220
      96     97     74.12548      .0015       31841.26      .6235
      97     98     244.8004      .0048       32086.06      .6283
      98     99     196.7974      .0039       32282.86      .6321
      99    100      58.3768      .0011       32341.24      .6333
     100    101     113.6891      .0022       32454.92      .6355
     101    102     74.02798      .0014       32528.95      .6369
     102    103     93.75467      .0018       32622.71      .6388
     103    104     86.99485      .0017        32709.7      .6405
     104    105     184.2666      .0036       32893.96      .6441
     105    106     184.3034      .0036       33078.27      .6477
     106    107     59.16706      .0012       33137.44      .6488
     107    108     43.90474      .0009       33181.34      .6497
     108    109     48.66954      .0010       33230.01      .6507
     109    110     40.80737      .0008       33270.82      .6515
     110    111     76.39872      .0015       33347.22      .6530
     111    112     141.7497      .0028       33488.97      .6557
     112    113     77.93152      .0015        33566.9      .6573
     113    114     283.2263      .0055       33850.12      .6628
     114    115     38.89494      .0008       33889.02      .6636
     115    116     111.2052      .0022       34000.23      .6657
     116    117     50.75455      .0010       34050.98      .6667
     117    118     105.2049      .0021       34156.18      .6688
     118    119     162.2151      .0032        34318.4      .6720
     119    120     105.0773      .0021       34423.48      .6740
     120    121     94.05097      .0018       34517.53      .6759
     121    122     100.1897      .0020       34617.72      .6778
     122    123     197.9734      .0039       34815.69      .6817
     123    124     129.0516      .0025       34944.74      .6842
     124    125     117.0222      .0023       35061.76      .6865
     125    126     102.3345      .0020        35164.1      .6885
     126    127     90.01595      .0018       35254.12      .6903
     127    128     90.04302      .0018       35344.16      .6921
     128    129     118.6173      .0023       35462.78      .6944
     129    130     177.8678      .0035       35640.64      .6979
     130    131     121.1085      .0024       35761.75      .7002
     131    132     120.7836      .0024       35882.54      .7026
     132    133     80.92855      .0016       35963.47      .7042
     133    134     197.8477      .0039       36161.32      .7081
     134    135     136.3062      .0027       36297.62      .7107
     135    136     152.8922      .0030       36450.51      .7137
     136    137     96.36791      .0019       36546.88      .7156
     137    138     97.44037      .0019       36644.32      .7175
     138    139     210.2809      .0041        36854.6      .7216
     139    140     81.51164      .0016       36936.11      .7232
     140    141     84.91413      .0017       37021.03      .7249
     141    142     35.37469      .0007        37056.4      .7256
     142    143     109.8748      .0022       37166.28      .7277
     143    144     75.71453      .0015       37241.99      .7292
     144    145     158.9672      .0031       37400.96      .7323
     145    146     114.9364      .0023        37515.9      .7346
     146    147     211.5603      .0041       37727.46      .7387
     147    148     99.78118      .0020       37827.24      .7407
     148    149     90.34999      .0018       37917.59      .7424
     149    150     60.86821      .0012       37978.46      .7436
     150    151     94.02048      .0018       38072.48      .7455
     151    152     24.61165      .0005       38097.09      .7460
     152    153     65.85351      .0013       38162.94      .7472
     153    154     56.72346      .0011       38219.66      .7484
     154    155     48.37005      .0009       38268.03      .7493
     155    156     145.4863      .0028       38413.52      .7522
     156    157     181.1193      .0035       38594.64      .7557
     157    158     100.7976      .0020       38695.44      .7577
     158    159     109.9292      .0022       38805.37      .7598
     159    160     75.82512      .0015       38881.19      .7613
     160    161     39.41028      .0008        38920.6      .7621
     161    162     29.92238      .0006       38950.53      .7627
     162    163     76.56974      .0015        39027.1      .7642
     163    164      47.0901      .0009       39074.19      .7651
     164    165      80.4496      .0016       39154.64      .7667
     165    166      69.6211      .0014       39224.26      .7680
     166    167     9.058281      .0002       39233.32      .7682
     167    168     70.64473      .0014       39303.96      .7696
     168    169     35.06616      .0007       39339.03      .7703
     169    170     27.03714      .0005       39366.07      .7708
     170    171     106.6824      .0021       39472.75      .7729
     171    172     7.077832      .0001       39479.83      .7730
     172    173     80.72693      .0016       39560.55      .7746
     173    174     92.18305      .0018       39652.74      .7764
     174    175     35.45668      .0007       39688.19      .7771
     175    176     21.88703      .0004       39710.08      .7775
     176    177     53.21558      .0010        39763.3      .7786
     177    178     6.011087      .0001       39769.31      .7787
     178    179     21.29582      .0004        39790.6      .7791
     179    180       28.938      .0006       39819.54      .7797
     180    181     66.05411      .0013        39885.6      .7810
     181    182      28.1502      .0006       39913.75      .7815
     182    183     60.42069      .0012       39974.17      .7827
     183    184      35.2684      .0007       40009.44      .7834
     184    185     44.26773      .0009       40053.71      .7843
     185    186     13.88037      .0003       40067.58      .7845
     186    187     18.85759      .0004       40086.44      .7849
     187    188     52.14543      .0010       40138.59      .7859
     188    189     5.800519      .0001       40144.39      .7860
     189    190     4.413129      .0001        40148.8      .7861
     190    191     25.46383      .0005       40174.27      .7866
     191    192     17.51369      .0003       40191.78      .7870
     192    193      51.5012      .0010       40243.28      .7880
     193    194     21.33276      .0004       40264.62      .7884
     194    195     16.74344      .0003       40281.36      .7887
     195    196     22.99693      .0005       40304.35      .7892
     196    197     33.80908      .0007       40338.16      .7898
     197    198     25.14185      .0005        40363.3      .7903
     198    199     30.76749      .0006       40394.07      .7909
     199    200     43.90107      .0009       40437.97      .7918
     200    201     25.25025      .0005       40463.22      .7923
     201    202     19.14253      .0004       40482.36      .7927
     202    203     10.48226      .0002       40492.84      .7929
     203    204     37.31435      .0007       40530.16      .7936
     204    205     20.38861      .0004       40550.54      .7940
     205    206     53.41702      .0010       40603.96      .7950
     206    207     32.22409      .0006       40636.18      .7957
     207    208     10.67675      .0002       40646.86      .7959
     208    209     64.43018      .0013       40711.29      .7971
     209    210      12.1745      .0002       40723.46      .7974
     210    211     10.80029      .0002       40734.26      .7976
     211    212     18.86179      .0004       40753.13      .7980
     212    213     21.46324      .0004       40774.59      .7984
     213    214     44.32555      .0009       40818.92      .7993
     214    215     26.72192      .0005       40845.64      .7998
     215    216     2.694669      .0001       40848.33      .7998
     216    217     13.41723      .0003       40861.75      .8001
     217    218     18.14045      .0004       40879.89      .8004
     218    219     39.35249      .0008       40919.25      .8012
     219    220     30.93215      .0006       40950.18      .8018
     220    221     16.55855      .0003       40966.74      .8021
     221    222     5.022639      .0001       40971.76      .8022
     222    223     14.65883      .0003       40986.42      .8025
     223    224     37.66346      .0007       41024.08      .8033
     224    225     28.24406      .0006       41052.33      .8038
     225    226     6.309578      .0001       41058.64      .8039
     226    227     49.40877      .0010       41108.05      .8049
     227    228     15.54412      .0003       41123.59      .8052
     228    229     7.961737      .0002       41131.55      .8054
     229    230     34.15814      .0007       41165.71      .8060
     230    231     1.575019      .0000       41167.28      .8061
     231    232     15.68896      .0003       41182.97      .8064
     232    233     12.91535      .0003       41195.88      .8066
     233    234     35.30235      .0007       41231.18      .8073
     234    235     35.13918      .0007       41266.32      .8080
     235    236     20.50132      .0004       41286.82      .8084
     236    237     41.65159      .0008       41328.48      .8092
     237    238     19.65212      .0004       41348.13      .8096
     238    239     14.76771      .0003        41362.9      .8099
     239    240     44.17226      .0009       41407.07      .8108
     240    241     1.608383      .0000       41408.68      .8108
     241    242     27.36344      .0005       41436.04      .8113
     242    243     67.67454      .0013       41503.72      .8127
     243    244     18.61761      .0004       41522.33      .8130
     244    245      .701193      .0000       41523.04      .8130
     245    246     18.38296      .0004       41541.42      .8134
     246    247     18.93953      .0004       41560.36      .8138
     247    248      27.5498      .0005       41587.91      .8143
     248    249     58.17417      .0011       41646.09      .8155
     249    250     16.39841      .0003       41662.49      .8158
     250    251     33.15488      .0006       41695.64      .8164
     251    252     28.90303      .0006       41724.55      .8170
     252    253     129.8648      .0025       41854.41      .8195
     253    254     92.73077      .0018       41947.14      .8213
     254    255     66.75683      .0013        42013.9      .8227
     255    256     18.86442      .0004       42032.76      .8230
     256    257     46.48719      .0009       42079.25      .8239
     257    258     18.40373      .0004       42097.65      .8243
     258    259     93.35932      .0018       42191.01      .8261
     259    260     92.28783      .0018        42283.3      .8279
     260    261     87.36952      .0017       42370.67      .8296
     261    262     61.18883      .0012       42431.86      .8308
     262    263     155.1582      .0030       42587.01      .8339
     263    264      60.3179      .0012       42647.33      .8351
     264    265     35.16808      .0007        42682.5      .8357
     265    266     61.14516      .0012       42743.64      .8369
     266    267     27.92641      .0005       42771.57      .8375
     267    268     28.81449      .0006       42800.39      .8381
     268    269     58.07788      .0011       42858.46      .8392
     269    270     51.83303      .0010        42910.3      .8402
     270    271     42.01556      .0008       42952.31      .8410
     271    272     8.824637      .0002       42961.14      .8412
     272    273     6.144317      .0001       42967.28      .8413
     273    274     103.7853      .0020       43071.07      .8434
     274    275     102.9385      .0020          43174      .8454
     275    276     92.56328      .0018       43266.57      .8472
     276    277     156.7693      .0031       43423.33      .8503
     277    278     308.9966      .0061       43732.33      .8563
     278    279     30.70611      .0006       43763.04      .8569
     279    280     41.57519      .0008       43804.61      .8577
     280    281     87.05461      .0017       43891.67      .8594
     281    282     29.34899      .0006       43921.01      .8600
     282    283     62.22451      .0012       43983.24      .8612
     283    284     24.15788      .0005       44007.39      .8617
     284    285      22.4039      .0004        44029.8      .8621
     285    286     393.9964      .0077       44423.79      .8698
     286    287     24.39557      .0005       44448.19      .8703
     287    288     114.9366      .0023       44563.12      .8726
     288    289     5.400897      .0001       44568.53      .8727
     289    290     5.011579      .0001       44573.54      .8728
     290    291      153.636      .0030       44727.17      .8758
     291    292     22.18993      .0004       44749.37      .8762
     292    293     4.180029      .0001       44753.55      .8763
     293    294     4.155086      .0001        44757.7      .8764
     294    295     15.03706      .0003       44772.74      .8767
     295    296     101.5043      .0020       44874.24      .8787
     296    297     12.97845      .0003       44887.22      .8789
     297    298     119.5098      .0023       45006.73      .8813
     298    299     73.99705      .0014       45080.73      .8827
     299    300     54.18955      .0011       45134.92      .8838
     300    301     1.728424      .0000       45136.64      .8838
     301    302     10.45628      .0002        45147.1      .8840
     302    303     9.931274      .0002       45157.03      .8842
     303    304     70.88529      .0014       45227.92      .8856
     304    305     59.47818      .0012       45287.39      .8867
     305    306     158.9055      .0031        45446.3      .8899
     306    307     46.54788      .0009       45492.85      .8908
     307    308     67.65402      .0013        45560.5      .8921
     308    309      24.8775      .0005       45585.38      .8926
     309    310     30.93899      .0006       45616.32      .8932
     310    311     39.09297      .0008       45655.41      .8940
     311    312     72.46964      .0014       45727.88      .8954
     312    313     10.92737      .0002        45738.8      .8956
     313    314     52.38147      .0010       45791.19      .8966
     314    315     47.71315      .0009        45838.9      .8975
     315    316     145.6761      .0029       45984.58      .9004
     316    317            0      .0000       45984.58      .9004
     317    318     35.15499      .0007       46019.73      .9011
     318    319     81.85405      .0016       46101.59      .9027
     319    320     107.4056      .0021          46209      .9048
     320    321     128.1112      .0025        46337.1      .9073
     321    322     51.89119      .0010          46389      .9083
     322    323     46.18069      .0009       46435.17      .9092
     323    324     17.08362      .0003       46452.26      .9096
     324    325     113.3424      .0022        46565.6      .9118
     325    326      162.751      .0032       46728.35      .9150
     326    327     90.76544      .0018       46819.12      .9167
     327    328     36.31414      .0007       46855.43      .9175
     328    329            0      .0000       46855.43      .9175
     329    330     24.01931      .0005       46879.45      .9179
     330    331     188.8309      .0037       47068.28      .9216
     331    332     270.0393      .0053       47338.32      .9269
     332    333            0      .0000       47338.32      .9269
     333    334     345.8067      .0068       47684.12      .9337
     334    335            0      .0000       47684.12      .9337
     335    336            0      .0000       47684.12      .9337
     336    337            0      .0000       47684.12      .9337
     337    338       11.434      .0002       47695.56      .9339
     338    339     34.18799      .0007       47729.75      .9346
     339    340            0      .0000       47729.75      .9346
     340    341            0      .0000       47729.75      .9346
     341    342            0      .0000       47729.75      .9346
     342    343            0      .0000       47729.75      .9346
     343    344     362.1895      .0071       48091.94      .9417
     344    345            0      .0000       48091.94      .9417
     345    346            0      .0000       48091.94      .9417
     346    347            0      .0000       48091.94      .9417
     347    348            0      .0000       48091.94      .9417
     348    349            0      .0000       48091.94      .9417
     349    350            0      .0000       48091.94      .9417
     350    351            0      .0000       48091.94      .9417
     351    352            0      .0000       48091.94      .9417
     352    353            0      .0000       48091.94      .9417
     353    354            0      .0000       48091.94      .9417
     354    355     6.724073      .0001       48098.66      .9418
     355    356     2.581888      .0001       48101.24      .9418
     356    357            0      .0000       48101.24      .9418
     357    358     213.7985      .0042       48315.04      .9460
     358    359     2.615172      .0001       48317.65      .9461
     359    360     1.358966      .0000       48319.01      .9461
     360    361     1.765369      .0000       48320.78      .9461
     361    362            0      .0000       48320.78      .9461
     362    363            0      .0000       48320.78      .9461
     363    364            0      .0000       48320.78      .9461
     364    365            0      .0000       48320.78      .9461
     365    366            0      .0000       48320.78      .9461
     366    367            0      .0000       48320.78      .9461
     367    368      6.72669      .0001        48327.5      .9463
     368    369     7.157457      .0001       48334.66      .9464
     369    370     1.358806      .0000       48336.02      .9464
     370    371            0      .0000       48336.02      .9464
     371    372            0      .0000       48336.02      .9464
     372    373     26.13734      .0005       48362.16      .9470
     373    374       1.3592      .0000       48363.51      .9470
     374    375            0      .0000       48363.51      .9470
     375    376            0      .0000       48363.51      .9470
     376    377     5.768238      .0001       48369.28      .9471
     377    378     1.766942      .0000       48371.05      .9471
     378    379     24.21069      .0005       48395.26      .9476
     379    380            0      .0000       48395.26      .9476
     380    381      17.1845      .0003       48412.44      .9479
     381    382       6.4574      .0001        48418.9      .9481
     382    383     3.501447      .0001        48422.4      .9481
     383    384     27.92044      .0005       48450.32      .9487
     384    385            0      .0000       48450.32      .9487
     385    386            0      .0000       48450.32      .9487
     386    387     21.78248      .0004        48472.1      .9491
     387    388            0      .0000        48472.1      .9491
     388    389     39.37605      .0008       48511.48      .9499
     389    390     17.89616      .0004       48529.37      .9502
     390    391     16.33653      .0003       48545.71      .9505
     391    392            0      .0000       48545.71      .9505
     392    393     6.402935      .0001       48552.11      .9507
     393    394     9.399041      .0002       48561.51      .9509
     394    395     6.874219      .0001       48568.39      .9510
     395    396            0      .0000       48568.39      .9510
     396    397     48.52675      .0010       48616.91      .9519
     397    398     77.17815      .0015       48694.09      .9535
     398    399     26.39086      .0005       48720.48      .9540
     399    400     1.710139      .0000       48722.19      .9540
     400    401     4.324286      .0001       48726.52      .9541
     401    402            0      .0000       48726.52      .9541
     402    403     52.85791      .0010       48779.38      .9551
     403    404     17.17137      .0003       48796.55      .9555
     404    405      40.3652      .0008       48836.91      .9563
     405    406            0      .0000       48836.91      .9563
     406    407     9.410008      .0002       48846.32      .9564
     407    408     34.17824      .0007        48880.5      .9571
     408    409            0      .0000        48880.5      .9571
     409    410     18.19313      .0004       48898.69      .9575
     410    411     69.02305      .0014       48967.72      .9588
     411    412            0      .0000       48967.72      .9588
     412    413     9.207958      .0002       48976.92      .9590
     413    414            0      .0000       48976.92      .9590
     414    415     208.5915      .0041       49185.51      .9631
     415    416            0      .0000       49185.51      .9631
     416    417            0      .0000       49185.51      .9631
     417    418            0      .0000       49185.51      .9631
     418    419            0      .0000       49185.51      .9631
     419    420            0      .0000       49185.51      .9631
     420    421            0      .0000       49185.51      .9631
     421    422            0      .0000       49185.51      .9631
     422    423            0      .0000       49185.51      .9631
     423    424            0      .0000       49185.51      .9631
     424    425            0      .0000       49185.51      .9631
     425    426            0      .0000       49185.51      .9631
     426    427            0      .0000       49185.51      .9631
     427    428            0      .0000       49185.51      .9631
     428    429            0      .0000       49185.51      .9631
     429    430            0      .0000       49185.51      .9631
     430    431            0      .0000       49185.51      .9631
     431    432            0      .0000       49185.51      .9631
     432    433            0      .0000       49185.51      .9631
     433    434            0      .0000       49185.51      .9631
     434    435            0      .0000       49185.51      .9631
     435    436            0      .0000       49185.51      .9631
     436    437            0      .0000       49185.51      .9631
     437    438            0      .0000       49185.51      .9631
     438    439            0      .0000       49185.51      .9631
     439    440            0      .0000       49185.51      .9631
     440    441            0      .0000       49185.51      .9631
     441    442            0      .0000       49185.51      .9631
     442    443            0      .0000       49185.51      .9631
     443    444            0      .0000       49185.51      .9631
     444    445            0      .0000       49185.51      .9631
     445    446            0      .0000       49185.51      .9631
     446    447            0      .0000       49185.51      .9631
     447    448            0      .0000       49185.51      .9631
     448    449            0      .0000       49185.51      .9631
     449    450            0      .0000       49185.51      .9631
     450    451            0      .0000       49185.51      .9631
     451    452            0      .0000       49185.51      .9631
     452    453            0      .0000       49185.51      .9631
     453    454            0      .0000       49185.51      .9631
     454    455            0      .0000       49185.51      .9631
     455    456            0      .0000       49185.51      .9631
     456    457            0      .0000       49185.51      .9631
     457    458            0      .0000       49185.51      .9631
     458    459            0      .0000       49185.51      .9631
     459    460            0      .0000       49185.51      .9631
     460    461            0      .0000       49185.51      .9631
     461    462            0      .0000       49185.51      .9631
     462    463            0      .0000       49185.51      .9631
     463    464            0      .0000       49185.51      .9631
     464    465            0      .0000       49185.51      .9631
     465    466            0      .0000       49185.51      .9631
     466    467            0      .0000       49185.51      .9631
     467    468            0      .0000       49185.51      .9631
     468    469            0      .0000       49185.51      .9631
     469    470            0      .0000       49185.51      .9631
     470    471            0      .0000       49185.51      .9631
     471    472            0      .0000       49185.51      .9631
     472    473            0      .0000       49185.51      .9631
     473    474            0      .0000       49185.51      .9631
     474    475            0      .0000       49185.51      .9631
     475    476            0      .0000       49185.51      .9631
     476    477            0      .0000       49185.51      .9631
     477    478            0      .0000       49185.51      .9631
     478    479            0      .0000       49185.51      .9631
     479    480            0      .0000       49185.51      .9631
     480    481            0      .0000       49185.51      .9631
     481    482            0      .0000       49185.51      .9631
     482    483            0      .0000       49185.51      .9631
     483    484            0      .0000       49185.51      .9631
     484    485            0      .0000       49185.51      .9631
     485    486            0      .0000       49185.51      .9631
     486    487            0      .0000       49185.51      .9631
     487    488            0      .0000       49185.51      .9631
     488    489            0      .0000       49185.51      .9631
     489    490            0      .0000       49185.51      .9631
     490    491            0      .0000       49185.51      .9631
     491    492            0      .0000       49185.51      .9631
     492    493            0      .0000       49185.51      .9631
     493    494            0      .0000       49185.51      .9631
     494    495            0      .0000       49185.51      .9631
     495    496            0      .0000       49185.51      .9631
     496    497            0      .0000       49185.51      .9631
     497    498            0      .0000       49185.51      .9631
     498    499            0      .0000       49185.51      .9631
     499    500            0      .0000       49185.51      .9631


 MATRIX CALCULATIONS
 *******************


 Expression:

  mf01   = 0

 Result matrix:         mf01  : temp1                                         Temporary Matrix 1                                                               (18-11-21 10:44:51)

 Constraint matrix:     none

 Submatrix:             all origins             all destinations

 Number of expression evaluations:          35721
 Minimum expression value:                .000000   (at      1      1)
 Maximum expression value:                .000000   (at      1      1)
 Average expression value:                .000000
 Sum of expression values:                .000000


 MATRIX CALCULATIONS
 *******************


 Expression:

  mf01   = mf915 + mf910'

 Result matrix:         mf01  : temp1                                         Temporary Matrix 1                                                               (18-11-21 10:44:51)

 Data matrices:         mf915 : MND4220                                       Mobile OP HBEDOB Car                                                             (18-11-21 10:44:34)
                        mf910 : MND4219                                       Mobile OP HBEDIB Car                                                             (18-11-21 10:44:32)

 Constraint matrix:     none

 Submatrix:             all origins             all destinations

 Number of expression evaluations:          35721
 Minimum expression value:                .000000   (at      1     22)
 Maximum expression value:           11149.719726   (at    142    142)
 Average expression value:               2.750791
 Sum of expression values:           98261.007812
