

 Matrix histogram
 ----------------


 data   matrix        mf795 : DSTSK2                                   Distance Skim Car                                                               

 weight matrix        mf01  : temp1                                    Temporary Matrix 1                                                              

  all  origins   all  destinations

 constraint matrix    mf10  : temp10                                   Temporary Matrix 10                                                             
          interval  lower:         1
                    upper:         1  include 

 out of range       above:        0
                    below:        0

 statistics         mean : 8.734915
                    std  : 5.032704

    interval        ------density-------      -----cumulative-----
 (from  ,    to)    absolute  normalized      absolute  normalized

       0      1            0      .0000              0      .0000
       1      2     3.073604      .0001       3.073604      .0001
       2      3     134.8599      .0036       137.9335      .0037
       3      4     245.8584      .0065        383.792      .0102
       4      5     2808.999      .0748       3192.791      .0850
       5      6      9001.99      .2398       12194.78      .3248
       6      7     10405.38      .2771       22600.16      .6019
       7      8     2720.684      .0725       25320.84      .6744
       8      9     1084.735      .0289       26405.58      .7033
       9     10     1371.953      .0365       27777.53      .7398
      10     11     1264.076      .0337       29041.61      .7735
      11     12     842.4982      .0224       29884.11      .7959
      12     13     839.4788      .0224       30723.58      .8183
      13     14     623.3245      .0166       31346.91      .8349
      14     15     548.0715      .0146       31894.98      .8495
      15     16     2287.643      .0609       34182.62      .9104
      16     17     435.7091      .0116       34618.33      .9220
      17     18     581.4219      .0155       35199.76      .9375
      18     19     836.8619      .0223       36036.62      .9598
      19     20     202.9312      .0054       36239.55      .9652
      20     21     62.76181      .0017       36302.31      .9669
      21     22     20.34979      .0005       36322.66      .9674
      22     23     595.3584      .0159       36918.02      .9833
      23     24     56.05666      .0015       36974.08      .9848
      24     25     12.18951      .0003       36986.27      .9851
      25     26     72.13693      .0019       37058.41      .9870
      26     27     3.575269      .0001       37061.98      .9871
      27     28     1.177346      .0000       37063.16      .9872
      28     29     3.588978      .0001       37066.75      .9873
      29     30     188.4593      .0050       37255.21      .9923
      30     31     181.7204      .0048       37436.93      .9971
      31     32     82.08245      .0022       37519.01      .9993
      32     33     2.774149      .0001       37521.78      .9994
      33     34     4.815036      .0001        37526.6      .9995
      34     35     4.942497      .0001       37531.54      .9996
      35     36     3.346529      .0001       37534.89      .9997
      36     37      .292891      .0000       37535.18      .9997
      37     38      .331275      .0000       37535.51      .9997
      38     39      .020306      .0000       37535.53      .9997
      39     40     1.742694      .0000       37537.28      .9998
      40     41       .06645      .0000       37537.34      .9998
      41     42      .111736      .0000       37537.46      .9998
      42     43     2.473364      .0001       37539.93      .9999
      43     44     1.026301      .0000       37540.96      .9999
      44     45     2.796581      .0001       37543.75     1.0000
      45     46     1.111603      .0000       37544.87     1.0000
      46     47      .018089      .0000       37544.89     1.0000
      47     48      .018457      .0000       37544.91     1.0000
      48     49      .000039      .0000       37544.91     1.0000
      49     50      .022834      .0000       37544.93     1.0000
      50     51      .022613      .0000       37544.95     1.0000
      51     52      .317202      .0000       37545.27     1.0000
      52     53      .000012      .0000       37545.27     1.0000
      53     54      .001392      .0000       37545.27     1.0000
      54     55      .001516      .0000       37545.27     1.0000
      55     56      .000261      .0000       37545.27     1.0000
      56     57      .000206      .0000       37545.27     1.0000
      57     58      .004424      .0000       37545.27     1.0000
      58     59      .019447      .0000       37545.29     1.0000
      59     60      .073825      .0000       37545.37     1.0000
      60     61      .000006      .0000       37545.37     1.0000
      61     62      .000047      .0000       37545.37     1.0000
      62     63      .009162      .0000       37545.37     1.0000
      63     64      .001815      .0000       37545.37     1.0000
      64     65      .000002      .0000       37545.37     1.0000
      65     66      .000002      .0000       37545.37     1.0000
      66     67       .00001      .0000       37545.37     1.0000
      67     68      .001229      .0000       37545.37     1.0000
      68     69      .000146      .0000       37545.37     1.0000
      69     70      .000002      .0000       37545.37     1.0000
      70     71       .00005      .0000       37545.37     1.0000
      71     72      .000003      .0000       37545.37     1.0000
      72     73            0      .0000       37545.37     1.0000
      73     74            0      .0000       37545.37     1.0000
      74     75            0      .0000       37545.37     1.0000
      75     76      .000002      .0000       37545.37     1.0000
      76     77      .000003      .0000       37545.37     1.0000
      77     78            0      .0000       37545.37     1.0000
      78     79            0      .0000       37545.37     1.0000
      79     80            0      .0000       37545.37     1.0000
      80     81            0      .0000       37545.37     1.0000
      81     82            0      .0000       37545.37     1.0000
      82     83      .000046      .0000       37545.37     1.0000
      83     84      .000007      .0000       37545.37     1.0000
      84     85            0      .0000       37545.37     1.0000
      85     86            0      .0000       37545.37     1.0000
      86     87            0      .0000       37545.37     1.0000
      87     88            0      .0000       37545.37     1.0000
      88     89            0      .0000       37545.37     1.0000
      89     90            0      .0000       37545.37     1.0000
      90     91            0      .0000       37545.37     1.0000
      91     92            0      .0000       37545.37     1.0000
      92     93            0      .0000       37545.37     1.0000
      93     94            0      .0000       37545.37     1.0000
      94     95            0      .0000       37545.37     1.0000
      95     96            0      .0000       37545.37     1.0000
      96     97            0      .0000       37545.37     1.0000
      97     98            0      .0000       37545.37     1.0000
      98     99            0      .0000       37545.37     1.0000
      99    100            0      .0000       37545.37     1.0000
     100    101            0      .0000       37545.37     1.0000
     101    102            0      .0000       37545.37     1.0000
     102    103            0      .0000       37545.37     1.0000
     103    104            0      .0000       37545.37     1.0000
     104    105            0      .0000       37545.37     1.0000
     105    106            0      .0000       37545.37     1.0000
     106    107            0      .0000       37545.37     1.0000
     107    108            0      .0000       37545.37     1.0000
     108    109            0      .0000       37545.37     1.0000
     109    110            0      .0000       37545.37     1.0000
     110    111            0      .0000       37545.37     1.0000
     111    112            0      .0000       37545.37     1.0000
     112    113            0      .0000       37545.37     1.0000
     113    114            0      .0000       37545.37     1.0000
     114    115            0      .0000       37545.37     1.0000
     115    116            0      .0000       37545.37     1.0000
     116    117            0      .0000       37545.37     1.0000
     117    118            0      .0000       37545.37     1.0000
     118    119            0      .0000       37545.37     1.0000
     119    120            0      .0000       37545.37     1.0000
     120    121            0      .0000       37545.37     1.0000
     121    122            0      .0000       37545.37     1.0000
     122    123            0      .0000       37545.37     1.0000
     123    124            0      .0000       37545.37     1.0000
     124    125            0      .0000       37545.37     1.0000
     125    126            0      .0000       37545.37     1.0000
     126    127            0      .0000       37545.37     1.0000
     127    128            0      .0000       37545.37     1.0000
     128    129            0      .0000       37545.37     1.0000
     129    130            0      .0000       37545.37     1.0000
     130    131            0      .0000       37545.37     1.0000
     131    132            0      .0000       37545.37     1.0000
     132    133            0      .0000       37545.37     1.0000
     133    134            0      .0000       37545.37     1.0000
     134    135            0      .0000       37545.37     1.0000
     135    136            0      .0000       37545.37     1.0000
     136    137            0      .0000       37545.37     1.0000
     137    138            0      .0000       37545.37     1.0000
     138    139            0      .0000       37545.37     1.0000
     139    140            0      .0000       37545.37     1.0000
     140    141            0      .0000       37545.37     1.0000
     141    142            0      .0000       37545.37     1.0000
     142    143            0      .0000       37545.37     1.0000
     143    144            0      .0000       37545.37     1.0000
     144    145            0      .0000       37545.37     1.0000
     145    146            0      .0000       37545.37     1.0000
     146    147            0      .0000       37545.37     1.0000
     147    148            0      .0000       37545.37     1.0000
     148    149            0      .0000       37545.37     1.0000
     149    150            0      .0000       37545.37     1.0000
     150    151            0      .0000       37545.37     1.0000
     151    152            0      .0000       37545.37     1.0000
     152    153            0      .0000       37545.37     1.0000
     153    154            0      .0000       37545.37     1.0000
     154    155            0      .0000       37545.37     1.0000
     155    156            0      .0000       37545.37     1.0000
     156    157            0      .0000       37545.37     1.0000
     157    158            0      .0000       37545.37     1.0000
     158    159            0      .0000       37545.37     1.0000
     159    160            0      .0000       37545.37     1.0000
     160    161            0      .0000       37545.37     1.0000
     161    162            0      .0000       37545.37     1.0000
     162    163            0      .0000       37545.37     1.0000
     163    164            0      .0000       37545.37     1.0000
     164    165            0      .0000       37545.37     1.0000
     165    166            0      .0000       37545.37     1.0000
     166    167            0      .0000       37545.37     1.0000
     167    168            0      .0000       37545.37     1.0000
     168    169            0      .0000       37545.37     1.0000
     169    170            0      .0000       37545.37     1.0000
     170    171            0      .0000       37545.37     1.0000
     171    172            0      .0000       37545.37     1.0000
     172    173            0      .0000       37545.37     1.0000
     173    174            0      .0000       37545.37     1.0000
     174    175            0      .0000       37545.37     1.0000
     175    176            0      .0000       37545.37     1.0000
     176    177            0      .0000       37545.37     1.0000
     177    178            0      .0000       37545.37     1.0000
     178    179            0      .0000       37545.37     1.0000
     179    180            0      .0000       37545.37     1.0000
     180    181            0      .0000       37545.37     1.0000
     181    182            0      .0000       37545.37     1.0000
     182    183            0      .0000       37545.37     1.0000
     183    184            0      .0000       37545.37     1.0000
     184    185            0      .0000       37545.37     1.0000
     185    186            0      .0000       37545.37     1.0000
     186    187            0      .0000       37545.37     1.0000
     187    188            0      .0000       37545.37     1.0000
     188    189            0      .0000       37545.37     1.0000
     189    190            0      .0000       37545.37     1.0000
     190    191            0      .0000       37545.37     1.0000
     191    192            0      .0000       37545.37     1.0000
     192    193            0      .0000       37545.37     1.0000
     193    194            0      .0000       37545.37     1.0000
     194    195            0      .0000       37545.37     1.0000
     195    196            0      .0000       37545.37     1.0000
     196    197            0      .0000       37545.37     1.0000
     197    198            0      .0000       37545.37     1.0000
     198    199            0      .0000       37545.37     1.0000
     199    200            0      .0000       37545.37     1.0000
     200    201            0      .0000       37545.37     1.0000
     201    202            0      .0000       37545.37     1.0000
     202    203            0      .0000       37545.37     1.0000
     203    204            0      .0000       37545.37     1.0000
     204    205            0      .0000       37545.37     1.0000
     205    206            0      .0000       37545.37     1.0000
     206    207            0      .0000       37545.37     1.0000
     207    208            0      .0000       37545.37     1.0000
     208    209            0      .0000       37545.37     1.0000
     209    210            0      .0000       37545.37     1.0000
     210    211            0      .0000       37545.37     1.0000
     211    212            0      .0000       37545.37     1.0000
     212    213            0      .0000       37545.37     1.0000
     213    214            0      .0000       37545.37     1.0000
     214    215            0      .0000       37545.37     1.0000
     215    216            0      .0000       37545.37     1.0000
     216    217            0      .0000       37545.37     1.0000
     217    218            0      .0000       37545.37     1.0000
     218    219            0      .0000       37545.37     1.0000
     219    220            0      .0000       37545.37     1.0000
     220    221            0      .0000       37545.37     1.0000
     221    222            0      .0000       37545.37     1.0000
     222    223            0      .0000       37545.37     1.0000
     223    224            0      .0000       37545.37     1.0000
     224    225            0      .0000       37545.37     1.0000
     225    226            0      .0000       37545.37     1.0000
     226    227            0      .0000       37545.37     1.0000
     227    228            0      .0000       37545.37     1.0000
     228    229            0      .0000       37545.37     1.0000
     229    230            0      .0000       37545.37     1.0000
     230    231            0      .0000       37545.37     1.0000
     231    232            0      .0000       37545.37     1.0000
     232    233            0      .0000       37545.37     1.0000
     233    234            0      .0000       37545.37     1.0000
     234    235            0      .0000       37545.37     1.0000
     235    236            0      .0000       37545.37     1.0000
     236    237            0      .0000       37545.37     1.0000
     237    238            0      .0000       37545.37     1.0000
     238    239            0      .0000       37545.37     1.0000
     239    240            0      .0000       37545.37     1.0000
     240    241            0      .0000       37545.37     1.0000
     241    242            0      .0000       37545.37     1.0000
     242    243            0      .0000       37545.37     1.0000
     243    244            0      .0000       37545.37     1.0000
     244    245            0      .0000       37545.37     1.0000
     245    246            0      .0000       37545.37     1.0000
     246    247            0      .0000       37545.37     1.0000
     247    248            0      .0000       37545.37     1.0000
     248    249            0      .0000       37545.37     1.0000
     249    250            0      .0000       37545.37     1.0000
     250    251            0      .0000       37545.37     1.0000
     251    252            0      .0000       37545.37     1.0000
     252    253            0      .0000       37545.37     1.0000
     253    254            0      .0000       37545.37     1.0000
     254    255            0      .0000       37545.37     1.0000
     255    256            0      .0000       37545.37     1.0000
     256    257            0      .0000       37545.37     1.0000
     257    258            0      .0000       37545.37     1.0000
     258    259            0      .0000       37545.37     1.0000
     259    260            0      .0000       37545.37     1.0000
     260    261            0      .0000       37545.37     1.0000
     261    262            0      .0000       37545.37     1.0000
     262    263            0      .0000       37545.37     1.0000
     263    264            0      .0000       37545.37     1.0000
     264    265            0      .0000       37545.37     1.0000
     265    266            0      .0000       37545.37     1.0000
     266    267            0      .0000       37545.37     1.0000
     267    268            0      .0000       37545.37     1.0000
     268    269            0      .0000       37545.37     1.0000
     269    270            0      .0000       37545.37     1.0000
     270    271            0      .0000       37545.37     1.0000
     271    272            0      .0000       37545.37     1.0000
     272    273            0      .0000       37545.37     1.0000
     273    274            0      .0000       37545.37     1.0000
     274    275            0      .0000       37545.37     1.0000
     275    276            0      .0000       37545.37     1.0000
     276    277            0      .0000       37545.37     1.0000
     277    278            0      .0000       37545.37     1.0000
     278    279            0      .0000       37545.37     1.0000
     279    280            0      .0000       37545.37     1.0000
     280    281            0      .0000       37545.37     1.0000
     281    282            0      .0000       37545.37     1.0000
     282    283            0      .0000       37545.37     1.0000
     283    284            0      .0000       37545.37     1.0000
     284    285            0      .0000       37545.37     1.0000
     285    286            0      .0000       37545.37     1.0000
     286    287            0      .0000       37545.37     1.0000
     287    288            0      .0000       37545.37     1.0000
     288    289            0      .0000       37545.37     1.0000
     289    290            0      .0000       37545.37     1.0000
     290    291            0      .0000       37545.37     1.0000
     291    292            0      .0000       37545.37     1.0000
     292    293            0      .0000       37545.37     1.0000
     293    294            0      .0000       37545.37     1.0000
     294    295            0      .0000       37545.37     1.0000
     295    296            0      .0000       37545.37     1.0000
     296    297            0      .0000       37545.37     1.0000
     297    298            0      .0000       37545.37     1.0000
     298    299            0      .0000       37545.37     1.0000
     299    300            0      .0000       37545.37     1.0000
     300    301            0      .0000       37545.37     1.0000
     301    302            0      .0000       37545.37     1.0000
     302    303            0      .0000       37545.37     1.0000
     303    304            0      .0000       37545.37     1.0000
     304    305            0      .0000       37545.37     1.0000
     305    306            0      .0000       37545.37     1.0000
     306    307            0      .0000       37545.37     1.0000
     307    308            0      .0000       37545.37     1.0000
     308    309            0      .0000       37545.37     1.0000
     309    310            0      .0000       37545.37     1.0000
     310    311            0      .0000       37545.37     1.0000
     311    312            0      .0000       37545.37     1.0000
     312    313            0      .0000       37545.37     1.0000
     313    314            0      .0000       37545.37     1.0000
     314    315            0      .0000       37545.37     1.0000
     315    316            0      .0000       37545.37     1.0000
     316    317            0      .0000       37545.37     1.0000
     317    318            0      .0000       37545.37     1.0000
     318    319            0      .0000       37545.37     1.0000
     319    320            0      .0000       37545.37     1.0000
     320    321            0      .0000       37545.37     1.0000
     321    322            0      .0000       37545.37     1.0000
     322    323            0      .0000       37545.37     1.0000
     323    324            0      .0000       37545.37     1.0000
     324    325            0      .0000       37545.37     1.0000
     325    326            0      .0000       37545.37     1.0000
     326    327            0      .0000       37545.37     1.0000
     327    328            0      .0000       37545.37     1.0000
     328    329            0      .0000       37545.37     1.0000
     329    330            0      .0000       37545.37     1.0000
     330    331            0      .0000       37545.37     1.0000
     331    332            0      .0000       37545.37     1.0000
     332    333            0      .0000       37545.37     1.0000
     333    334            0      .0000       37545.37     1.0000
     334    335            0      .0000       37545.37     1.0000
     335    336            0      .0000       37545.37     1.0000
     336    337            0      .0000       37545.37     1.0000
     337    338            0      .0000       37545.37     1.0000
     338    339            0      .0000       37545.37     1.0000
     339    340            0      .0000       37545.37     1.0000
     340    341            0      .0000       37545.37     1.0000
     341    342            0      .0000       37545.37     1.0000
     342    343            0      .0000       37545.37     1.0000
     343    344            0      .0000       37545.37     1.0000
     344    345            0      .0000       37545.37     1.0000
     345    346            0      .0000       37545.37     1.0000
     346    347            0      .0000       37545.37     1.0000
     347    348            0      .0000       37545.37     1.0000
     348    349            0      .0000       37545.37     1.0000
     349    350            0      .0000       37545.37     1.0000
     350    351            0      .0000       37545.37     1.0000
     351    352            0      .0000       37545.37     1.0000
     352    353            0      .0000       37545.37     1.0000
     353    354            0      .0000       37545.37     1.0000
     354    355            0      .0000       37545.37     1.0000
     355    356            0      .0000       37545.37     1.0000
     356    357            0      .0000       37545.37     1.0000
     357    358            0      .0000       37545.37     1.0000
     358    359            0      .0000       37545.37     1.0000
     359    360            0      .0000       37545.37     1.0000
     360    361            0      .0000       37545.37     1.0000
     361    362            0      .0000       37545.37     1.0000
     362    363            0      .0000       37545.37     1.0000
     363    364            0      .0000       37545.37     1.0000
     364    365            0      .0000       37545.37     1.0000
     365    366            0      .0000       37545.37     1.0000
     366    367            0      .0000       37545.37     1.0000
     367    368            0      .0000       37545.37     1.0000
     368    369            0      .0000       37545.37     1.0000
     369    370            0      .0000       37545.37     1.0000
     370    371            0      .0000       37545.37     1.0000
     371    372            0      .0000       37545.37     1.0000
     372    373            0      .0000       37545.37     1.0000
     373    374            0      .0000       37545.37     1.0000
     374    375            0      .0000       37545.37     1.0000
     375    376            0      .0000       37545.37     1.0000
     376    377            0      .0000       37545.37     1.0000
     377    378            0      .0000       37545.37     1.0000
     378    379            0      .0000       37545.37     1.0000
     379    380            0      .0000       37545.37     1.0000
     380    381            0      .0000       37545.37     1.0000
     381    382            0      .0000       37545.37     1.0000
     382    383            0      .0000       37545.37     1.0000
     383    384            0      .0000       37545.37     1.0000
     384    385            0      .0000       37545.37     1.0000
     385    386            0      .0000       37545.37     1.0000
     386    387            0      .0000       37545.37     1.0000
     387    388            0      .0000       37545.37     1.0000
     388    389            0      .0000       37545.37     1.0000
     389    390            0      .0000       37545.37     1.0000
     390    391            0      .0000       37545.37     1.0000
     391    392            0      .0000       37545.37     1.0000
     392    393            0      .0000       37545.37     1.0000
     393    394            0      .0000       37545.37     1.0000
     394    395            0      .0000       37545.37     1.0000
     395    396            0      .0000       37545.37     1.0000
     396    397            0      .0000       37545.37     1.0000
     397    398            0      .0000       37545.37     1.0000
     398    399            0      .0000       37545.37     1.0000
     399    400            0      .0000       37545.37     1.0000
     400    401            0      .0000       37545.37     1.0000
     401    402            0      .0000       37545.37     1.0000
     402    403            0      .0000       37545.37     1.0000
     403    404            0      .0000       37545.37     1.0000
     404    405            0      .0000       37545.37     1.0000
     405    406            0      .0000       37545.37     1.0000
     406    407            0      .0000       37545.37     1.0000
     407    408            0      .0000       37545.37     1.0000
     408    409            0      .0000       37545.37     1.0000
     409    410            0      .0000       37545.37     1.0000
     410    411            0      .0000       37545.37     1.0000
     411    412            0      .0000       37545.37     1.0000
     412    413            0      .0000       37545.37     1.0000
     413    414            0      .0000       37545.37     1.0000
     414    415            0      .0000       37545.37     1.0000
     415    416            0      .0000       37545.37     1.0000
     416    417            0      .0000       37545.37     1.0000
     417    418            0      .0000       37545.37     1.0000
     418    419            0      .0000       37545.37     1.0000
     419    420            0      .0000       37545.37     1.0000
     420    421            0      .0000       37545.37     1.0000
     421    422            0      .0000       37545.37     1.0000
     422    423            0      .0000       37545.37     1.0000
     423    424            0      .0000       37545.37     1.0000
     424    425            0      .0000       37545.37     1.0000
     425    426            0      .0000       37545.37     1.0000
     426    427            0      .0000       37545.37     1.0000
     427    428            0      .0000       37545.37     1.0000
     428    429            0      .0000       37545.37     1.0000
     429    430            0      .0000       37545.37     1.0000
     430    431            0      .0000       37545.37     1.0000
     431    432            0      .0000       37545.37     1.0000
     432    433            0      .0000       37545.37     1.0000
     433    434            0      .0000       37545.37     1.0000
     434    435            0      .0000       37545.37     1.0000
     435    436            0      .0000       37545.37     1.0000
     436    437            0      .0000       37545.37     1.0000
     437    438            0      .0000       37545.37     1.0000
     438    439            0      .0000       37545.37     1.0000
     439    440            0      .0000       37545.37     1.0000
     440    441            0      .0000       37545.37     1.0000
     441    442            0      .0000       37545.37     1.0000
     442    443            0      .0000       37545.37     1.0000
     443    444            0      .0000       37545.37     1.0000
     444    445            0      .0000       37545.37     1.0000
     445    446            0      .0000       37545.37     1.0000
     446    447            0      .0000       37545.37     1.0000
     447    448            0      .0000       37545.37     1.0000
     448    449            0      .0000       37545.37     1.0000
     449    450            0      .0000       37545.37     1.0000
     450    451            0      .0000       37545.37     1.0000
     451    452            0      .0000       37545.37     1.0000
     452    453            0      .0000       37545.37     1.0000
     453    454            0      .0000       37545.37     1.0000
     454    455            0      .0000       37545.37     1.0000
     455    456            0      .0000       37545.37     1.0000
     456    457            0      .0000       37545.37     1.0000
     457    458            0      .0000       37545.37     1.0000
     458    459            0      .0000       37545.37     1.0000
     459    460            0      .0000       37545.37     1.0000
     460    461            0      .0000       37545.37     1.0000
     461    462            0      .0000       37545.37     1.0000
     462    463            0      .0000       37545.37     1.0000
     463    464            0      .0000       37545.37     1.0000
     464    465            0      .0000       37545.37     1.0000
     465    466            0      .0000       37545.37     1.0000
     466    467            0      .0000       37545.37     1.0000
     467    468            0      .0000       37545.37     1.0000
     468    469            0      .0000       37545.37     1.0000
     469    470            0      .0000       37545.37     1.0000
     470    471            0      .0000       37545.37     1.0000
     471    472            0      .0000       37545.37     1.0000
     472    473            0      .0000       37545.37     1.0000
     473    474            0      .0000       37545.37     1.0000
     474    475            0      .0000       37545.37     1.0000
     475    476            0      .0000       37545.37     1.0000
     476    477            0      .0000       37545.37     1.0000
     477    478            0      .0000       37545.37     1.0000
     478    479            0      .0000       37545.37     1.0000
     479    480            0      .0000       37545.37     1.0000
     480    481            0      .0000       37545.37     1.0000
     481    482            0      .0000       37545.37     1.0000
     482    483            0      .0000       37545.37     1.0000
     483    484            0      .0000       37545.37     1.0000
     484    485            0      .0000       37545.37     1.0000
     485    486            0      .0000       37545.37     1.0000
     486    487            0      .0000       37545.37     1.0000
     487    488            0      .0000       37545.37     1.0000
     488    489            0      .0000       37545.37     1.0000
     489    490            0      .0000       37545.37     1.0000
     490    491            0      .0000       37545.37     1.0000
     491    492            0      .0000       37545.37     1.0000
     492    493            0      .0000       37545.37     1.0000
     493    494            0      .0000       37545.37     1.0000
     494    495            0      .0000       37545.37     1.0000
     495    496            0      .0000       37545.37     1.0000
     496    497            0      .0000       37545.37     1.0000
     497    498            0      .0000       37545.37     1.0000
     498    499            0      .0000       37545.37     1.0000
     499    500            0      .0000       37545.37     1.0000
