

 Matrix histogram
 ----------------


 data   matrix        mf172 : DSTSK                                    Distance Skim Car                                                               

 weight matrix        mf403 : MNDL3210                                 MND PM NHBO Car                                                                 

  all  origins   all  destinations

 constraint matrix    mf10  : temp10                                   Temporary Matrix 10                                                             
          interval  lower:         1
                    upper:         1  include 

 out of range       above:  .446919
                    below:        0

 statistics         mean : 12.13091
                    std  :  15.1996

    interval        ------density-------      -----cumulative-----
 (from  ,    to)    absolute  normalized      absolute  normalized

       0      1     3403.287      .0618       3403.287      .0618
       1      2     4612.895      .0838       8016.183      .1456
       2      3     6913.742      .1255       14929.92      .2711
       3      4     2294.947      .0417       17224.87      .3128
       4      5     3088.844      .0561       20313.72      .3688
       5      6     1963.739      .0357       22277.45      .4045
       6      7     3511.848      .0638        25789.3      .4683
       7      8      1609.96      .0292       27399.26      .4975
       8      9     1738.519      .0316       29137.78      .5291
       9     10     2744.542      .0498       31882.32      .5789
      10     11     1635.141      .0297       33517.46      .6086
      11     12     2135.323      .0388       35652.78      .6474
      12     13     1715.711      .0312        37368.5      .6785
      13     14     1475.083      .0268       38843.58      .7053
      14     15     1240.984      .0225       40084.56      .7278
      15     16     1822.615      .0331       41907.17      .7609
      16     17     917.2077      .0167       42824.38      .7776
      17     18     1350.155      .0245       44174.54      .8021
      18     19     1130.576      .0205       45305.11      .8226
      19     20      947.422      .0172       46252.53      .8398
      20     21     547.7133      .0099       46800.25      .8498
      21     22     819.9859      .0149       47620.23      .8647
      22     23     416.5281      .0076       48036.76      .8722
      23     24     394.2096      .0072       48430.97      .8794
      24     25     453.5756      .0082       48884.55      .8876
      25     26     328.6195      .0060       49213.17      .8936
      26     27     410.5328      .0075        49623.7      .9010
      27     28     275.3723      .0050       49899.07      .9060
      28     29      308.241      .0056       50207.31      .9116
      29     30     526.1984      .0096       50733.51      .9212
      30     31     396.3983      .0072       51129.91      .9284
      31     32     290.4736      .0053       51420.38      .9337
      32     33     300.3305      .0055       51720.71      .9391
      33     34     352.6757      .0064       52073.39      .9455
      34     35     148.6357      .0027       52222.03      .9482
      35     36     152.9691      .0028          52375      .9510
      36     37     94.34361      .0017       52469.34      .9527
      37     38     146.1254      .0027       52615.46      .9554
      38     39     103.1899      .0019       52718.66      .9572
      39     40     123.0487      .0022        52841.7      .9595
      40     41     88.26018      .0016       52929.96      .9611
      41     42      147.087      .0027       53077.05      .9637
      42     43      84.4375      .0015       53161.49      .9653
      43     44     91.83573      .0017       53253.32      .9669
      44     45     105.3768      .0019        53358.7      .9688
      45     46     52.68133      .0010       53411.38      .9698
      46     47     63.56212      .0012       53474.94      .9710
      47     48     68.12931      .0012       53543.07      .9722
      48     49      59.4824      .0011       53602.55      .9733
      49     50     91.70233      .0017       53694.25      .9749
      50     51     62.31802      .0011       53756.57      .9761
      51     52      47.9406      .0009       53804.51      .9769
      52     53     31.85953      .0006       53836.37      .9775
      53     54     52.85936      .0010       53889.23      .9785
      54     55     113.7011      .0021       54002.93      .9805
      55     56     66.25372      .0012       54069.18      .9817
      56     57     46.28305      .0008       54115.46      .9826
      57     58     34.06982      .0006       54149.53      .9832
      58     59     40.72681      .0007       54190.26      .9839
      59     60     33.58498      .0006       54223.85      .9846
      60     61     30.61192      .0006       54254.46      .9851
      61     62     27.45797      .0005       54281.92      .9856
      62     63     18.79706      .0003       54300.71      .9860
      63     64     27.73792      .0005       54328.45      .9865
      64     65     23.28871      .0004       54351.74      .9869
      65     66     28.68847      .0005       54380.43      .9874
      66     67     23.78929      .0004       54404.22      .9878
      67     68     33.83076      .0006       54438.05      .9884
      68     69      29.2429      .0005       54467.29      .9890
      69     70     24.28807      .0004       54491.58      .9894
      70     71      10.5995      .0002       54502.18      .9896
      71     72     22.36265      .0004       54524.54      .9900
      72     73     17.90758      .0003       54542.45      .9903
      73     74     23.15606      .0004        54565.6      .9908
      74     75     15.06477      .0003       54580.67      .9910
      75     76     10.85515      .0002       54591.53      .9912
      76     77     9.428582      .0002       54600.96      .9914
      77     78     8.378972      .0002       54609.33      .9916
      78     79     7.122428      .0001       54616.46      .9917
      79     80     7.944189      .0001        54624.4      .9918
      80     81     7.182349      .0001       54631.58      .9920
      81     82     23.71584      .0004        54655.3      .9924
      82     83     7.706129      .0001       54663.01      .9925
      83     84      11.4551      .0002       54674.46      .9927
      84     85     7.637201      .0001        54682.1      .9929
      85     86     10.34567      .0002       54692.44      .9931
      86     87     17.17925      .0003       54709.62      .9934
      87     88     5.942308      .0001       54715.57      .9935
      88     89     5.337443      .0001        54720.9      .9936
      89     90     10.28464      .0002       54731.19      .9938
      90     91     18.94346      .0003       54750.13      .9941
      91     92     20.14278      .0004       54770.28      .9945
      92     93     6.334825      .0001       54776.61      .9946
      93     94     6.758443      .0001       54783.37      .9947
      94     95     3.844898      .0001       54787.21      .9948
      95     96     11.19131      .0002       54798.41      .9950
      96     97     5.044178      .0001       54803.45      .9951
      97     98     12.68212      .0002       54816.13      .9953
      98     99     8.044676      .0001       54824.17      .9955
      99    100     6.352857      .0001       54830.53      .9956
     100    101     5.859667      .0001       54836.39      .9957
     101    102     3.885956      .0001       54840.27      .9958
     102    103     3.420003      .0001       54843.69      .9958
     103    104     5.386506      .0001       54849.08      .9959
     104    105     3.200193      .0001       54852.28      .9960
     105    106     6.093839      .0001       54858.37      .9961
     106    107     2.987454      .0001       54861.36      .9961
     107    108     2.890753      .0001       54864.25      .9962
     108    109      2.27143      .0000       54866.52      .9962
     109    110     2.569309      .0000       54869.09      .9963
     110    111      2.03613      .0000       54871.13      .9963
     111    112      2.22963      .0000       54873.36      .9964
     112    113     10.94628      .0002        54884.3      .9966
     113    114     7.344933      .0001       54891.65      .9967
     114    115     4.636808      .0001       54896.28      .9968
     115    116     10.77692      .0002       54907.06      .9970
     116    117     3.950567      .0001       54911.01      .9970
     117    118     5.193812      .0001       54916.21      .9971
     118    119     9.009461      .0002       54925.21      .9973
     119    120     3.146838      .0001       54928.36      .9974
     120    121     4.472732      .0001       54932.83      .9974
     121    122      2.88017      .0001       54935.71      .9975
     122    123     4.824642      .0001       54940.54      .9976
     123    124     2.891515      .0001       54943.43      .9976
     124    125     6.399104      .0001       54949.83      .9977
     125    126     4.396504      .0001       54954.23      .9978
     126    127     3.816722      .0001       54958.04      .9979
     127    128     3.806942      .0001       54961.85      .9980
     128    129     4.587954      .0001       54966.44      .9980
     129    130     3.208308      .0001       54969.65      .9981
     130    131     2.839811      .0001       54972.49      .9982
     131    132     3.787652      .0001       54976.28      .9982
     132    133     2.912459      .0001       54979.19      .9983
     133    134     5.761387      .0001       54984.95      .9984
     134    135     3.575826      .0001       54988.53      .9984
     135    136     2.006395      .0000       54990.53      .9985
     136    137     2.666229      .0000        54993.2      .9985
     137    138     1.929757      .0000       54995.13      .9986
     138    139      2.97819      .0001       54998.11      .9986
     139    140     2.607519      .0000       55000.72      .9987
     140    141     2.378352      .0000        55003.1      .9987
     141    142      2.04211      .0000       55005.14      .9987
     142    143     2.148616      .0000       55007.29      .9988
     143    144     2.160547      .0000       55009.45      .9988
     144    145     1.787864      .0000       55011.24      .9989
     145    146     4.636682      .0001       55015.87      .9989
     146    147     3.105753      .0001       55018.98      .9990
     147    148     3.552031      .0001       55022.53      .9991
     148    149     1.545299      .0000       55024.08      .9991
     149    150     2.817636      .0001       55026.89      .9991
     150    151     1.380307      .0000       55028.27      .9992
     151    152     2.293277      .0000       55030.57      .9992
     152    153     1.274078      .0000       55031.84      .9992
     153    154     1.258797      .0000        55033.1      .9993
     154    155     1.796388      .0000       55034.89      .9993
     155    156     1.050362      .0000       55035.94      .9993
     156    157      .672882      .0000       55036.62      .9993
     157    158     1.845721      .0000       55038.46      .9993
     158    159     2.077053      .0000       55040.54      .9994
     159    160     1.296593      .0000       55041.84      .9994
     160    161      .800138      .0000       55042.64      .9994
     161    162      .478444      .0000       55043.12      .9994
     162    163      .469848      .0000       55043.58      .9994
     163    164     1.037504      .0000       55044.62      .9995
     164    165      .701964      .0000       55045.33      .9995
     165    166       .39054      .0000       55045.72      .9995
     166    167      .624813      .0000       55046.34      .9995
     167    168       .52101      .0000       55046.86      .9995
     168    169      .372119      .0000       55047.23      .9995
     169    170      .594736      .0000       55047.83      .9995
     170    171      .324822      .0000       55048.15      .9995
     171    172      .441963      .0000       55048.59      .9995
     172    173      .889763      .0000       55049.48      .9995
     173    174      .589254      .0000       55050.07      .9996
     174    175       .35166      .0000       55050.42      .9996
     175    176      .475258      .0000        55050.9      .9996
     176    177      .188224      .0000       55051.09      .9996
     177    178      .395622      .0000       55051.48      .9996
     178    179      .392585      .0000       55051.88      .9996
     179    180        .4111      .0000       55052.29      .9996
     180    181      .500843      .0000       55052.79      .9996
     181    182      .672985      .0000       55053.46      .9996
     182    183      .295326      .0000       55053.76      .9996
     183    184      .664623      .0000       55054.42      .9996
     184    185      .460193      .0000       55054.88      .9996
     185    186      .389933      .0000       55055.27      .9997
     186    187      .240183      .0000       55055.51      .9997
     187    188      .654054      .0000       55056.16      .9997
     188    189      .234055      .0000        55056.4      .9997
     189    190      .650936      .0000       55057.05      .9997
     190    191      .382264      .0000       55057.43      .9997
     191    192        .4925      .0000       55057.92      .9997
     192    193       .13779      .0000       55058.06      .9997
     193    194      .160764      .0000       55058.22      .9997
     194    195      .597276      .0000       55058.82      .9997
     195    196      .130151      .0000       55058.95      .9997
     196    197      .198793      .0000       55059.15      .9997
     197    198      .216042      .0000       55059.36      .9997
     198    199      .143764      .0000       55059.51      .9997
     199    200      .223539      .0000       55059.73      .9997
     200    201      .379558      .0000       55060.11      .9997
     201    202      .136372      .0000       55060.25      .9997
     202    203      .345382      .0000       55060.59      .9998
     203    204      .268107      .0000       55060.86      .9998
     204    205      .211994      .0000       55061.07      .9998
     205    206      .320833      .0000       55061.39      .9998
     206    207      .170586      .0000       55061.56      .9998
     207    208       .29875      .0000       55061.86      .9998
     208    209      .333284      .0000       55062.19      .9998
     209    210      .262923      .0000       55062.45      .9998
     210    211       .22092      .0000       55062.67      .9998
     211    212      .152512      .0000       55062.83      .9998
     212    213      .363007      .0000       55063.19      .9998
     213    214      .326036      .0000       55063.51      .9998
     214    215      .146729      .0000       55063.66      .9998
     215    216      .153704      .0000       55063.82      .9998
     216    217      .180661      .0000          55064      .9998
     217    218      .424764      .0000       55064.42      .9998
     218    219      .227477      .0000       55064.65      .9998
     219    220      .080099      .0000       55064.73      .9998
     220    221      .063573      .0000       55064.79      .9998
     221    222      .030839      .0000       55064.82      .9998
     222    223      .104341      .0000       55064.93      .9998
     223    224      .171686      .0000        55065.1      .9998
     224    225      .376883      .0000       55065.48      .9998
     225    226      .165396      .0000       55065.64      .9998
     226    227      .045682      .0000       55065.69      .9998
     227    228      .693178      .0000       55066.38      .9999
     228    229      .070012      .0000       55066.45      .9999
     229    230      .095642      .0000       55066.54      .9999
     230    231      .001463      .0000       55066.54      .9999
     231    232      .662919      .0000       55067.21      .9999
     232    233      .433733      .0000       55067.64      .9999
     233    234      .144852      .0000       55067.78      .9999
     234    235      .020997      .0000        55067.8      .9999
     235    236      .000971      .0000        55067.8      .9999
     236    237      .010149      .0000       55067.82      .9999
     237    238      .038015      .0000       55067.85      .9999
     238    239      .083257      .0000       55067.94      .9999
     239    240       .04028      .0000       55067.98      .9999
     240    241      .082962      .0000       55068.06      .9999
     241    242      .026991      .0000       55068.08      .9999
     242    243      .237901      .0000       55068.32      .9999
     243    244      .036019      .0000       55068.36      .9999
     244    245      .016546      .0000       55068.37      .9999
     245    246        .0278      .0000        55068.4      .9999
     246    247      .045605      .0000       55068.45      .9999
     247    248      .031643      .0000       55068.48      .9999
     248    249      .025251      .0000        55068.5      .9999
     249    250      .023627      .0000       55068.53      .9999
     250    251      .078739      .0000        55068.6      .9999
     251    252      .026153      .0000       55068.63      .9999
     252    253      .127493      .0000       55068.76      .9999
     253    254      .100395      .0000       55068.86      .9999
     254    255      .034273      .0000        55068.9      .9999
     255    256      .046964      .0000       55068.94      .9999
     256    257      .008456      .0000       55068.95      .9999
     257    258      .023019      .0000       55068.98      .9999
     258    259      .079958      .0000       55069.05      .9999
     259    260      .120194      .0000       55069.17      .9999
     260    261      .095437      .0000       55069.27      .9999
     261    262      .083226      .0000       55069.35      .9999
     262    263       .11157      .0000       55069.46      .9999
     263    264      .117448      .0000       55069.58      .9999
     264    265      .055314      .0000       55069.64      .9999
     265    266      .033172      .0000       55069.67      .9999
     266    267      .041328      .0000       55069.71      .9999
     267    268      .037073      .0000       55069.75      .9999
     268    269       .04674      .0000       55069.79      .9999
     269    270      .100549      .0000       55069.89      .9999
     270    271      .220044      .0000       55070.11      .9999
     271    272      .037095      .0000       55070.15      .9999
     272    273      .035068      .0000       55070.18      .9999
     273    274       .26697      .0000       55070.45      .9999
     274    275      .047431      .0000        55070.5      .9999
     275    276      .024307      .0000       55070.52      .9999
     276    277      .115617      .0000       55070.64      .9999
     277    278       .06603      .0000        55070.7      .9999
     278    279      .071123      .0000       55070.77      .9999
     279    280      .075784      .0000       55070.85      .9999
     280    281      .056526      .0000        55070.9      .9999
     281    282      .031146      .0000       55070.93      .9999
     282    283      .026527      .0000       55070.96      .9999
     283    284      .019038      .0000       55070.98      .9999
     284    285      .031514      .0000       55071.01      .9999
     285    286      .045749      .0000       55071.06      .9999
     286    287      .139421      .0000        55071.2      .9999
     287    288      .018715      .0000       55071.22      .9999
     288    289      .098286      .0000       55071.32      .9999
     289    290      .065122      .0000       55071.38      .9999
     290    291      .058784      .0000       55071.44      .9999
     291    292      .001379      .0000       55071.44      .9999
     292    293      .084514      .0000       55071.53      .9999
     293    294      .012705      .0000       55071.54      .9999
     294    295      .092896      .0000       55071.63     1.0000
     295    296       .03158      .0000       55071.66     1.0000
     296    297      .011104      .0000       55071.67     1.0000
     297    298      .058879      .0000       55071.73     1.0000
     298    299      .021965      .0000       55071.76     1.0000
     299    300      .007169      .0000       55071.76     1.0000
     300    301      .008009      .0000       55071.77     1.0000
     301    302      .012825      .0000       55071.78     1.0000
     302    303      .011056      .0000        55071.8     1.0000
     303    304      .031066      .0000       55071.83     1.0000
     304    305        .0411      .0000       55071.87     1.0000
     305    306      .052675      .0000       55071.92     1.0000
     306    307      .047663      .0000       55071.97     1.0000
     307    308      .028417      .0000          55072     1.0000
     308    309      .018579      .0000       55072.01     1.0000
     309    310      .042925      .0000       55072.06     1.0000
     310    311      .020276      .0000       55072.08     1.0000
     311    312      .029155      .0000        55072.1     1.0000
     312    313      .027918      .0000       55072.13     1.0000
     313    314      .029473      .0000       55072.16     1.0000
     314    315      .040307      .0000        55072.2     1.0000
     315    316      .030403      .0000       55072.23     1.0000
     316    317      .038699      .0000       55072.27     1.0000
     317    318      .023731      .0000        55072.3     1.0000
     318    319      .015487      .0000       55072.31     1.0000
     319    320      .026501      .0000       55072.34     1.0000
     320    321      .068953      .0000       55072.41     1.0000
     321    322      .029827      .0000       55072.44     1.0000
     322    323       .02386      .0000       55072.46     1.0000
     323    324      .039611      .0000        55072.5     1.0000
     324    325      .097578      .0000        55072.6     1.0000
     325    326      .030336      .0000       55072.63     1.0000
     326    327      .010022      .0000       55072.64     1.0000
     327    328      .008203      .0000       55072.65     1.0000
     328    329      .019407      .0000       55072.67     1.0000
     329    330      .082385      .0000       55072.75     1.0000
     330    331      .038737      .0000       55072.79     1.0000
     331    332      .163641      .0000       55072.96     1.0000
     332    333      .110686      .0000       55073.07     1.0000
     333    334      .109644      .0000       55073.17     1.0000
     334    335      .008475      .0000       55073.18     1.0000
     335    336      .007617      .0000       55073.19     1.0000
     336    337            0      .0000       55073.19     1.0000
     337    338       .11807      .0000       55073.31     1.0000
     338    339      .006081      .0000       55073.32     1.0000
     339    340      .059152      .0000       55073.37     1.0000
     340    341      .021135      .0000       55073.39     1.0000
     341    342            0      .0000       55073.39     1.0000
     342    343            0      .0000       55073.39     1.0000
     343    344            0      .0000       55073.39     1.0000
     344    345            0      .0000       55073.39     1.0000
     345    346      .040166      .0000       55073.43     1.0000
     346    347            0      .0000       55073.43     1.0000
     347    348            0      .0000       55073.43     1.0000
     348    349            0      .0000       55073.43     1.0000
     349    350            0      .0000       55073.43     1.0000
     350    351            0      .0000       55073.43     1.0000
     351    352            0      .0000       55073.43     1.0000
     352    353            0      .0000       55073.43     1.0000
     353    354            0      .0000       55073.43     1.0000
     354    355            0      .0000       55073.43     1.0000
     355    356            0      .0000       55073.43     1.0000
     356    357            0      .0000       55073.43     1.0000
     357    358      .067895      .0000        55073.5     1.0000
     358    359      .003377      .0000        55073.5     1.0000
     359    360      .002405      .0000       55073.51     1.0000
     360    361      .002503      .0000       55073.51     1.0000
     361    362      .004605      .0000       55073.51     1.0000
     362    363            0      .0000       55073.51     1.0000
     363    364            0      .0000       55073.51     1.0000
     364    365            0      .0000       55073.51     1.0000
     365    366            0      .0000       55073.51     1.0000
     366    367       .00015      .0000       55073.51     1.0000
     367    368            0      .0000       55073.51     1.0000
     368    369      .001048      .0000       55073.51     1.0000
     369    370      .000558      .0000       55073.51     1.0000
     370    371      .000223      .0000       55073.51     1.0000
     371    372      .000642      .0000       55073.51     1.0000
     372    373      .017817      .0000       55073.53     1.0000
     373    374      .003603      .0000       55073.54     1.0000
     374    375      .004785      .0000       55073.54     1.0000
     375    376      .008564      .0000       55073.55     1.0000
     376    377      .001266      .0000       55073.55     1.0000
     377    378       .00589      .0000       55073.56     1.0000
     378    379      .012965      .0000       55073.57     1.0000
     379    380      .006116      .0000       55073.58     1.0000
     380    381      .002017      .0000       55073.58     1.0000
     381    382      .003111      .0000       55073.58     1.0000
     382    383      .000278      .0000       55073.58     1.0000
     383    384      .009002      .0000       55073.59     1.0000
     384    385      .000744      .0000       55073.59     1.0000
     385    386      .001697      .0000       55073.59     1.0000
     386    387      .005043      .0000        55073.6     1.0000
     387    388      .003536      .0000        55073.6     1.0000
     388    389      .003179      .0000        55073.6     1.0000
     389    390      .005271      .0000       55073.61     1.0000
     390    391      .031335      .0000       55073.64     1.0000
     391    392      .006828      .0000       55073.65     1.0000
     392    393      .002303      .0000       55073.65     1.0000
     393    394      .030122      .0000       55073.68     1.0000
     394    395      .002014      .0000       55073.69     1.0000
     395    396      .003788      .0000       55073.69     1.0000
     396    397      .000561      .0000       55073.69     1.0000
     397    398      .006142      .0000        55073.7     1.0000
     398    399      .005495      .0000        55073.7     1.0000
     399    400       .00295      .0000       55073.71     1.0000
     400    401      .004691      .0000       55073.71     1.0000
     401    402      .000834      .0000       55073.71     1.0000
     402    403      .001824      .0000       55073.71     1.0000
     403    404      .001245      .0000       55073.71     1.0000
     404    405      .004331      .0000       55073.71     1.0000
     405    406      .005992      .0000       55073.72     1.0000
     406    407      .007655      .0000       55073.73     1.0000
     407    408      .005637      .0000       55073.73     1.0000
     408    409      .024628      .0000       55073.76     1.0000
     409    410      .000485      .0000       55073.76     1.0000
     410    411      .010639      .0000       55073.77     1.0000
     411    412            0      .0000       55073.77     1.0000
     412    413      .000688      .0000       55073.77     1.0000
     413    414      .026762      .0000        55073.8     1.0000
     414    415      .048503      .0000       55073.84     1.0000
     415    416            0      .0000       55073.84     1.0000
     416    417            0      .0000       55073.84     1.0000
     417    418      .000374      .0000       55073.84     1.0000
     418    419            0      .0000       55073.84     1.0000
     419    420            0      .0000       55073.84     1.0000
     420    421            0      .0000       55073.84     1.0000
     421    422      .007224      .0000       55073.85     1.0000
     422    423            0      .0000       55073.85     1.0000
     423    424            0      .0000       55073.85     1.0000
     424    425            0      .0000       55073.85     1.0000
     425    426            0      .0000       55073.85     1.0000
     426    427            0      .0000       55073.85     1.0000
     427    428            0      .0000       55073.85     1.0000
     428    429            0      .0000       55073.85     1.0000
     429    430            0      .0000       55073.85     1.0000
     430    431            0      .0000       55073.85     1.0000
     431    432            0      .0000       55073.85     1.0000
     432    433            0      .0000       55073.85     1.0000
     433    434            0      .0000       55073.85     1.0000
     434    435            0      .0000       55073.85     1.0000
     435    436            0      .0000       55073.85     1.0000
     436    437            0      .0000       55073.85     1.0000
     437    438            0      .0000       55073.85     1.0000
     438    439            0      .0000       55073.85     1.0000
     439    440            0      .0000       55073.85     1.0000
     440    441            0      .0000       55073.85     1.0000
     441    442            0      .0000       55073.85     1.0000
     442    443            0      .0000       55073.85     1.0000
     443    444            0      .0000       55073.85     1.0000
     444    445            0      .0000       55073.85     1.0000
     445    446            0      .0000       55073.85     1.0000
     446    447            0      .0000       55073.85     1.0000
     447    448            0      .0000       55073.85     1.0000
     448    449            0      .0000       55073.85     1.0000
     449    450            0      .0000       55073.85     1.0000
     450    451            0      .0000       55073.85     1.0000
     451    452            0      .0000       55073.85     1.0000
     452    453            0      .0000       55073.85     1.0000
     453    454            0      .0000       55073.85     1.0000
     454    455            0      .0000       55073.85     1.0000
     455    456            0      .0000       55073.85     1.0000
     456    457            0      .0000       55073.85     1.0000
     457    458            0      .0000       55073.85     1.0000
     458    459            0      .0000       55073.85     1.0000
     459    460            0      .0000       55073.85     1.0000
     460    461            0      .0000       55073.85     1.0000
     461    462            0      .0000       55073.85     1.0000
     462    463            0      .0000       55073.85     1.0000
     463    464            0      .0000       55073.85     1.0000
     464    465            0      .0000       55073.85     1.0000
     465    466            0      .0000       55073.85     1.0000
     466    467            0      .0000       55073.85     1.0000
     467    468            0      .0000       55073.85     1.0000
     468    469            0      .0000       55073.85     1.0000
     469    470            0      .0000       55073.85     1.0000
     470    471            0      .0000       55073.85     1.0000
     471    472            0      .0000       55073.85     1.0000
     472    473            0      .0000       55073.85     1.0000
     473    474            0      .0000       55073.85     1.0000
     474    475            0      .0000       55073.85     1.0000
     475    476            0      .0000       55073.85     1.0000
     476    477            0      .0000       55073.85     1.0000
     477    478            0      .0000       55073.85     1.0000
     478    479            0      .0000       55073.85     1.0000
     479    480            0      .0000       55073.85     1.0000
     480    481            0      .0000       55073.85     1.0000
     481    482            0      .0000       55073.85     1.0000
     482    483            0      .0000       55073.85     1.0000
     483    484            0      .0000       55073.85     1.0000
     484    485            0      .0000       55073.85     1.0000
     485    486            0      .0000       55073.85     1.0000
     486    487            0      .0000       55073.85     1.0000
     487    488            0      .0000       55073.85     1.0000
     488    489            0      .0000       55073.85     1.0000
     489    490            0      .0000       55073.85     1.0000
     490    491            0      .0000       55073.85     1.0000
     491    492            0      .0000       55073.85     1.0000
     492    493            0      .0000       55073.85     1.0000
     493    494            0      .0000       55073.85     1.0000
     494    495            0      .0000       55073.85     1.0000
     495    496            0      .0000       55073.85     1.0000
     496    497            0      .0000       55073.85     1.0000
     497    498            0      .0000       55073.85     1.0000
     498    499            0      .0000       55073.85     1.0000
     499    500            0      .0000       55073.85     1.0000
