

 Matrix histogram
 ----------------


 data   matrix        mf795 : DSTSK2                                   Distance Skim Car                                                               

 weight matrix        mf01  : temp1                                    Temporary Matrix 1                                                              

  all  origins   all  destinations

 constraint matrix    mf10  : temp10                                   Temporary Matrix 10                                                             
          interval  lower:         1
                    upper:         1  include 

 out of range       above: 1.724141
                    below:        0

 statistics         mean : 17.25661
                    std  : 14.01693

    interval        ------density-------      -----cumulative-----
 (from  ,    to)    absolute  normalized      absolute  normalized

       0      1            0      .0000              0      .0000
       1      2      .716832      .0000        .716832      .0000
       2      3     28.33351      .0001       29.05034      .0001
       3      4     43.01121      .0002       72.06155      .0003
       4      5     7576.785      .0321       7648.846      .0324
       5      6     24460.57      .1036       32109.41      .1360
       6      7     20528.33      .0869       52637.74      .2229
       7      8     10371.93      .0439       63009.67      .2668
       8      9     10129.79      .0429       73139.47      .3097
       9     10     7605.575      .0322       80745.05      .3419
      10     11     9059.637      .0384       89804.69      .3803
      11     12     11526.58      .0488       101331.3      .4291
      12     13     8868.166      .0376       110199.4      .4667
      13     14     10551.08      .0447       120750.5      .5113
      14     15     6939.795      .0294       127690.3      .5407
      15     16     12028.79      .0509       139719.1      .5917
      16     17     11113.84      .0471       150832.9      .6387
      17     18      8704.75      .0369       159537.7      .6756
      18     19     9005.805      .0381       168543.5      .7137
      19     20     4063.343      .0172       172606.8      .7309
      20     21     2648.169      .0112         175255      .7422
      21     22     3148.152      .0133       178403.2      .7555
      22     23     5250.153      .0222       183653.3      .7777
      23     24     3141.206      .0133       186794.5      .7910
      24     25     4369.395      .0185       191163.9      .8095
      25     26     1649.207      .0070       192813.1      .8165
      26     27     3224.212      .0137       196037.3      .8302
      27     28     2776.288      .0118       198813.6      .8419
      28     29     1617.801      .0069       200431.4      .8488
      29     30         5116      .0217       205547.4      .8704
      30     31     2365.843      .0100       207913.3      .8805
      31     32      2939.87      .0124       210853.1      .8929
      32     33     931.4684      .0039       211784.6      .8968
      33     34     1364.646      .0058       213149.2      .9026
      34     35     1970.215      .0083       215119.5      .9110
      35     36     2014.829      .0085       217134.3      .9195
      36     37     768.9724      .0033       217903.3      .9228
      37     38     2019.132      .0086       219922.4      .9313
      38     39     898.0114      .0038       220820.4      .9351
      39     40     661.0531      .0028       221481.5      .9379
      40     41     441.2124      .0019       221922.7      .9398
      41     42     1180.095      .0050       223102.8      .9448
      42     43     1145.538      .0049       224248.3      .9496
      43     44     766.7556      .0032         225015      .9529
      44     45     1037.527      .0044       226052.6      .9573
      45     46     516.2033      .0022       226568.8      .9595
      46     47     354.4389      .0015       226923.2      .9610
      47     48      900.605      .0038       227823.8      .9648
      48     49      446.719      .0019       228270.5      .9667
      49     50     695.1868      .0029       228965.7      .9696
      50     51     289.2968      .0012         229255      .9708
      51     52     466.8672      .0020       229721.9      .9728
      52     53     348.8539      .0015       230070.8      .9743
      53     54     184.3188      .0008       230255.1      .9751
      54     55     838.3731      .0036       231093.5      .9786
      55     56     564.1232      .0024       231657.6      .9810
      56     57     324.8567      .0014       231982.4      .9824
      57     58     227.6908      .0010       232210.1      .9833
      58     59      283.621      .0012       232493.7      .9845
      59     60     248.6364      .0011       232742.4      .9856
      60     61     161.0498      .0007       232903.4      .9863
      61     62     174.2352      .0007       233077.7      .9870
      62     63     164.2284      .0007       233241.9      .9877
      63     64     106.6859      .0005       233348.6      .9882
      64     65     148.7463      .0006       233497.3      .9888
      65     66      177.187      .0008       233674.5      .9895
      66     67     86.96868      .0004       233761.5      .9899
      67     68     133.5568      .0006       233895.1      .9905
      68     69     202.2752      .0009       234097.3      .9913
      69     70     130.0684      .0006       234227.4      .9919
      70     71     56.14654      .0002       234283.5      .9921
      71     72     76.03618      .0003       234359.6      .9924
      72     73     92.13404      .0004       234451.7      .9928
      73     74     103.8734      .0004       234555.6      .9933
      74     75     98.70046      .0004       234654.3      .9937
      75     76     71.50591      .0003       234725.8      .9940
      76     77     74.39022      .0003       234800.2      .9943
      77     78     49.00121      .0002       234849.2      .9945
      78     79     40.75664      .0002       234889.9      .9947
      79     80     85.75151      .0004       234975.7      .9951
      80     81     46.79149      .0002       235022.5      .9953
      81     82     151.6445      .0006       235174.1      .9959
      82     83     26.48586      .0001       235200.6      .9960
      83     84     19.37743      .0001         235220      .9961
      84     85     11.37429      .0000       235231.4      .9961
      85     86     9.091037      .0000       235240.5      .9962
      86     87     36.12112      .0002       235276.6      .9963
      87     88     26.97531      .0001       235303.5      .9964
      88     89     14.28787      .0001       235317.8      .9965
      89     90     6.754522      .0000       235324.6      .9965
      90     91     83.90828      .0004       235408.5      .9969
      91     92     64.64476      .0003       235473.1      .9972
      92     93     34.52828      .0001       235507.7      .9973
      93     94      38.8332      .0002       235546.5      .9975
      94     95            0      .0000       235546.5      .9975
      95     96     31.33128      .0001       235577.8      .9976
      96     97     13.67836      .0001       235591.5      .9977
      97     98     56.57553      .0002       235648.1      .9979
      98     99     24.26228      .0001       235672.3      .9980
      99    100     4.480165      .0000       235676.8      .9980
     100    101     17.50262      .0001       235694.3      .9981
     101    102     13.30526      .0001       235707.6      .9982
     102    103     7.582474      .0000       235715.2      .9982
     103    104     5.735081      .0000       235720.9      .9982
     104    105      12.6961      .0001       235733.6      .9983
     105    106      15.8156      .0001       235749.5      .9983
     106    107     10.21241      .0000       235759.7      .9984
     107    108     1.931916      .0000       235761.6      .9984
     108    109     1.302985      .0000       235762.9      .9984
     109    110     1.238707      .0000       235764.1      .9984
     110    111     8.617318      .0000       235772.8      .9984
     111    112     8.123721      .0000       235780.9      .9985
     112    113     4.962045      .0000       235785.9      .9985
     113    114       15.837      .0001       235801.7      .9986
     114    115     8.905296      .0000       235810.6      .9986
     115    116     16.52223      .0001       235827.1      .9987
     116    117     3.489841      .0000       235830.6      .9987
     117    118     9.543231      .0000       235840.2      .9987
     118    119     34.58084      .0001       235874.7      .9989
     119    120     10.74551      .0000       235885.5      .9989
     120    121        8.787      .0000       235894.3      .9989
     121    122     14.33616      .0001       235908.6      .9990
     122    123      13.9102      .0001       235922.5      .9991
     123    124     13.90651      .0001       235936.4      .9991
     124    125      3.98329      .0000       235940.4      .9991
     125    126     7.119517      .0000       235947.5      .9992
     126    127     6.033759      .0000       235953.6      .9992
     127    128     2.727204      .0000       235956.3      .9992
     128    129     3.410893      .0000       235959.7      .9992
     129    130     12.21307      .0001       235971.9      .9993
     130    131     4.038865      .0000         235976      .9993
     131    132     3.023468      .0000         235979      .9993
     132    133     4.462805      .0000       235983.5      .9993
     133    134     10.24802      .0000       235993.7      .9994
     134    135     5.477676      .0000       235999.2      .9994
     135    136     6.795083      .0000         236006      .9994
     136    137     8.019895      .0000         236014      .9995
     137    138      1.34242      .0000       236015.3      .9995
     138    139      10.7249      .0000       236026.1      .9995
     139    140     1.598195      .0000       236027.7      .9995
     140    141     2.326326      .0000         236030      .9995
     141    142      .657154      .0000       236030.6      .9995
     142    143     10.47815      .0000       236041.1      .9996
     143    144     4.473131      .0000       236045.6      .9996
     144    145     4.000482      .0000       236049.6      .9996
     145    146     3.289847      .0000       236052.9      .9996
     146    147     2.718133      .0000       236055.6      .9996
     147    148     2.459231      .0000       236058.1      .9996
     148    149     1.236519      .0000       236059.3      .9996
     149    150     2.200016      .0000       236061.5      .9997
     150    151         .622      .0000       236062.1      .9997
     151    152      .753732      .0000       236062.9      .9997
     152    153            0      .0000       236062.9      .9997
     153    154            0      .0000       236062.9      .9997
     154    155     1.970814      .0000       236064.8      .9997
     155    156     1.698812      .0000       236066.5      .9997
     156    157     1.731926      .0000       236068.3      .9997
     157    158     1.886641      .0000       236070.2      .9997
     158    159            0      .0000       236070.2      .9997
     159    160      .710463      .0000       236070.9      .9997
     160    161       .66155      .0000       236071.5      .9997
     161    162            0      .0000       236071.5      .9997
     162    163     1.771832      .0000       236073.3      .9997
     163    164     1.599792      .0000       236074.9      .9997
     164    165      .812527      .0000       236075.7      .9997
     165    166     2.074479      .0000       236077.8      .9997
     166    167            0      .0000       236077.8      .9997
     167    168      .768825      .0000       236078.5      .9997
     168    169      2.02283      .0000       236080.6      .9997
     169    170            0      .0000       236080.6      .9997
     170    171     1.572018      .0000       236082.1      .9997
     171    172            0      .0000       236082.1      .9997
     172    173     1.069374      .0000       236083.2      .9997
     173    174     1.598773      .0000       236084.8      .9998
     174    175            0      .0000       236084.8      .9998
     175    176      .869273      .0000       236085.7      .9998
     176    177            0      .0000       236085.7      .9998
     177    178            0      .0000       236085.7      .9998
     178    179            0      .0000       236085.7      .9998
     179    180            0      .0000       236085.7      .9998
     180    181     1.067256      .0000       236086.7      .9998
     181    182            0      .0000       236086.7      .9998
     182    183            0      .0000       236086.7      .9998
     183    184      .784906      .0000       236087.5      .9998
     184    185     2.330849      .0000       236089.8      .9998
     185    186            0      .0000       236089.8      .9998
     186    187            0      .0000       236089.8      .9998
     187    188      .614529      .0000       236090.5      .9998
     188    189            0      .0000       236090.5      .9998
     189    190            0      .0000       236090.5      .9998
     190    191            0      .0000       236090.5      .9998
     191    192            0      .0000       236090.5      .9998
     192    193     3.990927      .0000       236094.4      .9998
     193    194            0      .0000       236094.4      .9998
     194    195            0      .0000       236094.4      .9998
     195    196     1.383494      .0000       236095.8      .9998
     196    197     1.375814      .0000       236097.2      .9998
     197    198            0      .0000       236097.2      .9998
     198    199            0      .0000       236097.2      .9998
     199    200      .678617      .0000       236097.9      .9998
     200    201      .680871      .0000       236098.6      .9998
     201    202       .64187      .0000       236099.2      .9998
     202    203            0      .0000       236099.2      .9998
     203    204       .75485      .0000         236100      .9998
     204    205      .767554      .0000       236100.7      .9998
     205    206     1.041284      .0000       236101.8      .9998
     206    207            0      .0000       236101.8      .9998
     207    208            0      .0000       236101.8      .9998
     208    209      .751482      .0000       236102.5      .9998
     209    210            0      .0000       236102.5      .9998
     210    211            0      .0000       236102.5      .9998
     211    212            0      .0000       236102.5      .9998
     212    213            0      .0000       236102.5      .9998
     213    214      .736393      .0000       236103.2      .9998
     214    215            0      .0000       236103.2      .9998
     215    216            0      .0000       236103.2      .9998
     216    217      .789399      .0000         236104      .9998
     217    218            0      .0000         236104      .9998
     218    219      1.52027      .0000       236105.6      .9998
     219    220            0      .0000       236105.6      .9998
     220    221            0      .0000       236105.6      .9998
     221    222            0      .0000       236105.6      .9998
     222    223            0      .0000       236105.6      .9998
     223    224            0      .0000       236105.6      .9998
     224    225            0      .0000       236105.6      .9998
     225    226            0      .0000       236105.6      .9998
     226    227      .781789      .0000       236106.3      .9998
     227    228            0      .0000       236106.3      .9998
     228    229            0      .0000       236106.3      .9998
     229    230     1.745675      .0000       236108.1      .9999
     230    231            0      .0000       236108.1      .9999
     231    232            0      .0000       236108.1      .9999
     232    233            0      .0000       236108.1      .9999
     233    234            0      .0000       236108.1      .9999
     234    235            0      .0000       236108.1      .9999
     235    236            0      .0000       236108.1      .9999
     236    237            0      .0000       236108.1      .9999
     237    238            0      .0000       236108.1      .9999
     238    239      .661299      .0000       236108.7      .9999
     239    240      .661298      .0000       236109.4      .9999
     240    241            0      .0000       236109.4      .9999
     241    242      .797653      .0000       236110.2      .9999
     242    243            0      .0000       236110.2      .9999
     243    244            0      .0000       236110.2      .9999
     244    245            0      .0000       236110.2      .9999
     245    246            0      .0000       236110.2      .9999
     246    247            0      .0000       236110.2      .9999
     247    248     1.381129      .0000       236111.6      .9999
     248    249            0      .0000       236111.6      .9999
     249    250            0      .0000       236111.6      .9999
     250    251            0      .0000       236111.6      .9999
     251    252            0      .0000       236111.6      .9999
     252    253            0      .0000       236111.6      .9999
     253    254      .812537      .0000       236112.4      .9999
     254    255            0      .0000       236112.4      .9999
     255    256            0      .0000       236112.4      .9999
     256    257            0      .0000       236112.4      .9999
     257    258            0      .0000       236112.4      .9999
     258    259            0      .0000       236112.4      .9999
     259    260            0      .0000       236112.4      .9999
     260    261            0      .0000       236112.4      .9999
     261    262      .680871      .0000       236113.1      .9999
     262    263     2.044007      .0000       236115.1      .9999
     263    264      .802667      .0000       236115.9      .9999
     264    265            0      .0000       236115.9      .9999
     265    266            0      .0000       236115.9      .9999
     266    267            0      .0000       236115.9      .9999
     267    268            0      .0000       236115.9      .9999
     268    269            0      .0000       236115.9      .9999
     269    270            0      .0000       236115.9      .9999
     270    271            0      .0000       236115.9      .9999
     271    272            0      .0000       236115.9      .9999
     272    273            0      .0000       236115.9      .9999
     273    274            0      .0000       236115.9      .9999
     274    275     1.625973      .0000       236117.5      .9999
     275    276            0      .0000       236117.5      .9999
     276    277     3.190076      .0000       236120.7      .9999
     277    278            0      .0000       236120.7      .9999
     278    279            0      .0000       236120.7      .9999
     279    280            0      .0000       236120.7      .9999
     280    281      .693072      .0000       236121.4      .9999
     281    282            0      .0000       236121.4      .9999
     282    283            0      .0000       236121.4      .9999
     283    284     1.582199      .0000         236123      .9999
     284    285      .803266      .0000       236123.8      .9999
     285    286     5.303747      .0000       236129.1      .9999
     286    287      .794361      .0000       236129.9      .9999
     287    288      .815784      .0000       236130.7      .9999
     288    289            0      .0000       236130.7      .9999
     289    290            0      .0000       236130.7      .9999
     290    291            0      .0000       236130.7      .9999
     291    292            0      .0000       236130.7      .9999
     292    293            0      .0000       236130.7      .9999
     293    294            0      .0000       236130.7      .9999
     294    295            0      .0000       236130.7      .9999
     295    296            0      .0000       236130.7      .9999
     296    297            0      .0000       236130.7      .9999
     297    298     2.835066      .0000       236133.5     1.0000
     298    299            0      .0000       236133.5     1.0000
     299    300            0      .0000       236133.5     1.0000
     300    301            0      .0000       236133.5     1.0000
     301    302            0      .0000       236133.5     1.0000
     302    303            0      .0000       236133.5     1.0000
     303    304            0      .0000       236133.5     1.0000
     304    305            0      .0000       236133.5     1.0000
     305    306      .702381      .0000       236134.2     1.0000
     306    307            0      .0000       236134.2     1.0000
     307    308            0      .0000       236134.2     1.0000
     308    309            0      .0000       236134.2     1.0000
     309    310            0      .0000       236134.2     1.0000
     310    311            0      .0000       236134.2     1.0000
     311    312            0      .0000       236134.2     1.0000
     312    313            0      .0000       236134.2     1.0000
     313    314            0      .0000       236134.2     1.0000
     314    315            0      .0000       236134.2     1.0000
     315    316     2.286384      .0000       236136.5     1.0000
     316    317            0      .0000       236136.5     1.0000
     317    318            0      .0000       236136.5     1.0000
     318    319            0      .0000       236136.5     1.0000
     319    320            0      .0000       236136.5     1.0000
     320    321            0      .0000       236136.5     1.0000
     321    322            0      .0000       236136.5     1.0000
     322    323            0      .0000       236136.5     1.0000
     323    324            0      .0000       236136.5     1.0000
     324    325      1.62211      .0000       236138.1     1.0000
     325    326            0      .0000       236138.1     1.0000
     326    327            0      .0000       236138.1     1.0000
     327    328            0      .0000       236138.1     1.0000
     328    329            0      .0000       236138.1     1.0000
     329    330            0      .0000       236138.1     1.0000
     330    331            0      .0000       236138.1     1.0000
     331    332            0      .0000       236138.1     1.0000
     332    333            0      .0000       236138.1     1.0000
     333    334      .818305      .0000         236139     1.0000
     334    335            0      .0000         236139     1.0000
     335    336            0      .0000         236139     1.0000
     336    337            0      .0000         236139     1.0000
     337    338            0      .0000         236139     1.0000
     338    339            0      .0000         236139     1.0000
     339    340            0      .0000         236139     1.0000
     340    341            0      .0000         236139     1.0000
     341    342            0      .0000         236139     1.0000
     342    343            0      .0000         236139     1.0000
     343    344     1.195592      .0000       236140.2     1.0000
     344    345            0      .0000       236140.2     1.0000
     345    346            0      .0000       236140.2     1.0000
     346    347            0      .0000       236140.2     1.0000
     347    348            0      .0000       236140.2     1.0000
     348    349            0      .0000       236140.2     1.0000
     349    350            0      .0000       236140.2     1.0000
     350    351            0      .0000       236140.2     1.0000
     351    352            0      .0000       236140.2     1.0000
     352    353            0      .0000       236140.2     1.0000
     353    354            0      .0000       236140.2     1.0000
     354    355            0      .0000       236140.2     1.0000
     355    356            0      .0000       236140.2     1.0000
     356    357            0      .0000       236140.2     1.0000
     357    358            0      .0000       236140.2     1.0000
     358    359            0      .0000       236140.2     1.0000
     359    360            0      .0000       236140.2     1.0000
     360    361            0      .0000       236140.2     1.0000
     361    362            0      .0000       236140.2     1.0000
     362    363            0      .0000       236140.2     1.0000
     363    364            0      .0000       236140.2     1.0000
     364    365            0      .0000       236140.2     1.0000
     365    366            0      .0000       236140.2     1.0000
     366    367            0      .0000       236140.2     1.0000
     367    368            0      .0000       236140.2     1.0000
     368    369            0      .0000       236140.2     1.0000
     369    370            0      .0000       236140.2     1.0000
     370    371            0      .0000       236140.2     1.0000
     371    372            0      .0000       236140.2     1.0000
     372    373            0      .0000       236140.2     1.0000
     373    374            0      .0000       236140.2     1.0000
     374    375            0      .0000       236140.2     1.0000
     375    376            0      .0000       236140.2     1.0000
     376    377            0      .0000       236140.2     1.0000
     377    378            0      .0000       236140.2     1.0000
     378    379            0      .0000       236140.2     1.0000
     379    380            0      .0000       236140.2     1.0000
     380    381            0      .0000       236140.2     1.0000
     381    382            0      .0000       236140.2     1.0000
     382    383            0      .0000       236140.2     1.0000
     383    384      .558759      .0000       236140.7     1.0000
     384    385            0      .0000       236140.7     1.0000
     385    386            0      .0000       236140.7     1.0000
     386    387            0      .0000       236140.7     1.0000
     387    388            0      .0000       236140.7     1.0000
     388    389            0      .0000       236140.7     1.0000
     389    390            0      .0000       236140.7     1.0000
     390    391            0      .0000       236140.7     1.0000
     391    392            0      .0000       236140.7     1.0000
     392    393            0      .0000       236140.7     1.0000
     393    394            0      .0000       236140.7     1.0000
     394    395            0      .0000       236140.7     1.0000
     395    396            0      .0000       236140.7     1.0000
     396    397            0      .0000       236140.7     1.0000
     397    398      .818718      .0000       236141.5     1.0000
     398    399            0      .0000       236141.5     1.0000
     399    400            0      .0000       236141.5     1.0000
     400    401            0      .0000       236141.5     1.0000
     401    402            0      .0000       236141.5     1.0000
     402    403            0      .0000       236141.5     1.0000
     403    404            0      .0000       236141.5     1.0000
     404    405            0      .0000       236141.5     1.0000
     405    406            0      .0000       236141.5     1.0000
     406    407            0      .0000       236141.5     1.0000
     407    408            0      .0000       236141.5     1.0000
     408    409            0      .0000       236141.5     1.0000
     409    410            0      .0000       236141.5     1.0000
     410    411            0      .0000       236141.5     1.0000
     411    412            0      .0000       236141.5     1.0000
     412    413            0      .0000       236141.5     1.0000
     413    414            0      .0000       236141.5     1.0000
     414    415            0      .0000       236141.5     1.0000
     415    416            0      .0000       236141.5     1.0000
     416    417            0      .0000       236141.5     1.0000
     417    418            0      .0000       236141.5     1.0000
     418    419            0      .0000       236141.5     1.0000
     419    420            0      .0000       236141.5     1.0000
     420    421            0      .0000       236141.5     1.0000
     421    422            0      .0000       236141.5     1.0000
     422    423            0      .0000       236141.5     1.0000
     423    424            0      .0000       236141.5     1.0000
     424    425            0      .0000       236141.5     1.0000
     425    426            0      .0000       236141.5     1.0000
     426    427            0      .0000       236141.5     1.0000
     427    428            0      .0000       236141.5     1.0000
     428    429            0      .0000       236141.5     1.0000
     429    430            0      .0000       236141.5     1.0000
     430    431            0      .0000       236141.5     1.0000
     431    432            0      .0000       236141.5     1.0000
     432    433            0      .0000       236141.5     1.0000
     433    434            0      .0000       236141.5     1.0000
     434    435            0      .0000       236141.5     1.0000
     435    436            0      .0000       236141.5     1.0000
     436    437            0      .0000       236141.5     1.0000
     437    438            0      .0000       236141.5     1.0000
     438    439            0      .0000       236141.5     1.0000
     439    440            0      .0000       236141.5     1.0000
     440    441            0      .0000       236141.5     1.0000
     441    442            0      .0000       236141.5     1.0000
     442    443            0      .0000       236141.5     1.0000
     443    444            0      .0000       236141.5     1.0000
     444    445            0      .0000       236141.5     1.0000
     445    446            0      .0000       236141.5     1.0000
     446    447            0      .0000       236141.5     1.0000
     447    448            0      .0000       236141.5     1.0000
     448    449            0      .0000       236141.5     1.0000
     449    450            0      .0000       236141.5     1.0000
     450    451            0      .0000       236141.5     1.0000
     451    452            0      .0000       236141.5     1.0000
     452    453            0      .0000       236141.5     1.0000
     453    454            0      .0000       236141.5     1.0000
     454    455            0      .0000       236141.5     1.0000
     455    456            0      .0000       236141.5     1.0000
     456    457            0      .0000       236141.5     1.0000
     457    458            0      .0000       236141.5     1.0000
     458    459            0      .0000       236141.5     1.0000
     459    460            0      .0000       236141.5     1.0000
     460    461            0      .0000       236141.5     1.0000
     461    462            0      .0000       236141.5     1.0000
     462    463            0      .0000       236141.5     1.0000
     463    464            0      .0000       236141.5     1.0000
     464    465            0      .0000       236141.5     1.0000
     465    466            0      .0000       236141.5     1.0000
     466    467            0      .0000       236141.5     1.0000
     467    468            0      .0000       236141.5     1.0000
     468    469            0      .0000       236141.5     1.0000
     469    470            0      .0000       236141.5     1.0000
     470    471            0      .0000       236141.5     1.0000
     471    472            0      .0000       236141.5     1.0000
     472    473            0      .0000       236141.5     1.0000
     473    474            0      .0000       236141.5     1.0000
     474    475            0      .0000       236141.5     1.0000
     475    476            0      .0000       236141.5     1.0000
     476    477            0      .0000       236141.5     1.0000
     477    478            0      .0000       236141.5     1.0000
     478    479            0      .0000       236141.5     1.0000
     479    480            0      .0000       236141.5     1.0000
     480    481            0      .0000       236141.5     1.0000
     481    482            0      .0000       236141.5     1.0000
     482    483            0      .0000       236141.5     1.0000
     483    484            0      .0000       236141.5     1.0000
     484    485            0      .0000       236141.5     1.0000
     485    486            0      .0000       236141.5     1.0000
     486    487            0      .0000       236141.5     1.0000
     487    488            0      .0000       236141.5     1.0000
     488    489            0      .0000       236141.5     1.0000
     489    490            0      .0000       236141.5     1.0000
     490    491            0      .0000       236141.5     1.0000
     491    492            0      .0000       236141.5     1.0000
     492    493            0      .0000       236141.5     1.0000
     493    494            0      .0000       236141.5     1.0000
     494    495            0      .0000       236141.5     1.0000
     495    496            0      .0000       236141.5     1.0000
     496    497            0      .0000       236141.5     1.0000
     497    498            0      .0000       236141.5     1.0000
     498    499            0      .0000       236141.5     1.0000
     499    500            0      .0000       236141.5     1.0000


 MATRIX CALCULATIONS
 *******************


 Expression:

  mf01   = 0

 Result matrix:         mf01  : temp1                                         Temporary Matrix 1                                                               (18-11-21 10:43:47)

 Constraint matrix:     none

 Submatrix:             all origins             all destinations

 Number of expression evaluations:          35721
 Minimum expression value:                .000000   (at      1      1)
 Maximum expression value:                .000000   (at      1      1)
 Average expression value:                .000000
 Sum of expression values:                .000000


 MATRIX CALCULATIONS
 *******************


 Expression:

  mf01   = mf217 + mf216'

 Result matrix:         mf01  : temp1                                         Temporary Matrix 1                                                               (18-11-21 10:43:47)

 Data matrices:         mf217 : MND124                                        Mobile AM HBOEOB Car                                                             (18-11-21 10:43:39)
                        mf216 : MND123                                        Mobile AM HBOEIB Car                                                             (18-11-21 10:43:38)

 Constraint matrix:     none

 Submatrix:             all origins             all destinations

 Number of expression evaluations:          35721
 Minimum expression value:                .000000   (at      1      1)
 Maximum expression value:           70264.140625   (at    102    102)
 Average expression value:              21.375888
 Sum of expression values:          763568.125000
