

 Matrix histogram
 ----------------


 data   matrix        mf795 : DSTSK2                                   Distance Skim Car                                                               

 weight matrix        mf01  : temp1                                    Temporary Matrix 1                                                              

  all  origins   all  destinations

 constraint matrix    mf10  : temp10                                   Temporary Matrix 10                                                             
          interval  lower:         1
                    upper:         1  include 

 out of range       above:  158.333
                    below:        0

 statistics         mean : 31.43848
                    std  : 49.26166

    interval        ------density-------      -----cumulative-----
 (from  ,    to)    absolute  normalized      absolute  normalized

       0      1     1575.739      .0323       1575.739      .0323
       1      2     1540.496      .0316       3116.236      .0640
       2      3     2304.785      .0473        5421.02      .1113
       3      4     1139.031      .0234       6560.052      .1347
       4      5     578.0823      .0119       7138.134      .1465
       5      6     2398.472      .0492       9536.607      .1958
       6      7     2924.994      .0600        12461.6      .2558
       7      8     1193.777      .0245       13655.38      .2803
       8      9     1685.622      .0346          15341      .3149
       9     10     1158.147      .0238       16499.15      .3387
      10     11     612.8967      .0126       17112.04      .3513
      11     12     1302.409      .0267       18414.45      .3780
      12     13     865.2279      .0178       19279.68      .3958
      13     14     1327.613      .0273       20607.29      .4230
      14     15     884.7986      .0182       21492.09      .4412
      15     16     1238.235      .0254       22730.33      .4666
      16     17     1558.947      .0320       24289.28      .4986
      17     18     1446.683      .0297       25735.96      .5283
      18     19       1235.4      .0254       26971.36      .5537
      19     20     630.1887      .0129       27601.55      .5666
      20     21     468.2164      .0096       28069.77      .5762
      21     22     556.7785      .0114       28626.55      .5877
      22     23     628.6815      .0129       29255.23      .6006
      23     24     676.5744      .0139        29931.8      .6145
      24     25     844.4165      .0173       30776.22      .6318
      25     26     287.1333      .0059       31063.35      .6377
      26     27     774.9644      .0159       31838.32      .6536
      27     28     557.2388      .0114       32395.55      .6650
      28     29     523.8186      .0108       32919.37      .6758
      29     30     1348.984      .0277       34268.35      .7035
      30     31     461.9989      .0095       34730.35      .7130
      31     32     626.0735      .0129       35356.43      .7258
      32     33     322.2137      .0066       35678.64      .7324
      33     34     301.2524      .0062        35979.9      .7386
      34     35     388.0462      .0080       36367.94      .7466
      35     36       491.64      .0101       36859.58      .7567
      36     37     302.1765      .0062       37161.76      .7629
      37     38     707.9514      .0145       37869.71      .7774
      38     39     268.0081      .0055       38137.72      .7829
      39     40      173.537      .0036       38311.26      .7865
      40     41     149.6703      .0031       38460.93      .7896
      41     42     290.5369      .0060       38751.46      .7955
      42     43     273.7163      .0056       39025.18      .8011
      43     44     262.8523      .0054       39288.03      .8065
      44     45      350.583      .0072       39638.61      .8137
      45     46     189.5442      .0039       39828.16      .8176
      46     47     90.29708      .0019       39918.45      .8195
      47     48     271.1129      .0056       40189.57      .8250
      48     49     196.8714      .0040       40386.44      .8291
      49     50     314.6623      .0065        40701.1      .8355
      50     51     152.9517      .0031       40854.05      .8387
      51     52     209.5288      .0043       41063.58      .8430
      52     53     144.2602      .0030       41207.84      .8459
      53     54     111.6749      .0023       41319.52      .8482
      54     55     163.3315      .0034       41482.85      .8516
      55     56     251.0663      .0052       41733.92      .8567
      56     57     257.9928      .0053       41991.91      .8620
      57     58     123.9231      .0025       42115.83      .8646
      58     59     188.7143      .0039       42304.55      .8685
      59     60     133.7483      .0027        42438.3      .8712
      60     61     103.8475      .0021       42542.14      .8733
      61     62     128.7474      .0026       42670.89      .8760
      62     63     99.49346      .0020       42770.38      .8780
      63     64      129.712      .0027       42900.09      .8807
      64     65     99.01125      .0020        42999.1      .8827
      65     66     97.97459      .0020       43097.08      .8847
      66     67     81.78741      .0017       43178.87      .8864
      67     68     125.0935      .0026       43303.96      .8890
      68     69     206.2215      .0042       43510.18      .8932
      69     70      111.656      .0023       43621.84      .8955
      70     71     52.38669      .0011       43674.23      .8966
      71     72     108.5277      .0022       43782.75      .8988
      72     73     76.64589      .0016        43859.4      .9004
      73     74     77.85024      .0016       43937.25      .9020
      74     75     92.38699      .0019       44029.64      .9039
      75     76     55.23057      .0011       44084.87      .9050
      76     77     71.78984      .0015       44156.66      .9065
      77     78     35.81884      .0007       44192.48      .9072
      78     79     32.20975      .0007       44224.69      .9079
      79     80     84.46161      .0017       44309.15      .9096
      80     81     86.12311      .0018       44395.27      .9114
      81     82     152.7744      .0031       44548.05      .9145
      82     83     44.75955      .0009        44592.8      .9154
      83     84      53.7721      .0011       44646.58      .9165
      84     85     27.73659      .0006       44674.32      .9171
      85     86     19.78415      .0004        44694.1      .9175
      86     87     104.2439      .0021       44798.34      .9197
      87     88     46.62664      .0010       44844.97      .9206
      88     89     17.54191      .0004       44862.51      .9210
      89     90     42.24312      .0009       44904.75      .9218
      90     91      121.042      .0025        45025.8      .9243
      91     92     138.3654      .0028       45164.16      .9272
      92     93       71.246      .0015       45235.41      .9286
      93     94      87.5138      .0018       45322.92      .9304
      94     95     12.77174      .0003        45335.7      .9307
      95     96     66.53946      .0014       45402.24      .9321
      96     97     39.15277      .0008       45441.39      .9329
      97     98     131.5239      .0027       45572.91      .9356
      98     99     72.87731      .0015       45645.79      .9371
      99    100     26.75568      .0005       45672.55      .9376
     100    101     55.42341      .0011       45727.97      .9387
     101    102     35.08777      .0007       45763.05      .9395
     102    103     34.03185      .0007       45797.08      .9402
     103    104     33.70074      .0007       45830.78      .9408
     104    105     76.51109      .0016        45907.3      .9424
     105    106     58.66754      .0012       45965.96      .9436
     106    107     25.14168      .0005        45991.1      .9441
     107    108     30.09326      .0006        46021.2      .9448
     108    109     20.40143      .0004        46041.6      .9452
     109    110     19.30516      .0004       46060.91      .9456
     110    111     42.19205      .0009        46103.1      .9464
     111    112     47.96294      .0010       46151.06      .9474
     112    113     40.62491      .0008       46191.69      .9483
     113    114     99.60571      .0020       46291.29      .9503
     114    115     17.73168      .0004       46309.02      .9507
     115    116      62.4943      .0013       46371.52      .9519
     116    117     31.92529      .0007       46403.44      .9526
     117    118     40.70724      .0008       46444.15      .9534
     118    119     74.51364      .0015       46518.66      .9550
     119    120     40.49278      .0008       46559.16      .9558
     120    121     40.19402      .0008       46599.35      .9566
     121    122     43.03729      .0009       46642.39      .9575
     122    123     48.17115      .0010       46690.56      .9585
     123    124      46.0436      .0009        46736.6      .9594
     124    125     40.30891      .0008       46776.91      .9603
     125    126     36.67026      .0008       46813.58      .9610
     126    127     33.06363      .0007       46846.65      .9617
     127    128     29.37944      .0006       46876.03      .9623
     128    129     36.79091      .0008       46912.82      .9631
     129    130     44.00153      .0009       46956.82      .9640
     130    131     28.95579      .0006       46985.77      .9646
     131    132      38.2863      .0008       47024.06      .9653
     132    133     33.97012      .0007       47058.03      .9660
     133    134     73.43685      .0015       47131.46      .9676
     134    135     34.21779      .0007       47165.68      .9683
     135    136     34.89649      .0007       47200.58      .9690
     136    137     33.70947      .0007       47234.29      .9697
     137    138      27.4096      .0006        47261.7      .9702
     138    139      44.9315      .0009       47306.63      .9711
     139    140     21.38197      .0004       47328.01      .9716
     140    141     34.57271      .0007       47362.59      .9723
     141    142     15.98837      .0003       47378.58      .9726
     142    143     42.02651      .0009        47420.6      .9735
     143    144     42.56391      .0009       47463.17      .9744
     144    145     27.56405      .0006       47490.73      .9749
     145    146     29.82698      .0006       47520.56      .9755
     146    147     41.83423      .0009       47562.39      .9764
     147    148     25.53854      .0005       47587.93      .9769
     148    149      19.7866      .0004       47607.72      .9773
     149    150     28.24389      .0006       47635.96      .9779
     150    151     22.71131      .0005       47658.67      .9784
     151    152     15.52153      .0003       47674.19      .9787
     152    153     21.69554      .0004       47695.89      .9791
     153    154     20.70565      .0004        47716.6      .9796
     154    155     13.33649      .0003       47729.93      .9798
     155    156     34.48921      .0007       47764.42      .9805
     156    157     42.15247      .0009       47806.57      .9814
     157    158     34.22115      .0007        47840.8      .9821
     158    159     30.44676      .0006       47871.24      .9827
     159    160     19.83747      .0004       47891.08      .9831
     160    161     12.36539      .0003       47903.44      .9834
     161    162     9.987958      .0002       47913.43      .9836
     162    163      27.8512      .0006       47941.28      .9842
     163    164     21.90875      .0004       47963.19      .9846
     164    165     21.89821      .0004       47985.09      .9851
     165    166     7.959345      .0002       47993.05      .9852
     166    167     4.424276      .0001       47997.48      .9853
     167    168     22.94329      .0005       48020.42      .9858
     168    169       17.956      .0004       48038.38      .9862
     169    170      7.39437      .0002       48045.77      .9863
     170    171     22.18469      .0005       48067.96      .9868
     171    172            0      .0000       48067.96      .9868
     172    173     20.84504      .0004        48088.8      .9872
     173    174     19.22475      .0004       48108.03      .9876
     174    175     6.609972      .0001       48114.64      .9877
     175    176      2.85165      .0001       48117.49      .9878
     176    177     9.913341      .0002        48127.4      .9880
     177    178      2.14487      .0000       48129.55      .9880
     178    179     9.568673      .0002       48139.12      .9882
     179    180     2.747452      .0001       48141.86      .9883
     180    181     12.07805      .0002       48153.94      .9885
     181    182     10.20542      .0002       48164.15      .9888
     182    183     17.35058      .0004        48181.5      .9891
     183    184     8.279053      .0002       48189.78      .9893
     184    185     15.61667      .0003       48205.39      .9896
     185    186     1.204553      .0000        48206.6      .9896
     186    187     8.475872      .0002       48215.07      .9898
     187    188      11.2744      .0002       48226.35      .9900
     188    189     3.304041      .0001       48229.65      .9901
     189    190      .532173      .0000       48230.18      .9901
     190    191     3.628097      .0001       48233.81      .9902
     191    192     8.283473      .0002        48242.1      .9904
     192    193       13.018      .0003       48255.12      .9906
     193    194     7.716777      .0002       48262.83      .9908
     194    195     1.937922      .0000       48264.77      .9908
     195    196     3.978852      .0001       48268.75      .9909
     196    197     3.596896      .0001       48272.35      .9910
     197    198     5.698635      .0001       48278.05      .9911
     198    199     11.89775      .0002       48289.94      .9913
     199    200     6.367979      .0001       48296.31      .9915
     200    201     1.366409      .0000       48297.68      .9915
     201    202      1.23337      .0000       48298.91      .9915
     202    203       .63658      .0000       48299.55      .9915
     203    204      .875093      .0000       48300.42      .9915
     204    205     1.551473      .0000       48301.98      .9916
     205    206     5.180801      .0001       48307.16      .9917
     206    207     1.991711      .0000       48309.15      .9917
     207    208      1.06379      .0000       48310.21      .9917
     208    209     4.490498      .0001        48314.7      .9918
     209    210      .945438      .0000       48315.65      .9919
     210    211     1.902057      .0000       48317.55      .9919
     211    212      2.08209      .0000       48319.63      .9919
     212    213     2.818385      .0001       48322.45      .9920
     213    214     2.231446      .0000       48324.68      .9920
     214    215     2.171926      .0000       48326.85      .9921
     215    216            0      .0000       48326.85      .9921
     216    217      .248452      .0000        48327.1      .9921
     217    218     1.232897      .0000       48328.34      .9921
     218    219     3.422472      .0001       48331.76      .9922
     219    220     1.326149      .0000       48333.08      .9922
     220    221      .276951      .0000       48333.36      .9922
     221    222            0      .0000       48333.36      .9922
     222    223      .751117      .0000       48334.11      .9922
     223    224     2.104703      .0000       48336.22      .9923
     224    225     1.321867      .0000       48337.54      .9923
     225    226            0      .0000       48337.54      .9923
     226    227      1.70513      .0000       48339.25      .9923
     227    228      .763431      .0000       48340.01      .9924
     228    229      .218767      .0000       48340.23      .9924
     229    230     2.234633      .0000       48342.46      .9924
     230    231      .217456      .0000       48342.68      .9924
     231    232     1.438854      .0000       48344.12      .9924
     232    233      .852984      .0000       48344.97      .9925
     233    234     2.738294      .0001       48347.71      .9925
     234    235     1.554223      .0000       48349.26      .9926
     235    236     1.580711      .0000       48350.84      .9926
     236    237     3.556981      .0001        48354.4      .9927
     237    238       .88853      .0000       48355.29      .9927
     238    239     1.018438      .0000       48356.31      .9927
     239    240     1.842416      .0000       48358.15      .9927
     240    241            0      .0000       48358.15      .9927
     241    242     1.333665      .0000       48359.48      .9928
     242    243      4.03497      .0001       48363.52      .9928
     243    244     1.312433      .0000       48364.83      .9929
     244    245      .191445      .0000       48365.02      .9929
     245    246       1.6484      .0000       48366.67      .9929
     246    247     1.835189      .0000       48368.51      .9929
     247    248     2.033322      .0000       48370.54      .9930
     248    249     3.756814      .0001        48374.3      .9931
     249    250      .939909      .0000       48375.24      .9931
     250    251     1.607056      .0000       48376.85      .9931
     251    252     1.964193      .0000       48378.81      .9932
     252    253     3.439218      .0001       48382.25      .9932
     253    254     5.529457      .0001       48387.78      .9933
     254    255     2.346565      .0000       48390.13      .9934
     255    256     1.132799      .0000       48391.26      .9934
     256    257     1.643122      .0000       48392.91      .9934
     257    258      .953441      .0000       48393.86      .9935
     258    259      3.44323      .0001        48397.3      .9935
     259    260     5.158752      .0001       48402.46      .9936
     260    261     3.373995      .0001       48405.83      .9937
     261    262     2.686703      .0001       48408.52      .9938
     262    263     6.256834      .0001       48414.78      .9939
     263    264     3.705424      .0001       48418.49      .9940
     264    265     1.901234      .0000       48420.39      .9940
     265    266     2.930911      .0001       48423.32      .9941
     266    267     1.478055      .0000        48424.8      .9941
     267    268      3.32413      .0001       48428.12      .9942
     268    269     3.069993      .0001       48431.19      .9942
     269    270     2.432901      .0000       48433.62      .9943
     270    271     1.163995      .0000       48434.79      .9943
     271    272            0      .0000       48434.79      .9943
     272    273       .26127      .0000       48435.05      .9943
     273    274     5.241586      .0001       48440.29      .9944
     274    275     4.554903      .0001       48444.85      .9945
     275    276     3.521826      .0001       48448.37      .9946
     276    277     3.058218      .0001       48451.43      .9946
     277    278     10.22087      .0002       48461.65      .9949
     278    279      .795953      .0000       48462.45      .9949
     279    280      .821676      .0000       48463.27      .9949
     280    281     4.456151      .0001       48467.73      .9950
     281    282      1.14837      .0000       48468.87      .9950
     282    283     2.241351      .0000       48471.12      .9951
     283    284     1.237836      .0000       48472.35      .9951
     284    285      .430626      .0000       48472.78      .9951
     285    286      11.7753      .0002       48484.56      .9953
     286    287     1.320772      .0000       48485.88      .9954
     287    288      3.37638      .0001       48489.25      .9954
     288    289      .190433      .0000       48489.44      .9954
     289    290      .774459      .0000       48490.22      .9954
     290    291     4.008524      .0001       48494.23      .9955
     291    292      .679225      .0000       48494.91      .9955
     292    293      .190534      .0000        48495.1      .9955
     293    294            0      .0000        48495.1      .9955
     294    295     1.722435      .0000       48496.82      .9956
     295    296     5.122342      .0001       48501.94      .9957
     296    297      .378947      .0000       48502.32      .9957
     297    298     4.599696      .0001       48506.92      .9958
     298    299     2.716942      .0001       48509.64      .9958
     299    300     1.350046      .0000       48510.99      .9959
     300    301      .084006      .0000       48511.08      .9959
     301    302      .166162      .0000       48511.25      .9959
     302    303            0      .0000       48511.25      .9959
     303    304      .797393      .0000       48512.04      .9959
     304    305      .346216      .0000       48512.39      .9959
     305    306      1.87391      .0000       48514.26      .9959
     306    307      .489401      .0000       48514.75      .9959
     307    308     1.381335      .0000       48516.14      .9960
     308    309      .731818      .0000       48516.87      .9960
     309    310      .453881      .0000       48517.32      .9960
     310    311      .233668      .0000       48517.55      .9960
     311    312     1.137135      .0000       48518.69      .9960
     312    313      .193042      .0000       48518.88      .9960
     313    314      .678944      .0000       48519.56      .9960
     314    315      .567347      .0000       48520.13      .9961
     315    316     2.055352      .0000       48522.18      .9961
     316    317            0      .0000       48522.18      .9961
     317    318      .563856      .0000       48522.75      .9961
     318    319      .949699      .0000       48523.69      .9961
     319    320     1.298155      .0000       48524.99      .9962
     320    321     1.465203      .0000       48526.46      .9962
     321    322      .599589      .0000       48527.05      .9962
     322    323      .719578      .0000       48527.77      .9962
     323    324      .088234      .0000       48527.86      .9962
     324    325     1.173681      .0000       48529.03      .9962
     325    326     1.440267      .0000       48530.48      .9963
     326    327      .878151      .0000       48531.35      .9963
     327    328      .452671      .0000       48531.81      .9963
     328    329            0      .0000       48531.81      .9963
     329    330      .193473      .0000          48532      .9963
     330    331     1.637928      .0000       48533.64      .9963
     331    332     2.024461      .0000       48535.66      .9964
     332    333            0      .0000       48535.66      .9964
     333    334     2.635409      .0001        48538.3      .9964
     334    335            0      .0000        48538.3      .9964
     335    336            0      .0000        48538.3      .9964
     336    337            0      .0000        48538.3      .9964
     337    338            0      .0000        48538.3      .9964
     338    339      .354944      .0000       48538.66      .9964
     339    340            0      .0000       48538.66      .9964
     340    341            0      .0000       48538.66      .9964
     341    342            0      .0000       48538.66      .9964
     342    343            0      .0000       48538.66      .9964
     343    344     4.215053      .0001       48542.87      .9965
     344    345            0      .0000       48542.87      .9965
     345    346            0      .0000       48542.87      .9965
     346    347            0      .0000       48542.87      .9965
     347    348            0      .0000       48542.87      .9965
     348    349            0      .0000       48542.87      .9965
     349    350            0      .0000       48542.87      .9965
     350    351            0      .0000       48542.87      .9965
     351    352            0      .0000       48542.87      .9965
     352    353            0      .0000       48542.87      .9965
     353    354            0      .0000       48542.87      .9965
     354    355      .070416      .0000       48542.94      .9965
     355    356            0      .0000       48542.94      .9965
     356    357            0      .0000       48542.94      .9965
     357    358     1.288983      .0000       48544.23      .9966
     358    359            0      .0000       48544.23      .9966
     359    360            0      .0000       48544.23      .9966
     360    361            0      .0000       48544.23      .9966
     361    362            0      .0000       48544.23      .9966
     362    363            0      .0000       48544.23      .9966
     363    364            0      .0000       48544.23      .9966
     364    365            0      .0000       48544.23      .9966
     365    366            0      .0000       48544.23      .9966
     366    367            0      .0000       48544.23      .9966
     367    368      .270479      .0000        48544.5      .9966
     368    369      .173353      .0000       48544.67      .9966
     369    370      .121617      .0000       48544.79      .9966
     370    371            0      .0000       48544.79      .9966
     371    372            0      .0000       48544.79      .9966
     372    373       .43837      .0000       48545.23      .9966
     373    374            0      .0000       48545.23      .9966
     374    375            0      .0000       48545.23      .9966
     375    376            0      .0000       48545.23      .9966
     376    377            0      .0000       48545.23      .9966
     377    378            0      .0000       48545.23      .9966
     378    379      .675311      .0000       48545.91      .9966
     379    380            0      .0000       48545.91      .9966
     380    381      .091226      .0000          48546      .9966
     381    382            0      .0000          48546      .9966
     382    383            0      .0000          48546      .9966
     383    384      .461474      .0000       48546.46      .9966
     384    385            0      .0000       48546.46      .9966
     385    386            0      .0000       48546.46      .9966
     386    387      .215809      .0000       48546.67      .9966
     387    388            0      .0000       48546.67      .9966
     388    389       .30201      .0000       48546.97      .9966
     389    390      .145394      .0000       48547.12      .9966
     390    391      .450177      .0000       48547.57      .9966
     391    392            0      .0000       48547.57      .9966
     392    393            0      .0000       48547.57      .9966
     393    394       .41464      .0000       48547.98      .9966
     394    395      .166798      .0000       48548.15      .9966
     395    396            0      .0000       48548.15      .9966
     396    397      .387059      .0000       48548.53      .9966
     397    398      .885734      .0000       48549.42      .9967
     398    399      .156773      .0000       48549.58      .9967
     399    400            0      .0000       48549.58      .9967
     400    401            0      .0000       48549.58      .9967
     401    402            0      .0000       48549.58      .9967
     402    403      .489339      .0000       48550.07      .9967
     403    404      .292176      .0000       48550.36      .9967
     404    405      .084036      .0000       48550.44      .9967
     405    406            0      .0000       48550.44      .9967
     406    407      .167065      .0000       48550.61      .9967
     407    408      .408069      .0000       48551.02      .9967
     408    409            0      .0000       48551.02      .9967
     409    410      .260823      .0000       48551.28      .9967
     410    411      .864097      .0000       48552.14      .9967
     411    412            0      .0000       48552.14      .9967
     412    413      .083548      .0000       48552.23      .9967
     413    414            0      .0000       48552.23      .9967
     414    415     1.581772      .0000       48553.81      .9967
     415    416            0      .0000       48553.81      .9967
     416    417            0      .0000       48553.81      .9967
     417    418            0      .0000       48553.81      .9967
     418    419            0      .0000       48553.81      .9967
     419    420            0      .0000       48553.81      .9967
     420    421            0      .0000       48553.81      .9967
     421    422            0      .0000       48553.81      .9967
     422    423            0      .0000       48553.81      .9967
     423    424            0      .0000       48553.81      .9967
     424    425            0      .0000       48553.81      .9967
     425    426            0      .0000       48553.81      .9967
     426    427            0      .0000       48553.81      .9967
     427    428            0      .0000       48553.81      .9967
     428    429            0      .0000       48553.81      .9967
     429    430            0      .0000       48553.81      .9967
     430    431            0      .0000       48553.81      .9967
     431    432            0      .0000       48553.81      .9967
     432    433            0      .0000       48553.81      .9967
     433    434            0      .0000       48553.81      .9967
     434    435            0      .0000       48553.81      .9967
     435    436            0      .0000       48553.81      .9967
     436    437            0      .0000       48553.81      .9967
     437    438            0      .0000       48553.81      .9967
     438    439            0      .0000       48553.81      .9967
     439    440            0      .0000       48553.81      .9967
     440    441            0      .0000       48553.81      .9967
     441    442            0      .0000       48553.81      .9967
     442    443            0      .0000       48553.81      .9967
     443    444            0      .0000       48553.81      .9967
     444    445            0      .0000       48553.81      .9967
     445    446            0      .0000       48553.81      .9967
     446    447            0      .0000       48553.81      .9967
     447    448            0      .0000       48553.81      .9967
     448    449            0      .0000       48553.81      .9967
     449    450            0      .0000       48553.81      .9967
     450    451            0      .0000       48553.81      .9967
     451    452            0      .0000       48553.81      .9967
     452    453            0      .0000       48553.81      .9967
     453    454            0      .0000       48553.81      .9967
     454    455            0      .0000       48553.81      .9967
     455    456            0      .0000       48553.81      .9967
     456    457            0      .0000       48553.81      .9967
     457    458            0      .0000       48553.81      .9967
     458    459            0      .0000       48553.81      .9967
     459    460            0      .0000       48553.81      .9967
     460    461            0      .0000       48553.81      .9967
     461    462            0      .0000       48553.81      .9967
     462    463            0      .0000       48553.81      .9967
     463    464            0      .0000       48553.81      .9967
     464    465            0      .0000       48553.81      .9967
     465    466            0      .0000       48553.81      .9967
     466    467            0      .0000       48553.81      .9967
     467    468            0      .0000       48553.81      .9967
     468    469            0      .0000       48553.81      .9967
     469    470            0      .0000       48553.81      .9967
     470    471            0      .0000       48553.81      .9967
     471    472            0      .0000       48553.81      .9967
     472    473            0      .0000       48553.81      .9967
     473    474            0      .0000       48553.81      .9967
     474    475            0      .0000       48553.81      .9967
     475    476            0      .0000       48553.81      .9967
     476    477            0      .0000       48553.81      .9967
     477    478            0      .0000       48553.81      .9967
     478    479            0      .0000       48553.81      .9967
     479    480            0      .0000       48553.81      .9967
     480    481            0      .0000       48553.81      .9967
     481    482            0      .0000       48553.81      .9967
     482    483            0      .0000       48553.81      .9967
     483    484            0      .0000       48553.81      .9967
     484    485            0      .0000       48553.81      .9967
     485    486            0      .0000       48553.81      .9967
     486    487            0      .0000       48553.81      .9967
     487    488            0      .0000       48553.81      .9967
     488    489            0      .0000       48553.81      .9967
     489    490            0      .0000       48553.81      .9967
     490    491            0      .0000       48553.81      .9967
     491    492            0      .0000       48553.81      .9967
     492    493            0      .0000       48553.81      .9967
     493    494            0      .0000       48553.81      .9967
     494    495            0      .0000       48553.81      .9967
     495    496            0      .0000       48553.81      .9967
     496    497            0      .0000       48553.81      .9967
     497    498            0      .0000       48553.81      .9967
     498    499            0      .0000       48553.81      .9967
     499    500            0      .0000       48553.81      .9967


 MATRIX CALCULATIONS
 *******************


 Expression:

  mf01   = 0

 Result matrix:         mf01  : temp1                                         Temporary Matrix 1                                                               (18-11-21 10:45:55)

 Constraint matrix:     none

 Submatrix:             all origins             all destinations

 Number of expression evaluations:          35721
 Minimum expression value:                .000000   (at      1      1)
 Maximum expression value:                .000000   (at      1      1)
 Average expression value:                .000000
 Sum of expression values:                .000000


 MATRIX CALCULATIONS
 *******************


 Expression:

  mf01   = mf912 + mf907'

 Result matrix:         mf01  : temp1                                         Temporary Matrix 1                                                               (18-11-21 10:45:55)

 Data matrices:         mf912 : MND1220                                       Mobile AM HBEDOB Car                                                             (18-11-21 10:44:33)
                        mf907 : MND1219                                       Mobile AM HBEDIB Car                                                             (18-11-21 10:44:31)

 Constraint matrix:     none

 Submatrix:             all origins             all destinations

 Number of expression evaluations:          35721
 Minimum expression value:                .000000   (at      1     22)
 Maximum expression value:          337465.187500   (at    142    142)
 Average expression value:              83.112525
 Sum of expression values:         2968862.500000
