

 Matrix histogram
 ----------------


 data   matrix        mf795 : DSTSK2                                   Distance Skim Car                                                               

 weight matrix        mf224 : MND1211                                  Mobile AM NHBEB Car                                                             

  all  origins   all  destinations

 constraint matrix    mf10  : temp10                                   Temporary Matrix 10                                                             
          interval  lower:         1
                    upper:         1  include 

 out of range       above: 116.0153
                    below:        0

 statistics         mean : 60.10242
                    std  : 90.68817

    interval        ------density-------      -----cumulative-----
 (from  ,    to)    absolute  normalized      absolute  normalized

       0      1            0      .0000              0      .0000
       1      2            0      .0000              0      .0000
       2      3            0      .0000              0      .0000
       3      4            0      .0000              0      .0000
       4      5     95.04574      .0099       95.04574      .0099
       5      6     208.3826      .0216       303.4284      .0315
       6      7     225.4714      .0234       528.8998      .0549
       7      8      161.414      .0168       690.3138      .0717
       8      9     221.0867      .0230       911.4005      .0946
       9     10     144.3288      .0150       1055.729      .1096
      10     11     192.1572      .0200       1247.886      .1296
      11     12     376.4291      .0391       1624.316      .1687
      12     13      204.415      .0212       1828.731      .1899
      13     14      214.485      .0223       2043.216      .2121
      14     15      220.971      .0229       2264.187      .2351
      15     16     341.7385      .0355       2605.925      .2706
      16     17     443.8735      .0461       3049.799      .3167
      17     18      331.346      .0344       3381.145      .3511
      18     19     256.4739      .0266       3637.618      .3777
      19     20     157.5222      .0164       3795.141      .3940
      20     21     88.82211      .0092       3883.963      .4033
      21     22     99.27592      .0103       3983.239      .4136
      22     23     126.6279      .0131       4109.867      .4267
      23     24     99.39504      .0103       4209.262      .4370
      24     25     142.9994      .0148       4352.261      .4519
      25     26     57.01972      .0059       4409.281      .4578
      26     27     151.1826      .0157       4560.463      .4735
      27     28     178.9815      .0186       4739.445      .4921
      28     29     81.98228      .0085       4821.427      .5006
      29     30     260.7442      .0271       5082.171      .5277
      30     31     118.7583      .0123        5200.93      .5400
      31     32     152.6183      .0158       5353.548      .5559
      32     33     71.65378      .0074       5425.202      .5633
      33     34     93.80809      .0097        5519.01      .5730
      34     35     136.0381      .0141       5655.048      .5872
      35     36     137.5897      .0143       5792.638      .6014
      36     37     35.66033      .0037       5828.298      .6051
      37     38     155.9194      .0162       5984.217      .6213
      38     39      82.9105      .0086       6067.128      .6299
      39     40       55.503      .0058       6122.631      .6357
      40     41      27.2443      .0028       6149.875      .6385
      41     42     74.41841      .0077       6224.293      .6463
      42     43     83.45858      .0087       6307.752      .6549
      43     44     86.17649      .0089       6393.928      .6639
      44     45      83.9818      .0087        6477.91      .6726
      45     46     35.63107      .0037       6513.541      .6763
      46     47     41.57897      .0043        6555.12      .6806
      47     48      97.6465      .0101       6652.767      .6907
      48     49     52.30542      .0054       6705.072      .6962
      49     50     93.33587      .0097       6798.408      .7059
      50     51      46.9713      .0049       6845.379      .7107
      51     52     77.35642      .0080       6922.736      .7188
      52     53     53.09138      .0055       6975.827      .7243
      53     54     38.84286      .0040        7014.67      .7283
      54     55     61.31631      .0064       7075.986      .7347
      55     56     66.55368      .0069        7142.54      .7416
      56     57     48.19883      .0050       7190.739      .7466
      57     58     28.53527      .0030       7219.274      .7496
      58     59     28.70416      .0030       7247.978      .7525
      59     60     56.02773      .0058       7304.006      .7584
      60     61     38.61203      .0040       7342.618      .7624
      61     62     26.52925      .0028       7369.147      .7651
      62     63     20.20131      .0021       7389.348      .7672
      63     64     38.63932      .0040       7427.987      .7712
      64     65     40.06931      .0042       7468.057      .7754
      65     66     36.84524      .0038       7504.902      .7792
      66     67     27.27284      .0028       7532.175      .7821
      67     68     39.49007      .0041       7571.665      .7862
      68     69     47.75615      .0050       7619.421      .7911
      69     70     35.87821      .0037         7655.3      .7948
      70     71     14.71085      .0015       7670.011      .7964
      71     72     31.72111      .0033       7701.732      .7997
      72     73     29.26076      .0030       7730.993      .8027
      73     74     20.49965      .0021       7751.492      .8048
      74     75     30.91687      .0032       7782.409      .8080
      75     76     14.01849      .0015       7796.428      .8095
      76     77     22.16911      .0023       7818.597      .8118
      77     78     10.75785      .0011       7829.354      .8129
      78     79     16.20639      .0017       7845.561      .8146
      79     80     15.56676      .0016       7861.128      .8162
      80     81     19.35495      .0020       7880.483      .8182
      81     82      32.3566      .0034       7912.839      .8216
      82     83     14.07932      .0015       7926.918      .8230
      83     84     10.71959      .0011       7937.638      .8242
      84     85      8.03633      .0008       7945.674      .8250
      85     86     11.28152      .0012       7956.956      .8262
      86     87     21.60932      .0022       7978.565      .8284
      87     88     12.77549      .0013       7991.341      .8297
      88     89     11.34897      .0012        8002.69      .8309
      89     90     7.339752      .0008        8010.03      .8317
      90     91     28.30881      .0029       8038.338      .8346
      91     92     41.20849      .0043       8079.547      .8389
      92     93     11.21818      .0012       8090.765      .8401
      93     94     18.67465      .0019        8109.44      .8420
      94     95      5.26995      .0005        8114.71      .8425
      95     96     27.31831      .0028       8142.028      .8454
      96     97     5.770256      .0006       8147.798      .8460
      97     98     26.42018      .0027       8174.219      .8487
      98     99      18.3784      .0019       8192.597      .8506
      99    100     6.437335      .0007       8199.035      .8513
     100    101     8.887376      .0009       8207.922      .8522
     101    102     7.710805      .0008       8215.633      .8530
     102    103     5.922237      .0006       8221.555      .8536
     103    104      9.98193      .0010       8231.537      .8547
     104    105     10.29937      .0011       8241.836      .8557
     105    106     9.318925      .0010       8251.156      .8567
     106    107     4.684958      .0005        8255.84      .8572
     107    108     7.360956      .0008       8263.202      .8580
     108    109     9.199934      .0010       8272.402      .8589
     109    110     1.444478      .0001       8273.846      .8591
     110    111     10.54813      .0011       8284.394      .8602
     111    112     8.465324      .0009       8292.859      .8610
     112    113     14.81333      .0015       8307.672      .8626
     113    114     23.58738      .0024       8331.259      .8650
     114    115     10.60468      .0011       8341.864      .8661
     115    116     9.423487      .0010       8351.288      .8671
     116    117     7.519046      .0008       8358.807      .8679
     117    118     7.945811      .0008       8366.753      .8687
     118    119     10.97547      .0011       8377.729      .8698
     119    120      16.4199      .0017       8394.149      .8716
     120    121     11.22973      .0012       8405.378      .8727
     121    122       11.032      .0011       8416.411      .8739
     122    123     11.35277      .0012       8427.763      .8750
     123    124     5.782466      .0006       8433.545      .8756
     124    125      32.3781      .0034       8465.923      .8790
     125    126     11.73116      .0012       8477.655      .8802
     126    127     14.11212      .0015       8491.767      .8817
     127    128     9.004784      .0009       8500.772      .8826
     128    129     28.17383      .0029       8528.946      .8855
     129    130     7.726484      .0008       8536.672      .8864
     130    131     10.27577      .0011       8546.948      .8874
     131    132     12.47531      .0013       8559.423      .8887
     132    133     9.971276      .0010       8569.395      .8897
     133    134     19.01318      .0020       8588.408      .8917
     134    135     13.14245      .0014        8601.55      .8931
     135    136     9.356224      .0010       8610.907      .8941
     136    137     8.362538      .0009       8619.269      .8949
     137    138     16.64814      .0017       8635.917      .8967
     138    139     18.55675      .0019       8654.474      .8986
     139    140      5.21441      .0005       8659.689      .8991
     140    141     3.650952      .0004        8663.34      .8995
     141    142      2.17815      .0002       8665.518      .8997
     142    143     6.836592      .0007       8672.355      .9004
     143    144      23.1021      .0024       8695.458      .9028
     144    145     20.19934      .0021       8715.657      .9049
     145    146     4.038453      .0004       8719.695      .9054
     146    147     16.36205      .0017       8736.057      .9071
     147    148     17.02812      .0018       8753.085      .9088
     148    149      10.8481      .0011       8763.933      .9099
     149    150     12.87985      .0013       8776.813      .9113
     150    151     8.458335      .0009       8785.271      .9122
     151    152     3.023008      .0003       8788.294      .9125
     152    153     5.438555      .0006       8793.733      .9130
     153    154      4.12751      .0004       8797.861      .9135
     154    155     4.517983      .0005       8802.378      .9139
     155    156     11.56806      .0012       8813.947      .9151
     156    157     17.89364      .0019        8831.84      .9170
     157    158     6.078228      .0006       8837.918      .9176
     158    159      5.53264      .0006       8843.451      .9182
     159    160     5.226529      .0005       8848.677      .9187
     160    161     1.308425      .0001       8849.986      .9189
     161    162     1.830629      .0002       8851.817      .9191
     162    163     8.171472      .0008       8859.989      .9199
     163    164     1.891696      .0002        8861.88      .9201
     164    165     7.651807      .0008       8869.532      .9209
     165    166     2.669561      .0003       8872.202      .9212
     166    167      .639543      .0001       8872.841      .9213
     167    168     7.505257      .0008       8880.346      .9220
     168    169     1.342498      .0001       8881.689      .9222
     169    170     1.721576      .0002       8883.411      .9224
     170    171     6.303879      .0007       8889.714      .9230
     171    172       .55892      .0001       8890.273      .9231
     172    173     2.714381      .0003       8892.988      .9233
     173    174     5.149154      .0005       8898.137      .9239
     174    175     3.200874      .0003       8901.338      .9242
     175    176      .608327      .0001       8901.947      .9243
     176    177     2.349761      .0002       8904.296      .9245
     177    178      .225059      .0000       8904.521      .9245
     178    179      .981636      .0001       8905.502      .9246
     179    180      .634741      .0001       8906.137      .9247
     180    181     3.631303      .0004       8909.768      .9251
     181    182      .674439      .0001       8910.443      .9252
     182    183     1.736084      .0002       8912.179      .9253
     183    184      3.06453      .0003       8915.244      .9257
     184    185     1.530527      .0002       8916.774      .9258
     185    186     1.074775      .0001       8917.849      .9259
     186    187      2.50198      .0003       8920.351      .9262
     187    188     4.063011      .0004       8924.415      .9266
     188    189      .472557      .0000       8924.887      .9267
     189    190     1.387469      .0001       8926.275      .9268
     190    191     7.461071      .0008       8933.736      .9276
     191    192            0      .0000       8933.736      .9276
     192    193     1.031328      .0001       8934.767      .9277
     193    194            0      .0000       8934.767      .9277
     194    195     3.627834      .0004       8938.395      .9281
     195    196     3.620422      .0004       8942.015      .9284
     196    197      .582502      .0001       8942.597      .9285
     197    198     3.818262      .0004       8946.416      .9289
     198    199     4.619154      .0005       8951.035      .9294
     199    200     2.110119      .0002       8953.145      .9296
     200    201     2.427646      .0003       8955.573      .9298
     201    202     1.214767      .0001       8956.788      .9300
     202    203            0      .0000       8956.788      .9300
     203    204     5.279546      .0005       8962.067      .9305
     204    205            0      .0000       8962.067      .9305
     205    206     3.138113      .0003       8965.205      .9308
     206    207     1.378455      .0001       8966.583      .9310
     207    208     3.418026      .0004       8970.001      .9313
     208    209     3.722089      .0004       8973.723      .9317
     209    210     1.715872      .0002       8975.439      .9319
     210    211            0      .0000       8975.439      .9319
     211    212      .716441      .0001       8976.156      .9320
     212    213      .669311      .0001       8976.825      .9321
     213    214     4.460835      .0005       8981.286      .9325
     214    215      .570468      .0001       8981.856      .9326
     215    216      .435848      .0000       8982.291      .9326
     216    217      .981991      .0001       8983.274      .9327
     217    218      .932693      .0001       8984.207      .9328
     218    219     1.223156      .0001        8985.43      .9329
     219    220      .689711      .0001        8986.12      .9330
     220    221      2.80098      .0003        8988.92      .9333
     221    222            0      .0000        8988.92      .9333
     222    223            0      .0000        8988.92      .9333
     223    224      .217002      .0000       8989.137      .9333
     224    225     2.695093      .0003       8991.833      .9336
     225    226       .41377      .0000       8992.247      .9337
     226    227     1.917964      .0002       8994.165      .9339
     227    228            0      .0000       8994.165      .9339
     228    229            0      .0000       8994.165      .9339
     229    230     1.860139      .0002       8996.025      .9340
     230    231      .362702      .0000       8996.387      .9341
     231    232     1.176457      .0001       8997.564      .9342
     232    233      .551926      .0001       8998.116      .9343
     233    234      .863028      .0001       8998.979      .9344
     234    235      .886444      .0001       8999.866      .9344
     235    236     1.037298      .0001       9000.903      .9346
     236    237      2.33545      .0002       9003.239      .9348
     237    238     1.793161      .0002       9005.032      .9350
     238    239      .844619      .0001       9005.876      .9351
     239    240     2.254077      .0002        9008.13      .9353
     240    241            0      .0000        9008.13      .9353
     241    242     2.490652      .0003       9010.621      .9356
     242    243     7.428659      .0008       9018.049      .9363
     243    244     6.006275      .0006       9024.055      .9370
     244    245            0      .0000       9024.055      .9370
     245    246     1.823093      .0002       9025.878      .9371
     246    247      .738251      .0001       9026.617      .9372
     247    248     8.798437      .0009       9035.416      .9381
     248    249      .897217      .0001       9036.313      .9382
     249    250      1.20611      .0001       9037.519      .9384
     250    251      1.61248      .0002       9039.131      .9385
     251    252     3.896043      .0004       9043.028      .9389
     252    253     6.155257      .0006       9049.183      .9396
     253    254      1.86739      .0002        9051.05      .9398
     254    255     3.798242      .0004       9054.848      .9402
     255    256      .634544      .0001       9055.483      .9402
     256    257     1.266513      .0001        9056.75      .9404
     257    258     3.315583      .0003       9060.065      .9407
     258    259     2.955124      .0003        9063.02      .9410
     259    260     7.653219      .0008       9070.673      .9418
     260    261     2.938101      .0003       9073.612      .9421
     261    262     1.815099      .0002       9075.427      .9423
     262    263     8.262406      .0009        9083.69      .9431
     263    264     3.854179      .0004       9087.544      .9435
     264    265     6.632888      .0007       9094.177      .9442
     265    266     28.80359      .0030       9122.981      .9472
     266    267            0      .0000       9122.981      .9472
     267    268     13.02425      .0014       9136.005      .9486
     268    269     8.315193      .0009       9144.321      .9494
     269    270     31.37248      .0033       9175.693      .9527
     270    271     3.071764      .0003       9178.764      .9530
     271    272      1.05013      .0001       9179.814      .9531
     272    273      .773922      .0001       9180.587      .9532
     273    274     7.191035      .0007       9187.779      .9540
     274    275     4.923511      .0005       9192.703      .9545
     275    276      7.30888      .0008       9200.011      .9552
     276    277     1.337727      .0001       9201.349      .9554
     277    278     22.63794      .0024       9223.987      .9577
     278    279      .489218      .0001       9224.476      .9578
     279    280      .712756      .0001       9225.189      .9578
     280    281      .674683      .0001       9225.864      .9579
     281    282     2.467252      .0003       9228.331      .9582
     282    283     1.528077      .0002       9229.859      .9583
     283    284     1.770358      .0002       9231.629      .9585
     284    285      .773875      .0001       9232.403      .9586
     285    286     10.20615      .0011       9242.609      .9596
     286    287      .503793      .0001       9243.113      .9597
     287    288     6.172543      .0006       9249.286      .9603
     288    289            0      .0000       9249.286      .9603
     289    290            0      .0000       9249.286      .9603
     290    291     3.848229      .0004       9253.134      .9607
     291    292      5.63852      .0006       9258.773      .9613
     292    293      .877033      .0001        9259.65      .9614
     293    294      .845466      .0001       9260.496      .9615
     294    295      .501792      .0001       9260.998      .9616
     295    296     10.66467      .0011       9271.663      .9627
     296    297            0      .0000       9271.663      .9627
     297    298      7.02861      .0007       9278.691      .9634
     298    299     2.438044      .0003       9281.129      .9636
     299    300     1.743263      .0002       9282.873      .9638
     300    301     1.071838      .0001       9283.945      .9639
     301    302            0      .0000       9283.945      .9639
     302    303            0      .0000       9283.945      .9639
     303    304     3.105522      .0003        9287.05      .9643
     304    305      1.11849      .0001       9288.168      .9644
     305    306     4.849764      .0005       9293.018      .9649
     306    307            0      .0000       9293.018      .9649
     307    308      .648208      .0001       9293.666      .9649
     308    309            0      .0000       9293.666      .9649
     309    310            0      .0000       9293.666      .9649
     310    311     55.82213      .0058       9349.489      .9707
     311    312     1.469574      .0002       9350.958      .9709
     312    313     1.186453      .0001       9352.145      .9710
     313    314      .479717      .0000       9352.625      .9711
     314    315     34.82294      .0036       9387.448      .9747
     315    316     22.94861      .0024       9410.396      .9771
     316    317            0      .0000       9410.396      .9771
     317    318     1.432983      .0001       9411.829      .9772
     318    319     3.119024      .0003       9414.948      .9775
     319    320     7.919485      .0008       9422.868      .9784
     320    321      5.53592      .0006       9428.404      .9789
     321    322      .717481      .0001       9429.122      .9790
     322    323            0      .0000       9429.122      .9790
     323    324     1.449478      .0002       9430.571      .9792
     324    325     2.897041      .0003       9433.468      .9795
     325    326     3.818172      .0004       9437.287      .9799
     326    327     1.405956      .0001       9438.693      .9800
     327    328     3.187304      .0003        9441.88      .9803
     328    329            0      .0000        9441.88      .9803
     329    330            0      .0000        9441.88      .9803
     330    331     6.068544      .0006       9447.949      .9810
     331    332      7.39868      .0008       9455.347      .9817
     332    333            0      .0000       9455.347      .9817
     333    334     5.731132      .0006       9461.079      .9823
     334    335            0      .0000       9461.079      .9823
     335    336            0      .0000       9461.079      .9823
     336    337            0      .0000       9461.079      .9823
     337    338      .155771      .0000       9461.235      .9823
     338    339      .826641      .0001       9462.061      .9824
     339    340            0      .0000       9462.061      .9824
     340    341            0      .0000       9462.061      .9824
     341    342            0      .0000       9462.061      .9824
     342    343            0      .0000       9462.061      .9824
     343    344      15.3613      .0016       9477.422      .9840
     344    345            0      .0000       9477.422      .9840
     345    346            0      .0000       9477.422      .9840
     346    347            0      .0000       9477.422      .9840
     347    348            0      .0000       9477.422      .9840
     348    349            0      .0000       9477.422      .9840
     349    350            0      .0000       9477.422      .9840
     350    351            0      .0000       9477.422      .9840
     351    352            0      .0000       9477.422      .9840
     352    353            0      .0000       9477.422      .9840
     353    354            0      .0000       9477.422      .9840
     354    355            0      .0000       9477.422      .9840
     355    356            0      .0000       9477.422      .9840
     356    357            0      .0000       9477.422      .9840
     357    358     3.980311      .0004       9481.403      .9844
     358    359            0      .0000       9481.403      .9844
     359    360            0      .0000       9481.403      .9844
     360    361            0      .0000       9481.403      .9844
     361    362            0      .0000       9481.403      .9844
     362    363            0      .0000       9481.403      .9844
     363    364            0      .0000       9481.403      .9844
     364    365            0      .0000       9481.403      .9844
     365    366            0      .0000       9481.403      .9844
     366    367            0      .0000       9481.403      .9844
     367    368            0      .0000       9481.403      .9844
     368    369      .398066      .0000       9481.801      .9845
     369    370            0      .0000       9481.801      .9845
     370    371            0      .0000       9481.801      .9845
     371    372            0      .0000       9481.801      .9845
     372    373      .804138      .0001       9482.605      .9846
     373    374      .317753      .0000       9482.922      .9846
     374    375            0      .0000       9482.922      .9846
     375    376            0      .0000       9482.922      .9846
     376    377            0      .0000       9482.922      .9846
     377    378            0      .0000       9482.922      .9846
     378    379            0      .0000       9482.922      .9846
     379    380            0      .0000       9482.922      .9846
     380    381      .353649      .0000       9483.276      .9846
     381    382            0      .0000       9483.276      .9846
     382    383       .31884      .0000       9483.594      .9847
     383    384     1.053829      .0001       9484.648      .9848
     384    385            0      .0000       9484.648      .9848
     385    386            0      .0000       9484.648      .9848
     386    387            0      .0000       9484.648      .9848
     387    388            0      .0000       9484.648      .9848
     388    389     2.213987      .0002       9486.862      .9850
     389    390       .53476      .0001       9487.397      .9851
     390    391            0      .0000       9487.397      .9851
     391    392            0      .0000       9487.397      .9851
     392    393            0      .0000       9487.397      .9851
     393    394      4.42882      .0005       9491.826      .9855
     394    395     6.221188      .0006       9498.046      .9862
     395    396            0      .0000       9498.046      .9862
     396    397      .343962      .0000        9498.39      .9862
     397    398     3.487368      .0004       9501.877      .9866
     398    399     8.997776      .0009       9510.875      .9875
     399    400            0      .0000       9510.875      .9875
     400    401            0      .0000       9510.875      .9875
     401    402            0      .0000       9510.875      .9875
     402    403            0      .0000       9510.875      .9875
     403    404       .54949      .0001       9511.425      .9876
     404    405      .889418      .0001       9512.315      .9877
     405    406            0      .0000       9512.315      .9877
     406    407            0      .0000       9512.315      .9877
     407    408      .664503      .0001       9512.979      .9877
     408    409            0      .0000       9512.979      .9877
     409    410            0      .0000       9512.979      .9877
     410    411            0      .0000       9512.979      .9877
     411    412            0      .0000       9512.979      .9877
     412    413            0      .0000       9512.979      .9877
     413    414            0      .0000       9512.979      .9877
     414    415     2.257936      .0002       9515.237      .9880
     415    416            0      .0000       9515.237      .9880
     416    417            0      .0000       9515.237      .9880
     417    418            0      .0000       9515.237      .9880
     418    419            0      .0000       9515.237      .9880
     419    420            0      .0000       9515.237      .9880
     420    421            0      .0000       9515.237      .9880
     421    422            0      .0000       9515.237      .9880
     422    423            0      .0000       9515.237      .9880
     423    424            0      .0000       9515.237      .9880
     424    425            0      .0000       9515.237      .9880
     425    426            0      .0000       9515.237      .9880
     426    427            0      .0000       9515.237      .9880
     427    428            0      .0000       9515.237      .9880
     428    429            0      .0000       9515.237      .9880
     429    430            0      .0000       9515.237      .9880
     430    431            0      .0000       9515.237      .9880
     431    432            0      .0000       9515.237      .9880
     432    433            0      .0000       9515.237      .9880
     433    434            0      .0000       9515.237      .9880
     434    435            0      .0000       9515.237      .9880
     435    436            0      .0000       9515.237      .9880
     436    437            0      .0000       9515.237      .9880
     437    438            0      .0000       9515.237      .9880
     438    439            0      .0000       9515.237      .9880
     439    440            0      .0000       9515.237      .9880
     440    441            0      .0000       9515.237      .9880
     441    442            0      .0000       9515.237      .9880
     442    443            0      .0000       9515.237      .9880
     443    444            0      .0000       9515.237      .9880
     444    445            0      .0000       9515.237      .9880
     445    446            0      .0000       9515.237      .9880
     446    447            0      .0000       9515.237      .9880
     447    448            0      .0000       9515.237      .9880
     448    449            0      .0000       9515.237      .9880
     449    450            0      .0000       9515.237      .9880
     450    451            0      .0000       9515.237      .9880
     451    452            0      .0000       9515.237      .9880
     452    453            0      .0000       9515.237      .9880
     453    454            0      .0000       9515.237      .9880
     454    455            0      .0000       9515.237      .9880
     455    456            0      .0000       9515.237      .9880
     456    457            0      .0000       9515.237      .9880
     457    458            0      .0000       9515.237      .9880
     458    459            0      .0000       9515.237      .9880
     459    460            0      .0000       9515.237      .9880
     460    461            0      .0000       9515.237      .9880
     461    462            0      .0000       9515.237      .9880
     462    463            0      .0000       9515.237      .9880
     463    464            0      .0000       9515.237      .9880
     464    465            0      .0000       9515.237      .9880
     465    466            0      .0000       9515.237      .9880
     466    467            0      .0000       9515.237      .9880
     467    468            0      .0000       9515.237      .9880
     468    469            0      .0000       9515.237      .9880
     469    470            0      .0000       9515.237      .9880
     470    471            0      .0000       9515.237      .9880
     471    472            0      .0000       9515.237      .9880
     472    473            0      .0000       9515.237      .9880
     473    474            0      .0000       9515.237      .9880
     474    475            0      .0000       9515.237      .9880
     475    476            0      .0000       9515.237      .9880
     476    477            0      .0000       9515.237      .9880
     477    478            0      .0000       9515.237      .9880
     478    479            0      .0000       9515.237      .9880
     479    480            0      .0000       9515.237      .9880
     480    481            0      .0000       9515.237      .9880
     481    482            0      .0000       9515.237      .9880
     482    483            0      .0000       9515.237      .9880
     483    484            0      .0000       9515.237      .9880
     484    485            0      .0000       9515.237      .9880
     485    486            0      .0000       9515.237      .9880
     486    487            0      .0000       9515.237      .9880
     487    488            0      .0000       9515.237      .9880
     488    489            0      .0000       9515.237      .9880
     489    490            0      .0000       9515.237      .9880
     490    491            0      .0000       9515.237      .9880
     491    492            0      .0000       9515.237      .9880
     492    493            0      .0000       9515.237      .9880
     493    494            0      .0000       9515.237      .9880
     494    495            0      .0000       9515.237      .9880
     495    496            0      .0000       9515.237      .9880
     496    497            0      .0000       9515.237      .9880
     497    498            0      .0000       9515.237      .9880
     498    499            0      .0000       9515.237      .9880
     499    500            0      .0000       9515.237      .9880


 MATRIX CALCULATIONS
 *******************


 Expression:

  mf01   = 0

 Result matrix:         mf01  : temp1                                         Temporary Matrix 1                                                               (18-11-21 10:44:10)

 Constraint matrix:     none

 Submatrix:             all origins             all destinations

 Number of expression evaluations:          35721
 Minimum expression value:                .000000   (at      1      1)
 Maximum expression value:                .000000   (at      1      1)
 Average expression value:                .000000
 Sum of expression values:                .000000


 MATRIX CALCULATIONS
 *******************


 Expression:

  mf01   = mf340 + mf339'

 Result matrix:         mf01  : temp1                                         Temporary Matrix 1                                                               (18-11-21 10:44:10)

 Data matrices:         mf340 : MND222                                        Mobile IP HBWOB Car                                                              (18-11-21 10:43:52)
                        mf339 : MND221                                        Mobile IP HBWIB Car                                                              (18-11-21 10:43:52)

 Constraint matrix:     none

 Submatrix:             all origins             all destinations

 Number of expression evaluations:          35721
 Minimum expression value:                .000000   (at      1      1)
 Maximum expression value:           41640.484375   (at    102    102)
 Average expression value:              14.855270
 Sum of expression values:          530645.062500
