

 Matrix histogram
 ----------------


 data   matrix        mf795 : DSTSK2                                   Distance Skim Car                                                               

 weight matrix        mf01  : temp1                                    Temporary Matrix 1                                                              

  all  origins   all  destinations

 constraint matrix    mf10  : temp10                                   Temporary Matrix 10                                                             
          interval  lower:         1
                    upper:         1  include 

 out of range       above: 116.2754
                    below:        0

 statistics         mean : 19.15031
                    std  : 42.52587

    interval        ------density-------      -----cumulative-----
 (from  ,    to)    absolute  normalized      absolute  normalized

       0      1      4735.36      .0784        4735.36      .0784
       1      2     4211.197      .0697       8946.557      .1482
       2      3     5816.889      .0963       14763.45      .2445
       3      4     3371.829      .0558       18135.27      .3003
       4      5     1242.197      .0206       19377.47      .3209
       5      6     3548.277      .0588       22925.75      .3797
       6      7     4440.747      .0735        27366.5      .4532
       7      8     1218.103      .0202        28584.6      .4734
       8      9     1877.816      .0311       30462.42      .5045
       9     10     1128.051      .0187       31590.47      .5232
      10     11     1389.194      .0230       32979.66      .5462
      11     12     2147.804      .0356       35127.46      .5818
      12     13     1391.204      .0230       36518.67      .6048
      13     14       1601.7      .0265       38120.37      .6313
      14     15      1044.43      .0173        39164.8      .6486
      15     16     2306.247      .0382       41471.04      .6868
      16     17     2149.669      .0356       43620.71      .7224
      17     18     1611.183      .0267       45231.89      .7491
      18     19     1308.581      .0217       46540.48      .7708
      19     20     684.0064      .0113       47224.48      .7821
      20     21     456.5427      .0076       47681.03      .7897
      21     22     485.3742      .0080        48166.4      .7977
      22     23     741.6927      .0123       48908.09      .8100
      23     24     515.3881      .0085       49423.48      .8185
      24     25     592.7789      .0098       50016.26      .8283
      25     26     262.3602      .0043       50278.62      .8327
      26     27     537.0106      .0089       50815.63      .8416
      27     28     443.7825      .0073       51259.41      .8489
      28     29     293.2059      .0049       51552.62      .8538
      29     30     933.1295      .0155       52485.75      .8692
      30     31     382.7192      .0063       52868.46      .8756
      31     32     370.1496      .0061       53238.61      .8817
      32     33     210.8278      .0035       53449.44      .8852
      33     34     237.9536      .0039       53687.39      .8891
      34     35     291.5796      .0048       53978.97      .8940
      35     36     335.1552      .0056       54314.13      .8995
      36     37     107.6277      .0018       54421.76      .9013
      37     38     344.4728      .0057       54766.23      .9070
      38     39     181.2554      .0030       54947.48      .9100
      39     40     113.5697      .0019       55061.05      .9119
      40     41     75.81562      .0013       55136.87      .9131
      41     42     154.3542      .0026       55291.23      .9157
      42     43     175.4498      .0029       55466.67      .9186
      43     44     185.1374      .0031       55651.81      .9217
      44     45     194.4321      .0032       55846.25      .9249
      45     46     71.35814      .0012        55917.6      .9261
      46     47     76.13904      .0013       55993.75      .9273
      47     48     175.7116      .0029       56169.46      .9302
      48     49     100.9914      .0017       56270.45      .9319
      49     50     172.2717      .0029       56442.72      .9348
      50     51     89.75824      .0015       56532.48      .9362
      51     52     129.8039      .0021       56662.28      .9384
      52     53      86.3651      .0014       56748.65      .9398
      53     54     70.69174      .0012       56819.34      .9410
      54     55      94.8649      .0016        56914.2      .9426
      55     56     109.4656      .0018       57023.67      .9444
      56     57     90.98545      .0015       57114.65      .9459
      57     58     53.72166      .0009       57168.37      .9468
      58     59     50.16345      .0008       57218.54      .9476
      59     60     89.51876      .0015       57308.06      .9491
      60     61     68.02076      .0011       57376.08      .9502
      61     62      44.7229      .0007        57420.8      .9510
      62     63     34.86327      .0006       57455.66      .9515
      63     64      58.5445      .0010       57514.21      .9525
      64     65     59.10449      .0010       57573.31      .9535
      65     66      58.2969      .0010       57631.61      .9544
      66     67      41.6575      .0007       57673.26      .9551
      67     68     70.62479      .0012       57743.89      .9563
      68     69     89.38519      .0015       57833.28      .9578
      69     70     62.60596      .0010       57895.88      .9588
      70     71     25.07581      .0004       57920.96      .9592
      71     72     50.81401      .0008       57971.77      .9601
      72     73       47.801      .0008       58019.57      .9609
      73     74      32.2754      .0005       58051.85      .9614
      74     75     48.10688      .0008       58099.95      .9622
      75     76     21.96516      .0004       58121.92      .9626
      76     77     30.84238      .0005       58152.76      .9631
      77     78     16.34269      .0003        58169.1      .9633
      78     79     23.62341      .0004       58192.73      .9637
      79     80     23.28363      .0004       58216.01      .9641
      80     81     29.26281      .0005       58245.28      .9646
      81     82      54.5737      .0009       58299.85      .9655
      82     83     19.30031      .0003       58319.15      .9658
      83     84     16.25154      .0003        58335.4      .9661
      84     85     12.47398      .0002       58347.87      .9663
      85     86      15.6686      .0003       58363.54      .9666
      86     87     35.67968      .0006       58399.22      .9672
      87     88     19.98717      .0003       58419.21      .9675
      88     89     15.09995      .0003       58434.31      .9677
      89     90     11.17107      .0002       58445.48      .9679
      90     91     43.45068      .0007       58488.93      .9686
      91     92     76.46791      .0013        58565.4      .9699
      92     93      16.0186      .0003       58581.42      .9702
      93     94     31.32158      .0005       58612.74      .9707
      94     95     7.164476      .0001       58619.91      .9708
      95     96     43.59667      .0007        58663.5      .9715
      96     97     7.842998      .0001       58671.35      .9717
      97     98     50.89881      .0008       58722.25      .9725
      98     99     26.01755      .0004       58748.26      .9729
      99    100     10.09638      .0002       58758.36      .9731
     100    101     12.35394      .0002       58770.71      .9733
     101    102      10.6451      .0002       58781.36      .9735
     102    103     9.709161      .0002       58791.07      .9737
     103    104     13.19513      .0002       58804.26      .9739
     104    105     15.18855      .0003       58819.45      .9741
     105    106     13.52117      .0002       58832.97      .9743
     106    107     7.357435      .0001       58840.33      .9745
     107    108     10.20851      .0002       58850.54      .9746
     108    109     11.64926      .0002       58862.19      .9748
     109    110     1.899303      .0000       58864.08      .9749
     110    111     14.05829      .0002       58878.14      .9751
     111    112     12.45642      .0002        58890.6      .9753
     112    113     20.02598      .0003       58910.63      .9756
     113    114     32.58457      .0005       58943.21      .9762
     114    115     14.07976      .0002       58957.29      .9764
     115    116     12.91932      .0002       58970.21      .9766
     116    117     9.143179      .0002       58979.35      .9768
     117    118     10.37452      .0002       58989.73      .9769
     118    119     15.05558      .0002       59004.78      .9772
     119    120     20.72471      .0003       59025.51      .9775
     120    121     15.26164      .0003       59040.77      .9778
     121    122     14.74621      .0002       59055.52      .9780
     122    123     14.20864      .0002       59069.73      .9783
     123    124      8.31917      .0001       59078.05      .9784
     124    125     38.25833      .0006        59116.3      .9790
     125    126     15.84215      .0003       59132.15      .9793
     126    127     18.73488      .0003       59150.88      .9796
     127    128     11.61581      .0002        59162.5      .9798
     128    129     33.76138      .0006       59196.26      .9804
     129    130     9.435553      .0002        59205.7      .9805
     130    131     13.42315      .0002       59219.12      .9807
     131    132     15.49968      .0003       59234.62      .9810
     132    133     12.39731      .0002       59247.02      .9812
     133    134     23.89187      .0004       59270.91      .9816
     134    135     16.28339      .0003       59287.19      .9819
     135    136     10.84181      .0002       59298.04      .9820
     136    137     10.20646      .0002       59308.25      .9822
     137    138     21.93658      .0004       59330.18      .9826
     138    139     21.21412      .0004        59351.4      .9829
     139    140     6.516387      .0001       59357.91      .9830
     140    141     4.401802      .0001       59362.32      .9831
     141    142     2.702095      .0000       59365.02      .9832
     142    143     8.457639      .0001       59373.48      .9833
     143    144     26.54911      .0004       59400.03      .9837
     144    145     23.06079      .0004       59423.09      .9841
     145    146     5.067252      .0001       59428.16      .9842
     146    147     18.83465      .0003       59446.99      .9845
     147    148     19.47492      .0003       59466.47      .9848
     148    149     12.63769      .0002        59479.1      .9850
     149    150     15.10169      .0003       59494.21      .9853
     150    151     10.28608      .0002       59504.49      .9855
     151    152     3.536135      .0001       59508.03      .9855
     152    153     6.225033      .0001       59514.25      .9856
     153    154     4.893359      .0001       59519.15      .9857
     154    155     5.254399      .0001        59524.4      .9858
     155    156     14.32413      .0002       59538.73      .9860
     156    157     21.11851      .0003       59559.84      .9864
     157    158     7.030846      .0001       59566.87      .9865
     158    159     6.618978      .0001       59573.49      .9866
     159    160       5.8672      .0001       59579.36      .9867
     160    161     1.502085      .0000       59580.86      .9867
     161    162     1.882069      .0000       59582.75      .9868
     162    163     9.295786      .0002       59592.04      .9869
     163    164     2.137058      .0000       59594.18      .9870
     164    165     8.413192      .0001       59602.59      .9871
     165    166     3.086068      .0001       59605.68      .9871
     166    167      .672746      .0000       59606.35      .9872
     167    168     9.141457      .0002       59615.49      .9873
     168    169     1.537024      .0000       59617.03      .9873
     169    170     1.975885      .0000          59619      .9874
     170    171     6.871467      .0001       59625.87      .9875
     171    172       .60333      .0000       59626.48      .9875
     172    173     3.051825      .0001       59629.53      .9875
     173    174     5.804853      .0001       59635.33      .9876
     174    175     3.641253      .0001       59638.97      .9877
     175    176      .676663      .0000       59639.65      .9877
     176    177     2.561795      .0000       59642.21      .9877
     177    178      .251313      .0000       59642.46      .9878
     178    179     1.123248      .0000       59643.58      .9878
     179    180      .733394      .0000       59644.32      .9878
     180    181     4.020443      .0001       59648.34      .9878
     181    182      .715161      .0000       59649.05      .9879
     182    183     1.953125      .0000       59651.01      .9879
     183    184     3.310882      .0001       59654.32      .9879
     184    185     1.784041      .0000        59656.1      .9880
     185    186     1.150049      .0000       59657.25      .9880
     186    187       2.8822      .0000       59660.14      .9880
     187    188     4.441296      .0001       59664.58      .9881
     188    189      .502481      .0000       59665.08      .9881
     189    190     1.519309      .0000        59666.6      .9882
     190    191     8.064219      .0001       59674.66      .9883
     191    192            0      .0000       59674.66      .9883
     192    193      1.12853      .0000       59675.79      .9883
     193    194            0      .0000       59675.79      .9883
     194    195     3.824545      .0001       59679.62      .9884
     195    196     3.913075      .0001       59683.53      .9884
     196    197      .634745      .0000       59684.16      .9884
     197    198     4.112343      .0001       59688.28      .9885
     198    199     5.086048      .0001       59693.36      .9886
     199    200     2.273545      .0000       59695.64      .9886
     200    201     2.732596      .0000       59698.37      .9887
     201    202     1.287765      .0000       59699.66      .9887
     202    203            0      .0000       59699.66      .9887
     203    204     5.794331      .0001       59705.45      .9888
     204    205            0      .0000       59705.45      .9888
     205    206     3.524179      .0001       59708.98      .9889
     206    207     1.485275      .0000       59710.46      .9889
     207    208     3.669298      .0001       59714.13      .9889
     208    209     4.196854      .0001       59718.32      .9890
     209    210     1.777091      .0000        59720.1      .9890
     210    211            0      .0000        59720.1      .9890
     211    212      .798458      .0000        59720.9      .9890
     212    213      .695553      .0000       59721.59      .9891
     213    214     4.760962      .0001       59726.35      .9891
     214    215      .645628      .0000          59727      .9892
     215    216      .451276      .0000       59727.45      .9892
     216    217     1.071175      .0000       59728.52      .9892
     217    218     1.042935      .0000       59729.57      .9892
     218    219     1.354664      .0000       59730.92      .9892
     219    220      .714058      .0000       59731.64      .9892
     220    221      2.99835      .0000       59734.64      .9893
     221    222            0      .0000       59734.64      .9893
     222    223            0      .0000       59734.64      .9893
     223    224      .225851      .0000       59734.86      .9893
     224    225      2.91554      .0000       59737.78      .9893
     225    226      .430502      .0000       59738.21      .9893
     226    227     2.148484      .0000       59740.35      .9894
     227    228            0      .0000       59740.35      .9894
     228    229            0      .0000       59740.35      .9894
     229    230      2.01016      .0000       59742.37      .9894
     230    231      .387684      .0000       59742.75      .9894
     231    232     1.295599      .0000       59744.05      .9894
     232    233      .594363      .0000       59744.64      .9894
     233    234      .884027      .0000       59745.53      .9895
     234    235      .895603      .0000       59746.42      .9895
     235    236     1.049803      .0000       59747.47      .9895
     236    237      2.67513      .0000       59750.15      .9895
     237    238     2.000765      .0000       59752.15      .9896
     238    239      .855715      .0000          59753      .9896
     239    240     2.281572      .0000       59755.28      .9896
     240    241            0      .0000       59755.28      .9896
     241    242     2.588924      .0000       59757.87      .9897
     242    243     7.541016      .0001       59765.41      .9898
     243    244     6.074916      .0001       59771.49      .9899
     244    245            0      .0000       59771.49      .9899
     245    246     1.843922      .0000       59773.33      .9899
     246    247       .75071      .0000       59774.08      .9899
     247    248     8.882563      .0001       59782.96      .9901
     248    249       .90556      .0000       59783.87      .9901
     249    250       1.2183      .0000       59785.09      .9901
     250    251     1.635565      .0000       59786.73      .9901
     251    252     3.927137      .0001       59790.65      .9902
     252    253     6.249525      .0001        59796.9      .9903
     253    254     1.885322      .0000       59798.79      .9903
     254    255     3.822975      .0001       59802.61      .9904
     255    256      .650744      .0000       59803.26      .9904
     256    257     1.281398      .0000       59804.55      .9904
     257    258     3.348028      .0001       59807.89      .9905
     258    259     2.988431      .0000       59810.88      .9905
     259    260     7.718899      .0001        59818.6      .9907
     260    261     2.957383      .0000       59821.56      .9907
     261    262     1.834672      .0000       59823.39      .9907
     262    263     8.310332      .0001        59831.7      .9909
     263    264     3.889229      .0001       59835.59      .9909
     264    265     6.685896      .0001       59842.28      .9911
     265    266     28.99144      .0005       59871.27      .9915
     266    267            0      .0000       59871.27      .9915
     267    268     13.07547      .0002       59884.35      .9918
     268    269     8.389668      .0001       59892.74      .9919
     269    270     31.57036      .0005       59924.31      .9924
     270    271     3.089534      .0001        59927.4      .9925
     271    272     1.059862      .0000       59928.46      .9925
     272    273      .780253      .0000       59929.24      .9925
     273    274     7.235452      .0001       59936.47      .9926
     274    275     5.018547      .0001       59941.49      .9927
     275    276      7.36377      .0001       59948.85      .9928
     276    277     1.347412      .0000        59950.2      .9928
     277    278     22.88935      .0004       59973.09      .9932
     278    279      .492998      .0000       59973.58      .9932
     279    280      .718649      .0000        59974.3      .9932
     280    281       .68004      .0000       59974.98      .9933
     281    282     2.486504      .0000       59977.47      .9933
     282    283     1.538244      .0000       59979.01      .9933
     283    284     1.778789      .0000       59980.79      .9934
     284    285       .77667      .0000       59981.57      .9934
     285    286     10.27113      .0002       59991.83      .9935
     286    287       .50666      .0000       59992.34      .9935
     287    288     6.228359      .0001       59998.57      .9936
     288    289            0      .0000       59998.57      .9936
     289    290            0      .0000       59998.57      .9936
     290    291     3.875874      .0001       60002.44      .9937
     291    292     5.675215      .0001       60008.12      .9938
     292    293      .882863      .0000          60009      .9938
     293    294      .850055      .0000       60009.85      .9938
     294    295      .506286      .0000       60010.36      .9938
     295    296      10.7304      .0002       60021.09      .9940
     296    297            0      .0000       60021.09      .9940
     297    298     7.062251      .0001       60028.16      .9941
     298    299     2.455829      .0000       60030.61      .9942
     299    300     1.751249      .0000       60032.36      .9942
     300    301     1.081585      .0000       60033.44      .9942
     301    302            0      .0000       60033.44      .9942
     302    303            0      .0000       60033.44      .9942
     303    304     3.116911      .0001       60036.56      .9943
     304    305     1.127778      .0000       60037.69      .9943
     305    306     4.879655      .0001       60042.57      .9944
     306    307            0      .0000       60042.57      .9944
     307    308      .651964      .0000       60043.22      .9944
     308    309            0      .0000       60043.22      .9944
     309    310            0      .0000       60043.22      .9944
     310    311     56.04911      .0009       60099.27      .9953
     311    312     1.480566      .0000       60100.75      .9953
     312    313     1.192883      .0000       60101.94      .9954
     313    314      .484114      .0000       60102.43      .9954
     314    315     34.94067      .0006       60137.37      .9959
     315    316     23.07037      .0004       60160.44      .9963
     316    317            0      .0000       60160.44      .9963
     317    318     1.439547      .0000       60161.88      .9964
     318    319     3.135275      .0001       60165.02      .9964
     319    320     7.964417      .0001       60172.98      .9965
     320    321     5.560984      .0001       60178.55      .9966
     321    322      .721814      .0000       60179.27      .9966
     322    323            0      .0000       60179.27      .9966
     323    324     1.465291      .0000       60180.73      .9967
     324    325     2.913101      .0000       60183.65      .9967
     325    326     3.837069      .0001       60187.48      .9968
     326    327     1.413025      .0000        60188.9      .9968
     327    328     3.203617      .0001        60192.1      .9969
     328    329            0      .0000        60192.1      .9969
     329    330            0      .0000        60192.1      .9969
     330    331     6.099579      .0001        60198.2      .9970
     331    332     7.429585      .0001       60205.63      .9971
     332    333            0      .0000       60205.63      .9971
     333    334      5.76355      .0001       60211.39      .9972
     334    335            0      .0000       60211.39      .9972
     335    336            0      .0000       60211.39      .9972
     336    337            0      .0000       60211.39      .9972
     337    338      .157108      .0000       60211.55      .9972
     338    339      .832204      .0000       60212.38      .9972
     339    340            0      .0000       60212.38      .9972
     340    341            0      .0000       60212.38      .9972
     341    342            0      .0000       60212.38      .9972
     342    343            0      .0000       60212.38      .9972
     343    344     15.46471      .0003       60227.84      .9974
     344    345            0      .0000       60227.84      .9974
     345    346            0      .0000       60227.84      .9974
     346    347            0      .0000       60227.84      .9974
     347    348            0      .0000       60227.84      .9974
     348    349            0      .0000       60227.84      .9974
     349    350            0      .0000       60227.84      .9974
     350    351            0      .0000       60227.84      .9974
     351    352            0      .0000       60227.84      .9974
     352    353            0      .0000       60227.84      .9974
     353    354            0      .0000       60227.84      .9974
     354    355            0      .0000       60227.84      .9974
     355    356            0      .0000       60227.84      .9974
     356    357            0      .0000       60227.84      .9974
     357    358     4.002016      .0001       60231.85      .9975
     358    359            0      .0000       60231.85      .9975
     359    360            0      .0000       60231.85      .9975
     360    361            0      .0000       60231.85      .9975
     361    362            0      .0000       60231.85      .9975
     362    363            0      .0000       60231.85      .9975
     363    364            0      .0000       60231.85      .9975
     364    365            0      .0000       60231.85      .9975
     365    366            0      .0000       60231.85      .9975
     366    367            0      .0000       60231.85      .9975
     367    368            0      .0000       60231.85      .9975
     368    369      .399858      .0000       60232.25      .9975
     369    370            0      .0000       60232.25      .9975
     370    371            0      .0000       60232.25      .9975
     371    372            0      .0000       60232.25      .9975
     372    373      .808983      .0000       60233.05      .9975
     373    374      .319796      .0000       60233.37      .9975
     374    375            0      .0000       60233.37      .9975
     375    376            0      .0000       60233.37      .9975
     376    377            0      .0000       60233.37      .9975
     377    378            0      .0000       60233.37      .9975
     378    379            0      .0000       60233.37      .9975
     379    380            0      .0000       60233.37      .9975
     380    381      .355292      .0000       60233.73      .9975
     381    382            0      .0000       60233.73      .9975
     382    383      .319741      .0000       60234.05      .9975
     383    384     1.059657      .0000       60235.11      .9976
     384    385            0      .0000       60235.11      .9976
     385    386            0      .0000       60235.11      .9976
     386    387            0      .0000       60235.11      .9976
     387    388            0      .0000       60235.11      .9976
     388    389     2.228363      .0000       60237.33      .9976
     389    390      .536546      .0000       60237.87      .9976
     390    391            0      .0000       60237.87      .9976
     391    392            0      .0000       60237.87      .9976
     392    393            0      .0000       60237.87      .9976
     393    394     4.447709      .0001       60242.32      .9977
     394    395      6.24376      .0001       60248.56      .9978
     395    396            0      .0000       60248.56      .9978
     396    397      .345599      .0000       60248.91      .9978
     397    398     3.512295      .0001       60252.42      .9979
     398    399     9.030619      .0001       60261.45      .9980
     399    400            0      .0000       60261.45      .9980
     400    401            0      .0000       60261.45      .9980
     401    402            0      .0000       60261.45      .9980
     402    403            0      .0000       60261.45      .9980
     403    404      .552805      .0000          60262      .9980
     404    405      .892928      .0000        60262.9      .9980
     405    406            0      .0000        60262.9      .9980
     406    407            0      .0000        60262.9      .9980
     407    408      .667916      .0000       60263.57      .9980
     408    409            0      .0000       60263.57      .9980
     409    410            0      .0000       60263.57      .9980
     410    411            0      .0000       60263.57      .9980
     411    412            0      .0000       60263.57      .9980
     412    413            0      .0000       60263.57      .9980
     413    414            0      .0000       60263.57      .9980
     414    415     2.270242      .0000       60265.83      .9981
     415    416            0      .0000       60265.83      .9981
     416    417            0      .0000       60265.83      .9981
     417    418            0      .0000       60265.83      .9981
     418    419            0      .0000       60265.83      .9981
     419    420            0      .0000       60265.83      .9981
     420    421            0      .0000       60265.83      .9981
     421    422            0      .0000       60265.83      .9981
     422    423            0      .0000       60265.83      .9981
     423    424            0      .0000       60265.83      .9981
     424    425            0      .0000       60265.83      .9981
     425    426            0      .0000       60265.83      .9981
     426    427            0      .0000       60265.83      .9981
     427    428            0      .0000       60265.83      .9981
     428    429            0      .0000       60265.83      .9981
     429    430            0      .0000       60265.83      .9981
     430    431            0      .0000       60265.83      .9981
     431    432            0      .0000       60265.83      .9981
     432    433            0      .0000       60265.83      .9981
     433    434            0      .0000       60265.83      .9981
     434    435            0      .0000       60265.83      .9981
     435    436            0      .0000       60265.83      .9981
     436    437            0      .0000       60265.83      .9981
     437    438            0      .0000       60265.83      .9981
     438    439            0      .0000       60265.83      .9981
     439    440            0      .0000       60265.83      .9981
     440    441            0      .0000       60265.83      .9981
     441    442            0      .0000       60265.83      .9981
     442    443            0      .0000       60265.83      .9981
     443    444            0      .0000       60265.83      .9981
     444    445            0      .0000       60265.83      .9981
     445    446            0      .0000       60265.83      .9981
     446    447            0      .0000       60265.83      .9981
     447    448            0      .0000       60265.83      .9981
     448    449            0      .0000       60265.83      .9981
     449    450            0      .0000       60265.83      .9981
     450    451            0      .0000       60265.83      .9981
     451    452            0      .0000       60265.83      .9981
     452    453            0      .0000       60265.83      .9981
     453    454            0      .0000       60265.83      .9981
     454    455            0      .0000       60265.83      .9981
     455    456            0      .0000       60265.83      .9981
     456    457            0      .0000       60265.83      .9981
     457    458            0      .0000       60265.83      .9981
     458    459            0      .0000       60265.83      .9981
     459    460            0      .0000       60265.83      .9981
     460    461            0      .0000       60265.83      .9981
     461    462            0      .0000       60265.83      .9981
     462    463            0      .0000       60265.83      .9981
     463    464            0      .0000       60265.83      .9981
     464    465            0      .0000       60265.83      .9981
     465    466            0      .0000       60265.83      .9981
     466    467            0      .0000       60265.83      .9981
     467    468            0      .0000       60265.83      .9981
     468    469            0      .0000       60265.83      .9981
     469    470            0      .0000       60265.83      .9981
     470    471            0      .0000       60265.83      .9981
     471    472            0      .0000       60265.83      .9981
     472    473            0      .0000       60265.83      .9981
     473    474            0      .0000       60265.83      .9981
     474    475            0      .0000       60265.83      .9981
     475    476            0      .0000       60265.83      .9981
     476    477            0      .0000       60265.83      .9981
     477    478            0      .0000       60265.83      .9981
     478    479            0      .0000       60265.83      .9981
     479    480            0      .0000       60265.83      .9981
     480    481            0      .0000       60265.83      .9981
     481    482            0      .0000       60265.83      .9981
     482    483            0      .0000       60265.83      .9981
     483    484            0      .0000       60265.83      .9981
     484    485            0      .0000       60265.83      .9981
     485    486            0      .0000       60265.83      .9981
     486    487            0      .0000       60265.83      .9981
     487    488            0      .0000       60265.83      .9981
     488    489            0      .0000       60265.83      .9981
     489    490            0      .0000       60265.83      .9981
     490    491            0      .0000       60265.83      .9981
     491    492            0      .0000       60265.83      .9981
     492    493            0      .0000       60265.83      .9981
     493    494            0      .0000       60265.83      .9981
     494    495            0      .0000       60265.83      .9981
     495    496            0      .0000       60265.83      .9981
     496    497            0      .0000       60265.83      .9981
     497    498            0      .0000       60265.83      .9981
     498    499            0      .0000       60265.83      .9981
     499    500            0      .0000       60265.83      .9981


 MATRIX CALCULATIONS
 *******************


 Expression:

  mf01   = mf215 + mf214' + mf219 + mf218'

 Result matrix:         mf01  : temp1                                         Temporary Matrix 1                                                               (18-11-21 10:45:59)

 Data matrices:         mf215 : MND122                                        Mobile AM HBWOB Car                                                              (18-11-21 10:44:19)
                        mf214 : MND121                                        Mobile AM HBWIB Car                                                              (18-11-21 10:44:17)
                        mf219 : MND126                                        Mobile AM HBOOB Car                                                              (18-11-21 10:44:22)
                        mf218 : MND125                                        Mobile AM HBOIB Car                                                              (18-11-21 10:44:21)

 Constraint matrix:     none

 Submatrix:             all origins             all destinations

 Number of expression evaluations:          35721
 Minimum expression value:                .000000   (at      1     23)
 Maximum expression value:         1770813.000000   (at    142    142)
 Average expression value:             422.849426
 Sum of expression values:        15104604.000000


 MATRIX CALCULATIONS
 *******************


 Expression:

  mf02   = mf221 + mf220' + mf912 + mf907'

 Result matrix:         mf02  : temp2                                         Temporary Matrix 2                                                               (18-11-21 10:45:59)

 Data matrices:         mf221 : MND128                                        Mobile AM HBEBOB Car                                                             (18-11-21 10:45:37)
                        mf220 : MND127                                        Mobile AM HBEBIB Car                                                             (18-11-21 10:45:38)
                        mf912 : MND1220                                       Mobile AM HBEDOB Car                                                             (18-11-21 10:44:33)
                        mf907 : MND1219                                       Mobile AM HBEDIB Car                                                             (18-11-21 10:44:31)

 Constraint matrix:     none

 Submatrix:             all origins             all destinations

 Number of expression evaluations:          35721
 Minimum expression value:                .000000   (at      1     22)
 Maximum expression value:          433038.562500   (at    142    142)
 Average expression value:             112.166007
 Sum of expression values:         4006682.000000


 MATRIX CALCULATIONS
 *******************


 Expression:

  mf03   = mf01 + mf02

 Result matrix:         mf03  : temp3                                         Temporary Matrix 3                                                               (18-11-21 10:45:59)

 Data matrices:         mf01  : temp1                                         Temporary Matrix 1                                                               (18-11-21 10:45:59)
                        mf02  : temp2                                         Temporary Matrix 2                                                               (18-11-21 10:45:59)

 Constraint matrix:     none

 Submatrix:             all origins             all destinations

 Number of expression evaluations:          35721
 Minimum expression value:                .000000   (at      1     23)
 Maximum expression value:         2203851.500000   (at    142    142)
 Average expression value:             535.015319
 Sum of expression values:        19111282.000000
