

 Matrix histogram
 ----------------


 data   matrix        mf172 : DSTSK                                    Distance Skim Car                                                               

 weight matrix        mf01  : temp1                                    Weights_Synth_OP                                                                

  all  origins   all  destinations

 constraint matrix    mf10  : temp10                                   Temporary Matrix 10                                                             
          interval  lower:         1
                    upper:         1  include 

 out of range       above: 1.724141
                    below:        0

 statistics         mean : 16.21054
                    std  : 15.09042

    interval        ------density-------      -----cumulative-----
 (from  ,    to)    absolute  normalized      absolute  normalized

       0      1     2760.044      .0113       2760.044      .0113
       1      2     8805.246      .0359       11565.29      .0472
       2      3     16713.11      .0682        28278.4      .1153
       3      4     8136.883      .0332       36415.28      .1485
       4      5     11333.74      .0462       47749.02      .1948
       5      6     9390.075      .0383       57139.09      .2331
       6      7     13218.99      .0539       70358.09      .2870
       7      8     8305.945      .0339       78664.03      .3209
       8      9     9124.357      .0372       87788.39      .3581
       9     10     15298.66      .0624         103087      .4205
      10     11     9657.475      .0394       112744.5      .4599
      11     12     10347.13      .0422       123091.7      .5021
      12     13     9222.154      .0376       132313.8      .5397
      13     14     8424.497      .0344       140738.3      .5741
      14     15     6649.935      .0271       147388.2      .6012
      15     16     9178.503      .0374       156566.7      .6386
      16     17     4824.704      .0197       161391.5      .6583
      17     18     5909.459      .0241       167300.9      .6824
      18     19     7060.383      .0288       174361.3      .7112
      19     20     6034.247      .0246       180395.5      .7358
      20     21     3615.411      .0147       184010.9      .7506
      21     22     5112.214      .0209       189123.2      .7714
      22     23     2672.003      .0109       191795.2      .7823
      23     24     2463.091      .0100       194258.2      .7924
      24     25     3030.611      .0124       197288.9      .8047
      25     26     2051.097      .0084         199340      .8131
      26     27     2695.262      .0110       202035.2      .8241
      27     28     2148.058      .0088       204183.3      .8328
      28     29     2237.219      .0091       206420.5      .8420
      29     30      2937.17      .0120       209357.7      .8539
      30     31      2820.88      .0115       212178.5      .8654
      31     32     2519.374      .0103       214697.9      .8757
      32     33     2621.656      .0107       217319.6      .8864
      33     34     2516.018      .0103       219835.6      .8967
      34     35     1445.566      .0059       221281.2      .9026
      35     36     1658.909      .0068       222940.1      .9093
      36     37     877.1835      .0036       223817.2      .9129
      37     38     1514.612      .0062       225331.9      .9191
      38     39     1569.604      .0064       226901.5      .9255
      39     40     1394.009      .0057       228295.5      .9312
      40     41     838.6442      .0034       229134.1      .9346
      41     42     1207.498      .0049       230341.6      .9395
      42     43     890.3378      .0036         231232      .9432
      43     44     972.3928      .0040       232204.4      .9471
      44     45     887.0833      .0036       233091.4      .9507
      45     46     948.5134      .0039         234040      .9546
      46     47     528.9807      .0022       234568.9      .9568
      47     48      543.496      .0022       235112.4      .9590
      48     49      417.689      .0017       235530.1      .9607
      49     50     1138.559      .0046       236668.7      .9653
      50     51      539.997      .0022       237208.7      .9675
      51     52      533.173      .0022       237741.9      .9697
      52     53     317.3472      .0013       238059.2      .9710
      53     54     423.2584      .0017       238482.5      .9727
      54     55     1105.097      .0045       239587.6      .9772
      55     56     607.6032      .0025       240195.2      .9797
      56     57     429.6302      .0018       240624.8      .9815
      57     58     361.3541      .0015       240986.2      .9829
      58     59     349.5565      .0014       241335.7      .9844
      59     60     214.0692      .0009       241549.8      .9852
      60     61     189.0574      .0008       241738.8      .9860
      61     62     149.6415      .0006       241888.5      .9866
      62     63     143.4525      .0006       242031.9      .9872
      63     64     160.5587      .0007       242192.5      .9879
      64     65      176.343      .0007       242368.8      .9886
      65     66     153.9104      .0006       242522.7      .9892
      66     67      146.292      .0006         242669      .9898
      67     68     167.6155      .0007       242836.7      .9905
      68     69     129.7103      .0005       242966.4      .9910
      69     70     114.9163      .0005       243081.3      .9915
      70     71     77.27604      .0003       243158.6      .9918
      71     72     101.8381      .0004       243260.4      .9922
      72     73     94.13365      .0004       243354.5      .9926
      73     74     118.8234      .0005       243473.4      .9931
      74     75     83.95035      .0003       243557.3      .9934
      75     76     75.44034      .0003       243632.8      .9937
      76     77     66.12995      .0003       243698.9      .9940
      77     78     45.37232      .0002       243744.3      .9942
      78     79     46.12973      .0002       243790.4      .9944
      79     80     43.79797      .0002       243834.2      .9946
      80     81     52.03087      .0002       243886.2      .9948
      81     82     189.2854      .0008       244075.5      .9955
      82     83     16.78264      .0001       244092.3      .9956
      83     84     52.69866      .0002         244145      .9958
      84     85     26.76649      .0001       244171.7      .9959
      85     86     42.71974      .0002       244214.5      .9961
      86     87     54.48833      .0002         244269      .9963
      87     88     21.22128      .0001       244290.2      .9964
      88     89     16.67607      .0001       244306.8      .9965
      89     90     39.25113      .0002       244346.1      .9967
      90     91     82.49847      .0003       244428.6      .9970
      91     92     47.64788      .0002       244476.2      .9972
      92     93     22.38769      .0001       244498.6      .9973
      93     94     31.99558      .0001       244530.6      .9974
      94     95     13.95819      .0001       244544.6      .9975
      95     96     15.02445      .0001       244559.6      .9975
      96     97     26.50098      .0001       244586.1      .9976
      97     98     24.83577      .0001       244610.9      .9977
      98     99     19.49325      .0001       244630.4      .9978
      99    100      20.6834      .0001       244651.1      .9979
     100    101     17.86851      .0001         244669      .9980
     101    102     13.91023      .0001       244682.9      .9980
     102    103     12.36769      .0001       244695.3      .9981
     103    104     7.399052      .0000       244702.7      .9981
     104    105     6.704155      .0000       244709.4      .9981
     105    106     12.10583      .0000       244721.5      .9982
     106    107     8.940957      .0000       244730.4      .9982
     107    108     5.634485      .0000       244736.1      .9982
     108    109     4.977981      .0000       244741.1      .9983
     109    110     4.571921      .0000       244745.6      .9983
     110    111     8.758584      .0000       244754.4      .9983
     111    112     5.933912      .0000       244760.3      .9983
     112    113     18.03094      .0001       244778.4      .9984
     113    114     13.10251      .0001       244791.5      .9985
     114    115     8.464182      .0000         244800      .9985
     115    116     23.50373      .0001       244823.5      .9986
     116    117     6.066607      .0000       244829.5      .9986
     117    118     20.89457      .0001       244850.4      .9987
     118    119       32.851      .0001       244883.2      .9988
     119    120     10.61631      .0000       244893.9      .9989
     120    121      14.6529      .0001       244908.5      .9989
     121    122     9.485724      .0000         244918      .9990
     122    123     14.79859      .0001       244932.8      .9990
     123    124     7.149464      .0000         244940      .9991
     124    125     10.80103      .0000       244950.7      .9991
     125    126     7.731474      .0000       244958.5      .9992
     126    127     5.756317      .0000       244964.2      .9992
     127    128     5.264982      .0000       244969.5      .9992
     128    129     8.928061      .0000       244978.4      .9992
     129    130     6.830822      .0000       244985.2      .9993
     130    131     5.611674      .0000       244990.9      .9993
     131    132     5.084705      .0000       244995.9      .9993
     132    133     5.000863      .0000       245000.9      .9993
     133    134     17.58462      .0001       245018.5      .9994
     134    135     7.763464      .0000       245026.3      .9994
     135    136     4.427819      .0000       245030.7      .9994
     136    137     2.387429      .0000       245033.1      .9995
     137    138     1.341046      .0000       245034.4      .9995
     138    139     3.886503      .0000       245038.3      .9995
     139    140     3.438177      .0000       245041.8      .9995
     140    141     3.529666      .0000       245045.3      .9995
     141    142     2.842343      .0000       245048.1      .9995
     142    143      6.43676      .0000       245054.6      .9995
     143    144     5.276089      .0000       245059.9      .9996
     144    145     3.024115      .0000       245062.9      .9996
     145    146     10.52105      .0000       245073.4      .9996
     146    147     4.276665      .0000       245077.7      .9996
     147    148     1.560364      .0000       245079.2      .9996
     148    149     1.381278      .0000       245080.6      .9996
     149    150     3.107535      .0000       245083.7      .9997
     150    151     1.148295      .0000       245084.9      .9997
     151    152      .809217      .0000       245085.7      .9997
     152    153      .123364      .0000       245085.8      .9997
     153    154      .192469      .0000         245086      .9997
     154    155     1.163359      .0000       245087.2      .9997
     155    156     1.080712      .0000       245088.2      .9997
     156    157      .611473      .0000       245088.8      .9997
     157    158     2.934637      .0000       245091.8      .9997
     158    159      .849419      .0000       245092.6      .9997
     159    160      .878352      .0000       245093.5      .9997
     160    161      .063381      .0000       245093.6      .9997
     161    162      .580263      .0000       245094.1      .9997
     162    163      .081693      .0000       245094.2      .9997
     163    164     1.996954      .0000       245096.2      .9997
     164    165     2.313095      .0000       245098.5      .9997
     165    166     1.093216      .0000       245099.6      .9997
     166    167     1.851071      .0000       245101.5      .9997
     167    168      1.23155      .0000       245102.7      .9997
     168    169      .683727      .0000       245103.4      .9997
     169    170      .731486      .0000       245104.1      .9997
     170    171      .647607      .0000       245104.8      .9997
     171    172      .831906      .0000       245105.6      .9998
     172    173      .210292      .0000       245105.8      .9998
     173    174     1.013465      .0000       245106.8      .9998
     174    175      .536421      .0000       245107.3      .9998
     175    176      .223615      .0000       245107.6      .9998
     176    177      .069398      .0000       245107.6      .9998
     177    178      .047812      .0000       245107.7      .9998
     178    179      .991924      .0000       245108.7      .9998
     179    180     1.127032      .0000       245109.8      .9998
     180    181      .698651      .0000       245110.5      .9998
     181    182      1.90916      .0000       245112.4      .9998
     182    183      .004951      .0000       245112.4      .9998
     183    184            0      .0000       245112.4      .9998
     184    185      .679844      .0000       245113.1      .9998
     185    186      .845835      .0000       245113.9      .9998
     186    187      .136157      .0000       245114.1      .9998
     187    188      .959754      .0000         245115      .9998
     188    189      .509208      .0000       245115.5      .9998
     189    190     1.225923      .0000       245116.7      .9998
     190    191      .343054      .0000       245117.1      .9998
     191    192      .832438      .0000       245117.9      .9998
     192    193      .187943      .0000       245118.1      .9998
     193    194      .082423      .0000       245118.2      .9998
     194    195     1.556409      .0000       245119.7      .9998
     195    196      .711781      .0000       245120.5      .9998
     196    197      .731795      .0000       245121.2      .9998
     197    198      .540233      .0000       245121.7      .9998
     198    199      .090511      .0000       245121.8      .9998
     199    200      .174857      .0000         245122      .9998
     200    201     1.426916      .0000       245123.4      .9998
     201    202      .176432      .0000       245123.6      .9998
     202    203      .063446      .0000       245123.7      .9998
     203    204       .40185      .0000       245124.1      .9998
     204    205       .30916      .0000       245124.4      .9998
     205    206      .249161      .0000       245124.6      .9998
     206    207            0      .0000       245124.6      .9998
     207    208            0      .0000       245124.6      .9998
     208    209     1.015065      .0000       245125.7      .9998
     209    210      .211939      .0000       245125.9      .9998
     210    211            0      .0000       245125.9      .9998
     211    212            0      .0000       245125.9      .9998
     212    213            0      .0000       245125.9      .9998
     213    214      .485924      .0000       245126.4      .9998
     214    215      .097895      .0000       245126.5      .9998
     215    216      .165491      .0000       245126.6      .9998
     216    217      .423434      .0000         245127      .9998
     217    218       .91614      .0000         245128      .9998
     218    219      .378596      .0000       245128.3      .9998
     219    220      .053023      .0000       245128.4      .9998
     220    221      .027817      .0000       245128.4      .9998
     221    222            0      .0000       245128.4      .9998
     222    223      .497743      .0000       245128.9      .9998
     223    224            0      .0000       245128.9      .9998
     224    225            0      .0000       245128.9      .9998
     225    226            0      .0000       245128.9      .9998
     226    227            0      .0000       245128.9      .9998
     227    228      .736994      .0000       245129.7      .9998
     228    229     1.272672      .0000       245130.9      .9999
     229    230      .491264      .0000       245131.4      .9999
     230    231            0      .0000       245131.4      .9999
     231    232      .449549      .0000       245131.9      .9999
     232    233      .270453      .0000       245132.1      .9999
     233    234            0      .0000       245132.1      .9999
     234    235            0      .0000       245132.1      .9999
     235    236            0      .0000       245132.1      .9999
     236    237            0      .0000       245132.1      .9999
     237    238            0      .0000       245132.1      .9999
     238    239      .425421      .0000       245132.5      .9999
     239    240      .427777      .0000         245133      .9999
     240    241      .388507      .0000       245133.4      .9999
     241    242      .080892      .0000       245133.4      .9999
     242    243            0      .0000       245133.4      .9999
     243    244      .104185      .0000       245133.5      .9999
     244    245      .055438      .0000       245133.6      .9999
     245    246      .255257      .0000       245133.9      .9999
     246    247            0      .0000       245133.9      .9999
     247    248      .375191      .0000       245134.2      .9999
     248    249            0      .0000       245134.2      .9999
     249    250            0      .0000       245134.2      .9999
     250    251            0      .0000       245134.2      .9999
     251    252            0      .0000       245134.2      .9999
     252    253            0      .0000       245134.2      .9999
     253    254      .760628      .0000         245135      .9999
     254    255            0      .0000         245135      .9999
     255    256            0      .0000         245135      .9999
     256    257            0      .0000         245135      .9999
     257    258            0      .0000         245135      .9999
     258    259            0      .0000         245135      .9999
     259    260      .258434      .0000       245135.3      .9999
     260    261      .282468      .0000       245135.5      .9999
     261    262      .409083      .0000         245136      .9999
     262    263     1.115538      .0000       245137.1      .9999
     263    264      .437234      .0000       245137.5      .9999
     264    265       .11684      .0000       245137.6      .9999
     265    266      .253137      .0000       245137.9      .9999
     266    267      .578449      .0000       245138.4      .9999
     267    268      .125271      .0000       245138.6      .9999
     268    269      .399912      .0000         245139      .9999
     269    270     1.056195      .0000         245140      .9999
     270    271      .025388      .0000       245140.1      .9999
     271    272      .153725      .0000       245140.2      .9999
     272    273      .442211      .0000       245140.7      .9999
     273    274      .210063      .0000       245140.9      .9999
     274    275      .259644      .0000       245141.1      .9999
     275    276      .806628      .0000       245141.9      .9999
     276    277      .923115      .0000       245142.9      .9999
     277    278      .937348      .0000       245143.8      .9999
     278    279      .452742      .0000       245144.2      .9999
     279    280        .3189      .0000       245144.6      .9999
     280    281      .180996      .0000       245144.7      .9999
     281    282      .215843      .0000         245145      .9999
     282    283            0      .0000         245145      .9999
     283    284      .013733      .0000         245145      .9999
     284    285      .322197      .0000       245145.3      .9999
     285    286      .378158      .0000       245145.7      .9999
     286    287     2.835077      .0000       245148.5      .9999
     287    288      .134875      .0000       245148.7      .9999
     288    289      .529587      .0000       245149.2      .9999
     289    290            0      .0000       245149.2      .9999
     290    291      .040439      .0000       245149.2      .9999
     291    292      .256322      .0000       245149.5      .9999
     292    293     2.456641      .0000       245151.9      .9999
     293    294      .634308      .0000       245152.6      .9999
     294    295      .469717      .0000         245153      .9999
     295    296       .04217      .0000       245153.1      .9999
     296    297            0      .0000       245153.1      .9999
     297    298     1.566116      .0000       245154.7     1.0000
     298    299      .594524      .0000       245155.2     1.0000
     299    300      .258743      .0000       245155.5     1.0000
     300    301      .246546      .0000       245155.8     1.0000
     301    302      .209658      .0000         245156     1.0000
     302    303      .129948      .0000       245156.1     1.0000
     303    304      .020146      .0000       245156.1     1.0000
     304    305      .046118      .0000       245156.2     1.0000
     305    306      .670927      .0000       245156.8     1.0000
     306    307       .60169      .0000       245157.4     1.0000
     307    308      .181999      .0000       245157.6     1.0000
     308    309       .22464      .0000       245157.8     1.0000
     309    310            0      .0000       245157.8     1.0000
     310    311            0      .0000       245157.8     1.0000
     311    312      .209102      .0000         245158     1.0000
     312    313      .267759      .0000       245158.3     1.0000
     313    314      .758179      .0000       245159.1     1.0000
     314    315      .483115      .0000       245159.6     1.0000
     315    316       .34359      .0000       245159.9     1.0000
     316    317            0      .0000       245159.9     1.0000
     317    318            0      .0000       245159.9     1.0000
     318    319            0      .0000       245159.9     1.0000
     319    320            0      .0000       245159.9     1.0000
     320    321            0      .0000       245159.9     1.0000
     321    322            0      .0000       245159.9     1.0000
     322    323            0      .0000       245159.9     1.0000
     323    324      .044388      .0000         245160     1.0000
     324    325      .512178      .0000       245160.5     1.0000
     325    326      .305936      .0000       245160.8     1.0000
     326    327      .400515      .0000       245161.2     1.0000
     327    328      .166204      .0000       245161.4     1.0000
     328    329            0      .0000       245161.4     1.0000
     329    330            0      .0000       245161.4     1.0000
     330    331      .192889      .0000       245161.5     1.0000
     331    332            0      .0000       245161.5     1.0000
     332    333            0      .0000       245161.5     1.0000
     333    334      .529101      .0000       245162.1     1.0000
     334    335      .239138      .0000       245162.3     1.0000
     335    336      .212755      .0000       245162.5     1.0000
     336    337            0      .0000       245162.5     1.0000
     337    338            0      .0000       245162.5     1.0000
     338    339       .20506      .0000       245162.7     1.0000
     339    340      .436356      .0000       245163.2     1.0000
     340    341      .391487      .0000       245163.6     1.0000
     341    342            0      .0000       245163.6     1.0000
     342    343            0      .0000       245163.6     1.0000
     343    344            0      .0000       245163.6     1.0000
     344    345            0      .0000       245163.6     1.0000
     345    346            0      .0000       245163.6     1.0000
     346    347            0      .0000       245163.6     1.0000
     347    348            0      .0000       245163.6     1.0000
     348    349            0      .0000       245163.6     1.0000
     349    350            0      .0000       245163.6     1.0000
     350    351            0      .0000       245163.6     1.0000
     351    352            0      .0000       245163.6     1.0000
     352    353            0      .0000       245163.6     1.0000
     353    354            0      .0000       245163.6     1.0000
     354    355            0      .0000       245163.6     1.0000
     355    356            0      .0000       245163.6     1.0000
     356    357            0      .0000       245163.6     1.0000
     357    358            0      .0000       245163.6     1.0000
     358    359            0      .0000       245163.6     1.0000
     359    360            0      .0000       245163.6     1.0000
     360    361            0      .0000       245163.6     1.0000
     361    362            0      .0000       245163.6     1.0000
     362    363            0      .0000       245163.6     1.0000
     363    364            0      .0000       245163.6     1.0000
     364    365            0      .0000       245163.6     1.0000
     365    366            0      .0000       245163.6     1.0000
     366    367            0      .0000       245163.6     1.0000
     367    368            0      .0000       245163.6     1.0000
     368    369            0      .0000       245163.6     1.0000
     369    370            0      .0000       245163.6     1.0000
     370    371            0      .0000       245163.6     1.0000
     371    372            0      .0000       245163.6     1.0000
     372    373            0      .0000       245163.6     1.0000
     373    374            0      .0000       245163.6     1.0000
     374    375            0      .0000       245163.6     1.0000
     375    376            0      .0000       245163.6     1.0000
     376    377            0      .0000       245163.6     1.0000
     377    378            0      .0000       245163.6     1.0000
     378    379            0      .0000       245163.6     1.0000
     379    380      .175479      .0000       245163.7     1.0000
     380    381            0      .0000       245163.7     1.0000
     381    382            0      .0000       245163.7     1.0000
     382    383            0      .0000       245163.7     1.0000
     383    384      .230714      .0000         245164     1.0000
     384    385            0      .0000         245164     1.0000
     385    386            0      .0000         245164     1.0000
     386    387            0      .0000         245164     1.0000
     387    388            0      .0000         245164     1.0000
     388    389            0      .0000         245164     1.0000
     389    390            0      .0000         245164     1.0000
     390    391      .460619      .0000       245164.4     1.0000
     391    392            0      .0000       245164.4     1.0000
     392    393            0      .0000       245164.4     1.0000
     393    394      .510665      .0000       245164.9     1.0000
     394    395            0      .0000       245164.9     1.0000
     395    396            0      .0000       245164.9     1.0000
     396    397            0      .0000       245164.9     1.0000
     397    398            0      .0000       245164.9     1.0000
     398    399            0      .0000       245164.9     1.0000
     399    400            0      .0000       245164.9     1.0000
     400    401            0      .0000       245164.9     1.0000
     401    402            0      .0000       245164.9     1.0000
     402    403            0      .0000       245164.9     1.0000
     403    404            0      .0000       245164.9     1.0000
     404    405            0      .0000       245164.9     1.0000
     405    406            0      .0000       245164.9     1.0000
     406    407            0      .0000       245164.9     1.0000
     407    408            0      .0000       245164.9     1.0000
     408    409            0      .0000       245164.9     1.0000
     409    410            0      .0000       245164.9     1.0000
     410    411            0      .0000       245164.9     1.0000
     411    412            0      .0000       245164.9     1.0000
     412    413            0      .0000       245164.9     1.0000
     413    414            0      .0000       245164.9     1.0000
     414    415            0      .0000       245164.9     1.0000
     415    416            0      .0000       245164.9     1.0000
     416    417            0      .0000       245164.9     1.0000
     417    418            0      .0000       245164.9     1.0000
     418    419            0      .0000       245164.9     1.0000
     419    420            0      .0000       245164.9     1.0000
     420    421            0      .0000       245164.9     1.0000
     421    422            0      .0000       245164.9     1.0000
     422    423            0      .0000       245164.9     1.0000
     423    424            0      .0000       245164.9     1.0000
     424    425            0      .0000       245164.9     1.0000
     425    426            0      .0000       245164.9     1.0000
     426    427            0      .0000       245164.9     1.0000
     427    428            0      .0000       245164.9     1.0000
     428    429            0      .0000       245164.9     1.0000
     429    430            0      .0000       245164.9     1.0000
     430    431            0      .0000       245164.9     1.0000
     431    432            0      .0000       245164.9     1.0000
     432    433            0      .0000       245164.9     1.0000
     433    434            0      .0000       245164.9     1.0000
     434    435            0      .0000       245164.9     1.0000
     435    436            0      .0000       245164.9     1.0000
     436    437            0      .0000       245164.9     1.0000
     437    438            0      .0000       245164.9     1.0000
     438    439            0      .0000       245164.9     1.0000
     439    440            0      .0000       245164.9     1.0000
     440    441            0      .0000       245164.9     1.0000
     441    442            0      .0000       245164.9     1.0000
     442    443            0      .0000       245164.9     1.0000
     443    444            0      .0000       245164.9     1.0000
     444    445            0      .0000       245164.9     1.0000
     445    446            0      .0000       245164.9     1.0000
     446    447            0      .0000       245164.9     1.0000
     447    448            0      .0000       245164.9     1.0000
     448    449            0      .0000       245164.9     1.0000
     449    450            0      .0000       245164.9     1.0000
     450    451            0      .0000       245164.9     1.0000
     451    452            0      .0000       245164.9     1.0000
     452    453            0      .0000       245164.9     1.0000
     453    454            0      .0000       245164.9     1.0000
     454    455            0      .0000       245164.9     1.0000
     455    456            0      .0000       245164.9     1.0000
     456    457            0      .0000       245164.9     1.0000
     457    458            0      .0000       245164.9     1.0000
     458    459            0      .0000       245164.9     1.0000
     459    460            0      .0000       245164.9     1.0000
     460    461            0      .0000       245164.9     1.0000
     461    462            0      .0000       245164.9     1.0000
     462    463            0      .0000       245164.9     1.0000
     463    464            0      .0000       245164.9     1.0000
     464    465            0      .0000       245164.9     1.0000
     465    466            0      .0000       245164.9     1.0000
     466    467            0      .0000       245164.9     1.0000
     467    468            0      .0000       245164.9     1.0000
     468    469            0      .0000       245164.9     1.0000
     469    470            0      .0000       245164.9     1.0000
     470    471            0      .0000       245164.9     1.0000
     471    472            0      .0000       245164.9     1.0000
     472    473            0      .0000       245164.9     1.0000
     473    474            0      .0000       245164.9     1.0000
     474    475            0      .0000       245164.9     1.0000
     475    476            0      .0000       245164.9     1.0000
     476    477            0      .0000       245164.9     1.0000
     477    478            0      .0000       245164.9     1.0000
     478    479            0      .0000       245164.9     1.0000
     479    480            0      .0000       245164.9     1.0000
     480    481            0      .0000       245164.9     1.0000
     481    482            0      .0000       245164.9     1.0000
     482    483            0      .0000       245164.9     1.0000
     483    484            0      .0000       245164.9     1.0000
     484    485            0      .0000       245164.9     1.0000
     485    486            0      .0000       245164.9     1.0000
     486    487            0      .0000       245164.9     1.0000
     487    488            0      .0000       245164.9     1.0000
     488    489            0      .0000       245164.9     1.0000
     489    490            0      .0000       245164.9     1.0000
     490    491            0      .0000       245164.9     1.0000
     491    492            0      .0000       245164.9     1.0000
     492    493            0      .0000       245164.9     1.0000
     493    494            0      .0000       245164.9     1.0000
     494    495            0      .0000       245164.9     1.0000
     495    496            0      .0000       245164.9     1.0000
     496    497            0      .0000       245164.9     1.0000
     497    498            0      .0000       245164.9     1.0000
     498    499            0      .0000       245164.9     1.0000
     499    500            0      .0000       245164.9     1.0000


 MATRIX CALCULATIONS
 *******************


 Expression:

  mf01   = 0

 Result matrix:         mf01  : temp1                                         Weights_Synth_OP                                                                 (18-11-21 14:31:05)

 Constraint matrix:     none

 Submatrix:             all origins             all destinations

 Number of expression evaluations:         982081
 Minimum expression value:                .000000   (at   1001   1001)
 Maximum expression value:                .000000   (at   1001   1001)
 Average expression value:                .000000
 Sum of expression values:                .000000


 MATRIX CALCULATIONS
 *******************


 Expression:

  mf01   = mf355 + mf354'

 Result matrix:         mf01  : temp1                                         Weights_Synth_OP                                                                 (18-11-21 14:31:05)

 Data matrices:         mf355 : MNDL126                                       MND AM HBOOB Car                                                                 (18-11-21 14:30:02)
                        mf354 : MNDL125                                       MND AM HBOIB Car                                                                 (18-11-21 14:30:01)

 Constraint matrix:     none

 Submatrix:             all origins             all destinations

 Number of expression evaluations:         982081
 Minimum expression value:                .000000   (at   1001   1304)
 Maximum expression value:          877719.437500   (at   2803   2803)
 Average expression value:               7.693816
 Sum of expression values:         7555950.000000
