

 Matrix histogram
 ----------------


 data   matrix        mf795 : DSTSK2                                   Distance Skim Car                                                               

 weight matrix        mf01  : temp1                                    Temporary Matrix 1                                                              

  all  origins   all  destinations

 constraint matrix    mf10  : temp10                                   Temporary Matrix 10                                                             
          interval  lower:         1
                    upper:         1  include 

 out of range       above: 749.2693
                    below:        0

 statistics         mean : 77.57835
                    std  : 109.8636

    interval        ------density-------      -----cumulative-----
 (from  ,    to)    absolute  normalized      absolute  normalized

       0      1     1030.029      .0215       1030.029      .0215
       1      2     1006.958      .0211       2036.987      .0426
       2      3     1504.985      .0315       3541.972      .0741
       3      4     743.5284      .0155         4285.5      .0896
       4      5     385.8339      .0081       4671.334      .0977
       5      6     1028.389      .0215       5699.723      .1192
       6      7     1362.053      .0285       7061.776      .1477
       7      8     501.1766      .0105       7562.953      .1582
       8      9     651.9738      .0136       8214.927      .1718
       9     10     451.7366      .0094       8666.664      .1812
      10     11     512.7984      .0107       9179.462      .1920
      11     12     1068.999      .0224       10248.46      .2143
      12     13     736.4526      .0154       10984.91      .2297
      13     14     1124.508      .0235       12109.42      .2532
      14     15     685.9097      .0143       12795.33      .2676
      15     16     1112.508      .0233       13907.84      .2909
      16     17     1313.944      .0275       15221.78      .3183
      17     18     1292.732      .0270       16514.52      .3454
      18     19     1017.784      .0213        17532.3      .3667
      19     20     537.0417      .0112       18069.34      .3779
      20     21     415.0794      .0087       18484.42      .3866
      21     22     467.4594      .0098       18951.88      .3963
      22     23     570.8028      .0119       19522.68      .4083
      23     24     600.2444      .0126       20122.93      .4208
      24     25     662.6981      .0139       20785.63      .4347
      25     26      271.478      .0057        21057.1      .4404
      26     27     755.1791      .0158       21812.28      .4562
      27     28     429.7591      .0090       22242.04      .4652
      28     29     546.1079      .0114       22788.15      .4766
      29     30     1651.863      .0345       24440.01      .5111
      30     31     409.8178      .0086       24849.83      .5197
      31     32     502.3847      .0105       25352.22      .5302
      32     33     284.1036      .0059       25636.32      .5361
      33     34     258.1152      .0054       25894.44      .5415
      34     35     297.5444      .0062       26191.98      .5478
      35     36     398.4983      .0083       26590.48      .5561
      36     37     243.3868      .0051       26833.87      .5612
      37     38     817.6159      .0171       27651.48      .5783
      38     39     201.8285      .0042       27853.31      .5825
      39     40     156.4606      .0033       28009.77      .5858
      40     41     130.9892      .0027       28140.76      .5885
      41     42     312.4288      .0065       28453.19      .5950
      42     43     283.6956      .0059       28736.88      .6010
      43     44     168.4079      .0035       28905.29      .6045
      44     45     214.4305      .0045       29119.72      .6090
      45     46     157.3449      .0033       29277.07      .6123
      46     47     67.55075      .0014       29344.62      .6137
      47     48     268.2311      .0056       29612.85      .6193
      48     49     122.5587      .0026       29735.41      .6219
      49     50     411.4305      .0086       30146.84      .6305
      50     51     106.0699      .0022       30252.91      .6327
      51     52     170.0379      .0036       30422.94      .6362
      52     53     123.3047      .0026       30546.25      .6388
      53     54      95.3774      .0020       30641.63      .6408
      54     55     102.8985      .0022       30744.52      .6430
      55     56     231.9808      .0049        30976.5      .6478
      56     57     319.9337      .0067       31296.44      .6545
      57     58     126.8351      .0027       31423.27      .6572
      58     59     241.4909      .0051       31664.76      .6622
      59     60     151.5676      .0032       31816.33      .6654
      60     61     94.47537      .0020       31910.81      .6674
      61     62     176.3935      .0037        32087.2      .6710
      62     63     127.4041      .0027        32214.6      .6737
      63     64     132.1469      .0028       32346.75      .6765
      64     65     106.3893      .0022       32453.14      .6787
      65     66     147.1813      .0031       32600.32      .6818
      66     67     96.94905      .0020       32697.27      .6838
      67     68     131.5588      .0028       32828.83      .6866
      68     69     319.0644      .0067       33147.89      .6932
      69     70     163.3859      .0034       33311.28      .6966
      70     71     69.03781      .0014       33380.32      .6981
      71     72     108.6032      .0023       33488.92      .7004
      72     73     108.4639      .0023       33597.38      .7026
      73     74     128.2452      .0027       33725.63      .7053
      74     75     125.0832      .0026       33850.71      .7079
      75     76     87.18657      .0018        33937.9      .7098
      76     77     121.0323      .0025       34058.93      .7123
      77     78      44.6089      .0009       34103.54      .7132
      78     79      53.6041      .0011       34157.14      .7143
      79     80     160.4115      .0034       34317.55      .7177
      80     81     161.7886      .0034       34479.34      .7211
      81     82     163.4598      .0034        34642.8      .7245
      82     83     53.02392      .0011       34695.83      .7256
      83     84     89.43421      .0019       34785.26      .7275
      84     85     51.18846      .0011       34836.45      .7285
      85     86     31.05304      .0006        34867.5      .7292
      86     87     172.2023      .0036       35039.71      .7328
      87     88      71.8235      .0015       35111.53      .7343
      88     89     21.67667      .0005       35133.21      .7348
      89     90     71.69311      .0015        35204.9      .7363
      90     91     173.5241      .0036       35378.42      .7399
      91     92     250.2761      .0052        35628.7      .7451
      92     93     127.1706      .0027       35755.87      .7478
      93     94     148.0531      .0031       35903.92      .7509
      94     95     20.75492      .0004       35924.68      .7513
      95     96     75.49482      .0016       36000.17      .7529
      96     97     69.64469      .0015       36069.82      .7543
      97     98     225.7024      .0047       36295.52      .7591
      98     99     116.7995      .0024       36412.32      .7615
      99    100     41.60891      .0009       36453.93      .7624
     100    101     76.91059      .0016       36530.84      .7640
     101    102      40.6095      .0008       36571.45      .7648
     102    103     76.89062      .0016       36648.34      .7664
     103    104     53.02869      .0011       36701.37      .7675
     104    105     114.4072      .0024       36815.78      .7699
     105    106     124.4519      .0026       36940.23      .7725
     106    107     42.82858      .0009       36983.06      .7734
     107    108     26.67183      .0006       37009.73      .7740
     108    109      35.4755      .0007       37045.21      .7747
     109    110      35.3888      .0007        37080.6      .7755
     110    111     53.57162      .0011       37134.17      .7766
     111    112     78.39557      .0016       37212.56      .7782
     112    113     77.67243      .0016       37290.23      .7799
     113    114     191.2974      .0040       37481.53      .7839
     114    115     33.60401      .0007       37515.14      .7846
     115    116     115.6563      .0024       37630.79      .7870
     116    117      36.6481      .0008       37667.44      .7878
     117    118     57.30493      .0012       37724.75      .7889
     118    119     138.3686      .0029       37863.11      .7918
     119    120     76.30871      .0016       37939.42      .7934
     120    121     62.55022      .0013       38001.97      .7947
     121    122     62.79455      .0013       38064.76      .7961
     122    123     138.5326      .0029        38203.3      .7990
     123    124     108.3607      .0023       38311.66      .8012
     124    125     81.15198      .0017       38392.81      .8029
     125    126     96.22654      .0020       38489.03      .8049
     126    127     70.16921      .0015        38559.2      .8064
     127    128      80.2356      .0017       38639.44      .8081
     128    129     74.87419      .0016       38714.31      .8096
     129    130     123.4543      .0026       38837.76      .8122
     130    131     81.23593      .0017          38919      .8139
     131    132     80.70124      .0017        38999.7      .8156
     132    133     51.93516      .0011       39051.64      .8167
     133    134     141.7551      .0030       39193.39      .8197
     134    135     100.1582      .0021       39293.55      .8218
     135    136     89.51965      .0019       39383.07      .8236
     136    137     53.14707      .0011       39436.21      .8247
     137    138     70.94536      .0015       39507.16      .8262
     138    139     140.0567      .0029       39647.22      .8292
     139    140     52.63859      .0011       39699.85      .8303
     140    141     73.20174      .0015       39773.06      .8318
     141    142      26.8761      .0006       39799.93      .8323
     142    143      85.3396      .0018       39885.27      .8341
     143    144     50.18648      .0010       39935.46      .8352
     144    145     95.69312      .0020       40031.15      .8372
     145    146     82.64318      .0017        40113.8      .8389
     146    147     113.7151      .0024       40227.51      .8413
     147    148     63.94747      .0013       40291.46      .8426
     148    149     60.61655      .0013       40352.08      .8439
     149    150     46.53684      .0010       40398.61      .8449
     150    151      60.3758      .0013       40458.99      .8461
     151    152     16.23158      .0003       40475.22      .8465
     152    153     63.45714      .0013       40538.67      .8478
     153    154     40.57498      .0008       40579.25      .8486
     154    155      42.3011      .0009       40621.55      .8495
     155    156     99.66869      .0021       40721.22      .8516
     156    157      110.426      .0023       40831.64      .8539
     157    158     81.80767      .0017       40913.45      .8556
     158    159     70.30611      .0015       40983.76      .8571
     159    160     51.31715      .0011       41035.07      .8582
     160    161     21.38005      .0004       41056.45      .8586
     161    162     25.62607      .0005       41082.08      .8592
     162    163      59.7371      .0012       41141.82      .8604
     163    164     37.72605      .0008       41179.54      .8612
     164    165      65.2245      .0014       41244.76      .8626
     165    166     26.69551      .0006       41271.46      .8631
     166    167     9.947265      .0002       41281.41      .8633
     167    168     57.42551      .0012       41338.83      .8645
     168    169     29.81711      .0006       41368.65      .8652
     169    170     27.09724      .0006       41395.75      .8657
     170    171     62.24129      .0013       41457.99      .8670
     171    172     6.796369      .0001       41464.78      .8672
     172    173     42.59617      .0009       41507.38      .8681
     173    174     66.45811      .0014       41573.84      .8694
     174    175     16.79772      .0004       41590.64      .8698
     175    176     3.848811      .0001       41594.48      .8699
     176    177     34.96647      .0007       41629.45      .8706
     177    178     6.597191      .0001       41636.05      .8707
     178    179     9.655552      .0002        41645.7      .8709
     179    180       21.417      .0004       41667.12      .8714
     180    181     26.15444      .0005       41693.28      .8719
     181    182     15.81259      .0003       41709.09      .8723
     182    183     35.44722      .0007       41744.53      .8730
     183    184     30.44827      .0006       41774.98      .8737
     184    185     43.10541      .0009       41818.09      .8746
     185    186     15.11573      .0003       41833.21      .8749
     186    187     16.56176      .0003       41849.77      .8752
     187    188     29.31692      .0006       41879.08      .8758
     188    189     4.426416      .0001       41883.51      .8759
     189    190     1.240895      .0000       41884.75      .8759
     190    191     14.94848      .0003        41899.7      .8763
     191    192      15.2515      .0003       41914.95      .8766
     192    193     33.75679      .0007       41948.71      .8773
     193    194     7.632459      .0002       41956.34      .8774
     194    195     18.89873      .0004       41975.24      .8778
     195    196     25.63552      .0005       42000.88      .8784
     196    197     19.59808      .0004       42020.48      .8788
     197    198     10.08748      .0002       42030.56      .8790
     198    199     19.24575      .0004       42049.81      .8794
     199    200     36.30533      .0008       42086.11      .8802
     200    201     21.90081      .0005       42108.01      .8806
     201    202     15.74232      .0003       42123.76      .8809
     202    203     8.124941      .0002       42131.88      .8811
     203    204      12.9573      .0003       42144.84      .8814
     204    205     18.52252      .0004       42163.36      .8818
     205    206     31.02326      .0006       42194.39      .8824
     206    207     18.98554      .0004       42213.37      .8828
     207    208     7.068799      .0001       42220.44      .8830
     208    209     48.17037      .0010       42268.61      .8840
     209    210     4.041115      .0001       42272.66      .8841
     210    211     12.01267      .0003       42284.67      .8843
     211    212     13.51507      .0003       42298.18      .8846
     212    213     13.91046      .0003       42312.09      .8849
     213    214      26.6079      .0006        42338.7      .8854
     214    215     20.58618      .0004       42359.29      .8859
     215    216     1.973851      .0000       42361.26      .8859
     216    217     11.68136      .0002       42372.94      .8862
     217    218     9.452388      .0002       42382.39      .8864
     218    219     32.22958      .0007       42414.62      .8870
     219    220     22.45496      .0005       42437.08      .8875
     220    221     13.41906      .0003        42450.5      .8878
     221    222     4.093222      .0001       42454.59      .8879
     222    223     9.445976      .0002       42464.03      .8881
     223    224     14.29518      .0003       42478.33      .8884
     224    225     21.53496      .0005       42499.87      .8888
     225    226      1.42043      .0000       42501.29      .8888
     226    227     31.68235      .0007       42532.97      .8895
     227    228     7.162627      .0001       42540.14      .8897
     228    229     6.513782      .0001       42546.65      .8898
     229    230     31.08875      .0007       42577.74      .8904
     230    231      .886217      .0000       42578.63      .8905
     231    232     13.89965      .0003       42592.53      .8908
     232    233     17.66644      .0004       42610.19      .8911
     233    234     30.66588      .0006       42640.86      .8918
     234    235     20.19977      .0004       42661.06      .8922
     235    236     12.73756      .0003        42673.8      .8924
     236    237     39.89216      .0008       42713.69      .8933
     237    238     18.17255      .0004       42731.86      .8937
     238    239     9.990047      .0002       42741.85      .8939
     239    240     23.54327      .0005       42765.39      .8944
     240    241      3.20219      .0001       42768.59      .8944
     241    242     17.84475      .0004       42786.44      .8948
     242    243     47.40338      .0010       42833.84      .8958
     243    244     15.70516      .0003       42849.55      .8961
     244    245     4.200049      .0001       42853.75      .8962
     245    246     6.802931      .0001       42860.55      .8964
     246    247     11.00293      .0002       42871.55      .8966
     247    248      24.8199      .0005       42896.37      .8971
     248    249     38.98479      .0008       42935.36      .8979
     249    250     1.880654      .0000       42937.24      .8980
     250    251     17.07339      .0004       42954.31      .8983
     251    252     20.37952      .0004       42974.69      .8987
     252    253     70.14275      .0015       43044.83      .9002
     253    254     80.06064      .0017        43124.9      .9019
     254    255     41.15369      .0009       43166.05      .9027
     255    256     19.07172      .0004       43185.12      .9031
     256    257     31.63486      .0007       43216.76      .9038
     257    258     13.49815      .0003       43230.26      .9041
     258    259     57.17948      .0012       43287.44      .9053
     259    260      74.0442      .0015       43361.48      .9068
     260    261     49.79129      .0010       43411.27      .9079
     261    262     38.20283      .0008       43449.48      .9087
     262    263     100.1327      .0021       43549.61      .9108
     263    264     30.61553      .0006       43580.23      .9114
     264    265     20.23184      .0004       43600.46      .9118
     265    266     39.73697      .0008       43640.19      .9127
     266    267      14.0675      .0003       43654.26      .9130
     267    268      20.9005      .0004       43675.16      .9134
     268    269     32.48105      .0007       43707.64      .9141
     269    270     24.21956      .0005       43731.86      .9146
     270    271      24.6275      .0005       43756.49      .9151
     271    272     12.26638      .0003       43768.76      .9153
     272    273     3.263385      .0001       43772.02      .9154
     273    274     66.36067      .0014       43838.38      .9168
     274    275     61.64978      .0013       43900.03      .9181
     275    276     53.85518      .0011       43953.88      .9192
     276    277     73.95075      .0015       44027.83      .9208
     277    278     169.6474      .0035       44197.48      .9243
     278    279     17.11962      .0004        44214.6      .9247
     279    280      22.2874      .0005       44236.89      .9251
     280    281     40.71541      .0009        44277.6      .9260
     281    282     7.041996      .0001       44284.65      .9261
     282    283     37.23702      .0008       44321.89      .9269
     283    284      31.5676      .0007       44353.45      .9276
     284    285     13.09098      .0003       44366.54      .9279
     285    286     199.7919      .0042       44566.33      .9320
     286    287     20.38475      .0004       44586.72      .9325
     287    288     58.31564      .0012       44645.03      .9337
     288    289     2.211108      .0000       44647.25      .9337
     289    290     6.719969      .0001       44653.96      .9339
     290    291     71.58486      .0015       44725.55      .9354
     291    292     15.30249      .0003       44740.85      .9357
     292    293      .792416      .0000       44741.64      .9357
     293    294     2.474132      .0001       44744.12      .9357
     294    295     8.739489      .0002       44752.85      .9359
     295    296     77.81274      .0016       44830.67      .9376
     296    297     4.075395      .0001       44834.74      .9376
     297    298     64.73292      .0014       44899.48      .9390
     298    299     54.89595      .0011       44954.37      .9401
     299    300     31.07958      .0006       44985.45      .9408
     300    301            0      .0000       44985.45      .9408
     301    302     5.234963      .0001       44990.68      .9409
     302    303     6.449441      .0001       44997.13      .9410
     303    304     41.92458      .0009       45039.06      .9419
     304    305     20.75979      .0004       45059.82      .9423
     305    306     88.58073      .0019        45148.4      .9442
     306    307     16.21829      .0003       45164.62      .9445
     307    308      38.1115      .0008       45202.73      .9453
     308    309     12.46119      .0003       45215.19      .9456
     309    310     21.08421      .0004       45236.28      .9460
     310    311     16.72497      .0003       45253.01      .9464
     311    312     38.42224      .0008       45291.43      .9472
     312    313     8.879261      .0002       45300.31      .9474
     313    314     21.35705      .0004       45321.66      .9478
     314    315     32.85975      .0007       45354.52      .9485
     315    316     88.47823      .0019          45443      .9504
     316    317            0      .0000          45443      .9504
     317    318     23.92519      .0005       45466.92      .9509
     318    319      58.9155      .0012       45525.84      .9521
     319    320     42.05641      .0009       45567.89      .9530
     320    321     54.39545      .0011       45622.29      .9541
     321    322     30.87442      .0006       45653.16      .9548
     322    323     20.19708      .0004       45673.36      .9552
     323    324     7.810866      .0002       45681.17      .9553
     324    325     62.49213      .0013       45743.66      .9567
     325    326     94.22213      .0020       45837.89      .9586
     326    327     35.14374      .0007       45873.03      .9594
     327    328     19.93577      .0004       45892.97      .9598
     328    329            0      .0000       45892.97      .9598
     329    330     12.18913      .0003       45905.16      .9600
     330    331     86.60865      .0018       45991.76      .9618
     331    332     150.2957      .0031       46142.06      .9650
     332    333            0      .0000       46142.06      .9650
     333    334     201.5109      .0042       46343.57      .9692
     334    335            0      .0000       46343.57      .9692
     335    336            0      .0000       46343.57      .9692
     336    337            0      .0000       46343.57      .9692
     337    338     4.552958      .0001       46348.13      .9693
     338    339     28.44489      .0006       46376.57      .9699
     339    340            0      .0000       46376.57      .9699
     340    341            0      .0000       46376.57      .9699
     341    342            0      .0000       46376.57      .9699
     342    343            0      .0000       46376.57      .9699
     343    344     222.8583      .0047       46599.43      .9745
     344    345            0      .0000       46599.43      .9745
     345    346            0      .0000       46599.43      .9745
     346    347            0      .0000       46599.43      .9745
     347    348            0      .0000       46599.43      .9745
     348    349            0      .0000       46599.43      .9745
     349    350            0      .0000       46599.43      .9745
     350    351            0      .0000       46599.43      .9745
     351    352            0      .0000       46599.43      .9745
     352    353            0      .0000       46599.43      .9745
     353    354            0      .0000       46599.43      .9745
     354    355     4.916331      .0001       46604.35      .9747
     355    356            0      .0000       46604.35      .9747
     356    357            0      .0000       46604.35      .9747
     357    358     114.1582      .0024       46718.51      .9770
     358    359     1.681421      .0000       46720.19      .9771
     359    360     1.763096      .0000       46721.95      .9771
     360    361            0      .0000       46721.95      .9771
     361    362            0      .0000       46721.95      .9771
     362    363            0      .0000       46721.95      .9771
     363    364            0      .0000       46721.95      .9771
     364    365            0      .0000       46721.95      .9771
     365    366            0      .0000       46721.95      .9771
     366    367            0      .0000       46721.95      .9771
     367    368     6.097536      .0001       46728.05      .9772
     368    369      2.45611      .0001       46730.51      .9773
     369    370     1.177317      .0000       46731.68      .9773
     370    371            0      .0000       46731.68      .9773
     371    372            0      .0000       46731.68      .9773
     372    373     11.90323      .0002       46743.58      .9776
     373    374     1.556874      .0000       46745.14      .9776
     374    375            0      .0000       46745.14      .9776
     375    376            0      .0000       46745.14      .9776
     376    377      1.59359      .0000       46746.74      .9776
     377    378      .883318      .0000       46747.62      .9776
     378    379      9.64557      .0002       46757.26      .9778
     379    380            0      .0000       46757.26      .9778
     380    381     9.175837      .0002       46766.44      .9780
     381    382     4.207877      .0001       46770.65      .9781
     382    383      .841228      .0000       46771.49      .9781
     383    384     10.04359      .0002       46781.53      .9784
     384    385            0      .0000       46781.53      .9784
     385    386            0      .0000       46781.53      .9784
     386    387     3.352026      .0001       46784.88      .9784
     387    388            0      .0000       46784.88      .9784
     388    389     8.722012      .0002        46793.6      .9786
     389    390     7.319974      .0002       46800.92      .9788
     390    391     11.09007      .0002       46812.01      .9790
     391    392            0      .0000       46812.01      .9790
     392    393     2.705912      .0001       46814.72      .9791
     393    394     5.368171      .0001       46820.09      .9792
     394    395     1.390597      .0000       46821.48      .9792
     395    396            0      .0000       46821.48      .9792
     396    397     22.03536      .0005       46843.51      .9797
     397    398     33.64374      .0007       46877.16      .9804
     398    399      13.4216      .0003       46890.58      .9806
     399    400            0      .0000       46890.58      .9806
     400    401      .903287      .0000       46891.48      .9807
     401    402            0      .0000       46891.48      .9807
     402    403        21.01      .0004        46912.5      .9811
     403    404     6.825703      .0001       46919.32      .9812
     404    405     13.62836      .0003       46932.95      .9815
     405    406            0      .0000       46932.95      .9815
     406    407     6.699886      .0001       46939.65      .9817
     407    408     13.28254      .0003       46952.93      .9819
     408    409            0      .0000       46952.93      .9819
     409    410     6.834018      .0001       46959.76      .9821
     410    411     24.96143      .0005       46984.73      .9826
     411    412            0      .0000       46984.73      .9826
     412    413      .799965      .0000       46985.53      .9826
     413    414            0      .0000       46985.53      .9826
     414    415     81.67369      .0017        47067.2      .9843
     415    416            0      .0000        47067.2      .9843
     416    417            0      .0000        47067.2      .9843
     417    418            0      .0000        47067.2      .9843
     418    419            0      .0000        47067.2      .9843
     419    420            0      .0000        47067.2      .9843
     420    421            0      .0000        47067.2      .9843
     421    422            0      .0000        47067.2      .9843
     422    423            0      .0000        47067.2      .9843
     423    424            0      .0000        47067.2      .9843
     424    425            0      .0000        47067.2      .9843
     425    426            0      .0000        47067.2      .9843
     426    427            0      .0000        47067.2      .9843
     427    428            0      .0000        47067.2      .9843
     428    429            0      .0000        47067.2      .9843
     429    430            0      .0000        47067.2      .9843
     430    431            0      .0000        47067.2      .9843
     431    432            0      .0000        47067.2      .9843
     432    433            0      .0000        47067.2      .9843
     433    434            0      .0000        47067.2      .9843
     434    435            0      .0000        47067.2      .9843
     435    436            0      .0000        47067.2      .9843
     436    437            0      .0000        47067.2      .9843
     437    438            0      .0000        47067.2      .9843
     438    439            0      .0000        47067.2      .9843
     439    440            0      .0000        47067.2      .9843
     440    441            0      .0000        47067.2      .9843
     441    442            0      .0000        47067.2      .9843
     442    443            0      .0000        47067.2      .9843
     443    444            0      .0000        47067.2      .9843
     444    445            0      .0000        47067.2      .9843
     445    446            0      .0000        47067.2      .9843
     446    447            0      .0000        47067.2      .9843
     447    448            0      .0000        47067.2      .9843
     448    449            0      .0000        47067.2      .9843
     449    450            0      .0000        47067.2      .9843
     450    451            0      .0000        47067.2      .9843
     451    452            0      .0000        47067.2      .9843
     452    453            0      .0000        47067.2      .9843
     453    454            0      .0000        47067.2      .9843
     454    455            0      .0000        47067.2      .9843
     455    456            0      .0000        47067.2      .9843
     456    457            0      .0000        47067.2      .9843
     457    458            0      .0000        47067.2      .9843
     458    459            0      .0000        47067.2      .9843
     459    460            0      .0000        47067.2      .9843
     460    461            0      .0000        47067.2      .9843
     461    462            0      .0000        47067.2      .9843
     462    463            0      .0000        47067.2      .9843
     463    464            0      .0000        47067.2      .9843
     464    465            0      .0000        47067.2      .9843
     465    466            0      .0000        47067.2      .9843
     466    467            0      .0000        47067.2      .9843
     467    468            0      .0000        47067.2      .9843
     468    469            0      .0000        47067.2      .9843
     469    470            0      .0000        47067.2      .9843
     470    471            0      .0000        47067.2      .9843
     471    472            0      .0000        47067.2      .9843
     472    473            0      .0000        47067.2      .9843
     473    474            0      .0000        47067.2      .9843
     474    475            0      .0000        47067.2      .9843
     475    476            0      .0000        47067.2      .9843
     476    477            0      .0000        47067.2      .9843
     477    478            0      .0000        47067.2      .9843
     478    479            0      .0000        47067.2      .9843
     479    480            0      .0000        47067.2      .9843
     480    481            0      .0000        47067.2      .9843
     481    482            0      .0000        47067.2      .9843
     482    483            0      .0000        47067.2      .9843
     483    484            0      .0000        47067.2      .9843
     484    485            0      .0000        47067.2      .9843
     485    486            0      .0000        47067.2      .9843
     486    487            0      .0000        47067.2      .9843
     487    488            0      .0000        47067.2      .9843
     488    489            0      .0000        47067.2      .9843
     489    490            0      .0000        47067.2      .9843
     490    491            0      .0000        47067.2      .9843
     491    492            0      .0000        47067.2      .9843
     492    493            0      .0000        47067.2      .9843
     493    494            0      .0000        47067.2      .9843
     494    495            0      .0000        47067.2      .9843
     495    496            0      .0000        47067.2      .9843
     496    497            0      .0000        47067.2      .9843
     497    498            0      .0000        47067.2      .9843
     498    499            0      .0000        47067.2      .9843
     499    500            0      .0000        47067.2      .9843


 MATRIX CALCULATIONS
 *******************


 Expression:

  mf01   = 0

 Result matrix:         mf01  : temp1                                         Temporary Matrix 1                                                               (18-11-21 10:44:48)

 Constraint matrix:     none

 Submatrix:             all origins             all destinations

 Number of expression evaluations:          35721
 Minimum expression value:                .000000   (at      1      1)
 Maximum expression value:                .000000   (at      1      1)
 Average expression value:                .000000
 Sum of expression values:                .000000


 MATRIX CALCULATIONS
 *******************


 Expression:

  mf01   = mf913 + mf908'

 Result matrix:         mf01  : temp1                                         Temporary Matrix 1                                                               (18-11-21 10:44:49)

 Data matrices:         mf913 : MND2220                                       Mobile IP HBEDOB Car                                                             (18-11-21 10:44:33)
                        mf908 : MND2219                                       Mobile IP HBEDIB Car                                                             (18-11-21 10:44:31)

 Constraint matrix:     none

 Submatrix:             all origins             all destinations

 Number of expression evaluations:          35721
 Minimum expression value:                .000000   (at      1     22)
 Maximum expression value:          524656.750000   (at    142    142)
 Average expression value:             128.782287
 Sum of expression values:         4600232.000000
