

 Matrix histogram
 ----------------


 data   matrix        mf795 : DSTSK2                                   Distance Skim Car                                                               

 weight matrix        mf01  : temp1                                    Temporary Matrix 1                                                              

  all  origins   all  destinations

 constraint matrix    mf10  : temp10                                   Temporary Matrix 10                                                             
          interval  lower:         1
                    upper:         1  include 

 out of range       above:  158.333
                    below:        0

 statistics         mean :  42.7376
                    std  : 63.77007

    interval        ------density-------      -----cumulative-----
 (from  ,    to)    absolute  normalized      absolute  normalized

       0      1     1030.568      .0235       1030.568      .0235
       1      2     1007.509      .0230       2038.077      .0466
       2      3     1506.328      .0344       3544.405      .0810
       3      4     744.4451      .0170        4288.85      .0980
       4      5      376.303      .0086       4665.153      .1066
       5      6     1128.185      .0258       5793.338      .1323
       6      7     1372.317      .0313       7165.655      .1637
       7      8     561.5811      .0128       7727.236      .1765
       8      9     792.5314      .0181       8519.768      .1946
       9     10     554.7318      .0127         9074.5      .2073
      10     11     606.1566      .0138       9680.656      .2211
      11     12      1307.31      .0299       10987.96      .2510
      12     13     879.6962      .0201       11867.66      .2711
      13     14      1342.11      .0307       13209.77      .3017
      14     15     894.7046      .0204       14104.48      .3222
      15     16     1280.333      .0292       15384.81      .3514
      16     17     1612.103      .0368       16996.91      .3882
      17     18     1495.629      .0342       18492.54      .4224
      18     19     1259.104      .0288       19751.65      .4512
      19     20     651.7407      .0149       20403.39      .4660
      20     21      484.239      .0111       20887.62      .4771
      21     22     575.8331      .0132       21463.46      .4903
      22     23     650.2031      .0149       22113.66      .5051
      23     24     699.7358      .0160        22813.4      .5211
      24     25     873.3237      .0199       23686.72      .5410
      25     26     296.9627      .0068       23983.68      .5478
      26     27     801.4936      .0183       24785.18      .5661
      27     28     576.3148      .0132       25361.49      .5793
      28     29     541.7506      .0124       25903.24      .5917
      29     30     1395.164      .0319       27298.41      .6235
      30     31     477.8147      .0109       27776.22      .6344
      31     32     647.5058      .0148       28423.73      .6492
      32     33     333.2439      .0076       28756.97      .6569
      33     34     311.5653      .0071       29068.54      .6640
      34     35     401.3303      .0092       29469.87      .6731
      35     36     508.4705      .0116       29978.34      .6847
      36     37     312.5209      .0071       30290.86      .6919
      37     38     732.1868      .0167       31023.05      .7086
      38     39     277.1829      .0063       31300.23      .7149
      39     40     179.4777      .0041       31479.71      .7190
      40     41      154.794      .0035        31634.5      .7226
      41     42     300.4829      .0069       31934.99      .7294
      42     43     283.0865      .0065       32218.07      .7359
      43     44     271.8506      .0062       32489.92      .7421
      44     45     362.5845      .0083        32852.5      .7504
      45     46     196.0328      .0045       33048.53      .7549
      46     47     93.38822      .0021       33141.92      .7570
      47     48     280.3939      .0064       33422.32      .7634
      48     49     203.6109      .0047       33625.92      .7681
      49     50     325.4341      .0074       33951.36      .7755
      50     51     158.1876      .0036       34109.55      .7791
      51     52     216.7017      .0049       34326.25      .7841
      52     53     149.1987      .0034       34475.45      .7875
      53     54     115.4979      .0026       34590.94      .7901
      54     55     168.9228      .0039       34759.87      .7940
      55     56     259.6611      .0059       35019.53      .7999
      56     57     266.8564      .0061       35286.38      .8060
      57     58     128.1653      .0029       35414.55      .8089
      58     59     195.1745      .0045       35609.72      .8134
      59     60     138.3269      .0032       35748.05      .8165
      60     61     107.4025      .0025       35855.45      .8190
      61     62     133.1549      .0030       35988.61      .8220
      62     63     102.8994      .0024       36091.51      .8244
      63     64     134.2268      .0031       36225.73      .8274
      64     65     102.4901      .0023       36328.22      .8298
      65     66     112.7093      .0026       36440.93      .8324
      66     67     94.00509      .0021       36534.94      .8345
      67     68     143.9141      .0033       36678.85      .8378
      68     69     237.3363      .0054       36916.19      .8432
      69     70     128.5027      .0029       37044.69      .8462
      70     71     60.29082      .0014       37104.98      .8475
      71     72     124.9024      .0029       37229.88      .8504
      72     73     88.21025      .0020       37318.09      .8524
      73     74     89.59631      .0020       37407.69      .8544
      74     75     106.3264      .0024       37514.02      .8569
      75     76     63.56377      .0015       37577.58      .8583
      76     77     82.62152      .0019        37660.2      .8602
      77     78      41.2232      .0009       37701.42      .8612
      78     79     37.06958      .0008        37738.5      .8620
      79     80     97.20522      .0022        37835.7      .8642
      80     81      99.1174      .0023       37934.82      .8665
      81     82     175.8251      .0040       38110.64      .8705
      82     83     51.51289      .0012       38162.16      .8717
      83     84     61.88526      .0014       38224.04      .8731
      84     85      31.9215      .0007       38255.96      .8738
      85     86     22.76919      .0005       38278.73      .8743
      86     87     119.9723      .0027       38398.71      .8771
      87     88     53.66168      .0012       38452.37      .8783
      88     89     20.18864      .0005       38472.55      .8788
      89     90     48.61679      .0011       38521.17      .8799
      90     91     139.3049      .0032       38660.48      .8831
      91     92      159.242      .0036       38819.72      .8867
      92     93     81.99563      .0019       38901.71      .8886
      93     94     100.7179      .0023       39002.43      .8909
      94     95     14.69875      .0003       39017.13      .8912
      95     96     76.57897      .0017       39093.71      .8930
      96     97     45.06016      .0010       39138.77      .8940
      97     98     151.3683      .0035       39290.14      .8974
      98     99     83.87306      .0019       39374.01      .8994
      99    100     30.79259      .0007        39404.8      .9001
     100    101     63.78571      .0015       39468.59      .9015
     101    102     40.38183      .0009       39508.97      .9024
     102    103      39.1666      .0009       39548.14      .9033
     103    104     38.78552      .0009       39586.92      .9042
     104    105     88.05512      .0020       39674.98      .9062
     105    106     67.51934      .0015        39742.5      .9078
     106    107     28.93507      .0007       39771.43      .9084
     107    108     34.63374      .0008       39806.07      .9092
     108    109     23.47961      .0005       39829.55      .9098
     109    110     22.21793      .0005       39851.76      .9103
     110    111     48.55801      .0011       39900.32      .9114
     111    112     55.19962      .0013       39955.52      .9126
     112    113     46.75442      .0011       40002.28      .9137
     113    114     114.6343      .0026       40116.91      .9163
     114    115     20.40704      .0005       40137.32      .9168
     115    116     71.92348      .0016       40209.24      .9184
     116    117     36.74219      .0008       40245.98      .9193
     117    118     46.84915      .0011       40292.83      .9203
     118    119     85.75629      .0020       40378.58      .9223
     119    120     46.60235      .0011       40425.19      .9234
     120    121     46.25851      .0011       40471.44      .9244
     121    122     49.53078      .0011       40520.98      .9256
     122    123     55.43925      .0013       40576.41      .9268
     123    124     52.99069      .0012       40629.41      .9280
     124    125     46.39074      .0011        40675.8      .9291
     125    126     42.20308      .0010          40718      .9301
     126    127     38.05229      .0009       40756.05      .9309
     127    128     33.81223      .0008       40789.86      .9317
     128    129     42.34193      .0010       40832.21      .9327
     129    130      50.6405      .0012       40882.85      .9338
     130    131     33.32464      .0008       40916.17      .9346
     131    132     44.06296      .0010       40960.23      .9356
     132    133     39.09554      .0009       40999.33      .9365
     133    134     84.51705      .0019       41083.84      .9384
     134    135     39.38059      .0009       41123.22      .9393
     135    136     40.16168      .0009       41163.38      .9402
     136    137     38.79557      .0009       41202.18      .9411
     137    138     31.54518      .0007       41233.73      .9418
     138    139     51.71078      .0012       41285.44      .9430
     139    140     24.60809      .0006       41310.05      .9436
     140    141     39.78906      .0009       41349.83      .9445
     141    142      18.4007      .0004       41368.24      .9449
     142    143     48.36748      .0011        41416.6      .9460
     143    144     48.98598      .0011       41465.59      .9471
     144    145     31.72293      .0007       41497.31      .9479
     145    146     34.32728      .0008       41531.64      .9486
     146    147      48.1462      .0011       41579.78      .9497
     147    148      29.3918      .0007       41609.17      .9504
     148    149     22.77202      .0005       41631.95      .9509
     149    150     32.50534      .0007       41664.45      .9517
     150    151       26.138      .0006       41690.59      .9523
     151    152     17.86343      .0004       41708.45      .9527
     152    153     24.96897      .0006       41733.42      .9533
     153    154     23.82973      .0005       41757.25      .9538
     154    155     15.34871      .0004        41772.6      .9541
     155    156     39.69296      .0009       41812.29      .9551
     156    157     48.51246      .0011        41860.8      .9562
     157    158     39.38445      .0009       41900.18      .9571
     158    159     35.04058      .0008       41935.22      .9579
     159    160     22.83055      .0005       41958.05      .9584
     160    161     14.23109      .0003       41972.28      .9587
     161    162     11.49494      .0003       41983.78      .9590
     162    163      32.0534      .0007       42015.83      .9597
     163    164     25.21435      .0006       42041.05      .9603
     164    165     25.20222      .0006       42066.25      .9609
     165    166     9.160254      .0002       42075.41      .9611
     166    167     5.091812      .0001       42080.51      .9612
     167    168     26.40498      .0006       42106.91      .9618
     168    169     20.66521      .0005       42127.58      .9623
     169    170     8.510036      .0002       42136.09      .9624
     170    171     25.53193      .0006       42161.62      .9630
     171    172            0      .0000       42161.62      .9630
     172    173     23.99015      .0005       42185.61      .9636
     173    174     22.12539      .0005       42207.73      .9641
     174    175     7.607287      .0002       42215.34      .9643
     175    176     3.281908      .0001       42218.62      .9643
     176    177     11.40907      .0003       42230.03      .9646
     177    178     2.468489      .0001        42232.5      .9647
     178    179      11.0124      .0003       42243.51      .9649
     179    180     3.161989      .0001       42246.67      .9650
     180    181     13.90039      .0003       42260.57      .9653
     181    182     11.74521      .0003       42272.32      .9656
     182    183     19.96845      .0005       42292.28      .9660
     183    184       9.5282      .0002       42301.81      .9662
     184    185     17.97292      .0004       42319.78      .9666
     185    186     1.386296      .0000       42321.17      .9667
     186    187     9.754714      .0002       42330.92      .9669
     187    188     12.97548      .0003        42343.9      .9672
     188    189     3.802556      .0001        42347.7      .9673
     189    190      .612467      .0000       42348.32      .9673
     190    191     4.175505      .0001       42352.49      .9674
     191    192     9.533288      .0002       42362.03      .9676
     192    193     14.98216      .0003       42377.01      .9680
     193    194     8.881088      .0002       42385.89      .9682
     194    195     2.230317      .0001       42388.12      .9682
     195    196     4.579183      .0001        42392.7      .9683
     196    197     4.139597      .0001       42396.84      .9684
     197    198     6.558447      .0001        42403.4      .9686
     198    199     13.69289      .0003       42417.09      .9689
     199    200     7.896041      .0002       42424.98      .9690
     200    201     4.997838      .0001       42429.98      .9692
     201    202     4.511228      .0001       42434.49      .9693
     202    203     2.328382      .0001       42436.82      .9693
     203    204      3.20078      .0001       42440.02      .9694
     204    205     5.674737      .0001       42445.69      .9695
     205    206     18.94953      .0004       42464.64      .9700
     206    207     5.032145      .0001       42469.67      .9701
     207    208     3.890965      .0001       42473.57      .9702
     208    209     16.42465      .0004       42489.99      .9705
     209    210     3.458076      .0001       42493.45      .9706
     210    211     6.957046      .0002       42500.41      .9708
     211    212     7.615545      .0002       42508.02      .9709
     212    213     10.30865      .0002       42518.33      .9712
     213    214     8.161838      .0002       42526.49      .9714
     214    215     7.944134      .0002       42534.44      .9715
     215    216            0      .0000       42534.44      .9715
     216    217      .908749      .0000       42535.35      .9716
     217    218     4.509499      .0001       42539.85      .9717
     218    219     12.51819      .0003       42552.37      .9720
     219    220      4.85058      .0001       42557.23      .9721
     220    221     1.012988      .0000       42558.24      .9721
     221    222            0      .0000       42558.24      .9721
     222    223     2.747319      .0001       42560.98      .9722
     223    224     7.698256      .0002       42568.68      .9723
     224    225     4.834918      .0001       42573.52      .9724
     225    226            0      .0000       42573.52      .9724
     226    227     6.236759      .0001       42579.76      .9726
     227    228     2.792359      .0001       42582.55      .9726
     228    229      .800171      .0000       42583.35      .9727
     229    230     8.173493      .0002       42591.52      .9729
     230    231      .795375      .0000       42592.32      .9729
     231    232     5.262816      .0001       42597.58      .9730
     232    233     3.119914      .0001        42600.7      .9731
     233    234      10.0157      .0002       42610.72      .9733
     234    235     5.684795      .0001        42616.4      .9734
     235    236     5.781679      .0001       42622.18      .9736
     236    237     13.01017      .0003       42635.19      .9739
     237    238     3.249926      .0001       42638.44      .9739
     238    239     3.725086      .0001       42642.17      .9740
     239    240     6.738902      .0002       42648.91      .9742
     240    241            0      .0000       42648.91      .9742
     241    242     4.878074      .0001       42653.79      .9743
     242    243     14.75848      .0003       42668.55      .9746
     243    244     4.800411      .0001       42673.35      .9747
     244    245      .700236      .0000       42674.05      .9747
     245    246     6.029261      .0001       42680.07      .9749
     246    247     6.712469      .0002       42686.78      .9750
     247    248     7.437169      .0002       42694.22      .9752
     248    249     13.74109      .0003       42707.96      .9755
     249    250     3.437851      .0001        42711.4      .9756
     250    251     5.878038      .0001       42717.28      .9757
     251    252      7.18432      .0002       42724.46      .9759
     252    253     12.57944      .0003       42737.04      .9762
     253    254     20.22479      .0005       42757.27      .9766
     254    255       8.5829      .0002       42765.85      .9768
     255    256     4.143377      .0001          42770      .9769
     256    257     6.009956      .0001       42776.01      .9771
     257    258     3.487348      .0001        42779.5      .9771
     258    259     12.59411      .0003       42792.09      .9774
     259    260     18.86888      .0004       42810.96      .9779
     260    261     12.34087      .0003        42823.3      .9781
     261    262     9.827005      .0002       42833.12      .9784
     262    263     22.88528      .0005       42856.01      .9789
     263    264     13.55312      .0003       42869.57      .9792
     264    265     6.954037      .0002       42876.52      .9794
     265    266     10.72023      .0002       42887.24      .9796
     266    267     5.406201      .0001       42892.64      .9797
     267    268     12.15848      .0003        42904.8      .9800
     268    269     11.22894      .0003       42916.03      .9803
     269    270     8.898687      .0002       42924.93      .9805
     270    271     4.257479      .0001       42929.19      .9806
     271    272            0      .0000       42929.19      .9806
     272    273      .955633      .0000       42930.15      .9806
     273    274     19.17186      .0004       42949.32      .9810
     274    275     16.66021      .0004       42965.98      .9814
     275    276     12.88159      .0003       42978.86      .9817
     276    277     11.18587      .0003       42990.05      .9820
     277    278      37.3843      .0009       43027.43      .9828
     278    279     2.911312      .0001       43030.34      .9829
     279    280     3.005397      .0001       43033.35      .9829
     280    281     16.29902      .0004       43049.65      .9833
     281    282      4.20033      .0001       43053.85      .9834
     282    283     8.198064      .0002       43062.05      .9836
     283    284     4.527566      .0001       43066.57      .9837
     284    285     1.575077      .0000       43068.15      .9837
     285    286     43.06986      .0010       43111.22      .9847
     286    287     4.830915      .0001       43116.05      .9848
     287    288      12.3496      .0003        43128.4      .9851
     288    289      .696535      .0000       43129.09      .9851
     289    290     2.832696      .0001       43131.92      .9852
     290    291     14.66176      .0003       43146.58      .9855
     291    292     2.484362      .0001       43149.07      .9856
     292    293      .696906      .0000       43149.76      .9856
     293    294            0      .0000       43149.76      .9856
     294    295     6.300055      .0001       43156.07      .9857
     295    296      18.7357      .0004        43174.8      .9862
     296    297     1.386052      .0000       43176.19      .9862
     297    298     17.41813      .0004        43193.6      .9866
     298    299     9.937608      .0002       43203.54      .9868
     299    300     5.570088      .0001       43209.11      .9870
     300    301      .809305      .0000       43209.92      .9870
     301    302     1.600786      .0000       43211.52      .9870
     302    303            0      .0000       43211.52      .9870
     303    304     7.682013      .0002       43219.21      .9872
     304    305      3.33541      .0001       43222.54      .9873
     305    306     18.05308      .0004        43240.6      .9877
     306    307     4.714847      .0001       43245.31      .9878
     307    308     13.30766      .0003       43258.62      .9881
     308    309     7.050268      .0002       43265.67      .9883
     309    310     4.372649      .0001       43270.04      .9884
     310    311     2.251139      .0001       43272.29      .9884
     311    312     10.95506      .0003       43283.25      .9887
     312    313     1.859754      .0000        43285.1      .9887
     313    314     6.540885      .0001       43291.64      .9888
     314    315     5.465771      .0001       43297.11      .9890
     315    316     19.80108      .0005       43316.91      .9894
     316    317            0      .0000       43316.91      .9894
     317    318     5.432142      .0001       43322.34      .9895
     318    319     9.149317      .0002       43331.49      .9898
     319    320     12.50631      .0003          43344      .9900
     320    321     14.11563      .0003       43358.12      .9904
     321    322     5.776387      .0001       43363.89      .9905
     322    323     6.932349      .0002       43370.83      .9907
     323    324      .850034      .0000       43371.68      .9907
     324    325     11.30714      .0003       43382.99      .9909
     325    326      13.8754      .0003       43396.86      .9912
     326    327     8.460029      .0002       43405.32      .9914
     327    328     4.360997      .0001       43409.68      .9915
     328    329            0      .0000       43409.68      .9915
     329    330     1.863904      .0000       43411.55      .9916
     330    331     15.77965      .0004       43427.33      .9919
     331    332     19.50347      .0004       43446.83      .9924
     332    333            0      .0000       43446.83      .9924
     333    334      25.3893      .0006       43472.22      .9930
     334    335            0      .0000       43472.22      .9930
     335    336            0      .0000       43472.22      .9930
     336    337            0      .0000       43472.22      .9930
     337    338            0      .0000       43472.22      .9930
     338    339     3.419498      .0001       43475.64      .9930
     339    340            0      .0000       43475.64      .9930
     340    341            0      .0000       43475.64      .9930
     341    342            0      .0000       43475.64      .9930
     342    343            0      .0000       43475.64      .9930
     343    344     40.60745      .0009       43516.25      .9940
     344    345            0      .0000       43516.25      .9940
     345    346            0      .0000       43516.25      .9940
     346    347            0      .0000       43516.25      .9940
     347    348            0      .0000       43516.25      .9940
     348    349            0      .0000       43516.25      .9940
     349    350            0      .0000       43516.25      .9940
     350    351            0      .0000       43516.25      .9940
     351    352            0      .0000       43516.25      .9940
     352    353            0      .0000       43516.25      .9940
     353    354            0      .0000       43516.25      .9940
     354    355      .678378      .0000       43516.93      .9940
     355    356            0      .0000       43516.93      .9940
     356    357            0      .0000       43516.93      .9940
     357    358     12.41795      .0003       43529.35      .9943
     358    359            0      .0000       43529.35      .9943
     359    360            0      .0000       43529.35      .9943
     360    361            0      .0000       43529.35      .9943
     361    362            0      .0000       43529.35      .9943
     362    363            0      .0000       43529.35      .9943
     363    364            0      .0000       43529.35      .9943
     364    365            0      .0000       43529.35      .9943
     365    366            0      .0000       43529.35      .9943
     366    367            0      .0000       43529.35      .9943
     367    368     2.605774      .0001       43531.95      .9943
     368    369     1.670068      .0000       43533.62      .9944
     369    370     1.171649      .0000        43534.8      .9944
     370    371            0      .0000        43534.8      .9944
     371    372            0      .0000        43534.8      .9944
     372    373     4.223222      .0001       43539.02      .9945
     373    374            0      .0000       43539.02      .9945
     374    375            0      .0000       43539.02      .9945
     375    376            0      .0000       43539.02      .9945
     376    377            0      .0000       43539.02      .9945
     377    378            0      .0000       43539.02      .9945
     378    379     6.505891      .0001       43545.53      .9946
     379    380            0      .0000       43545.53      .9946
     380    381      .878867      .0000       43546.41      .9947
     381    382            0      .0000       43546.41      .9947
     382    383            0      .0000       43546.41      .9947
     383    384     4.445796      .0001       43550.85      .9948
     384    385            0      .0000       43550.85      .9948
     385    386            0      .0000       43550.85      .9948
     386    387     2.079083      .0000       43552.93      .9948
     387    388            0      .0000       43552.93      .9948
     388    389     2.909535      .0001       43555.84      .9949
     389    390     1.400708      .0000       43557.24      .9949
     390    391      4.33696      .0001       43561.58      .9950
     391    392            0      .0000       43561.58      .9950
     392    393            0      .0000       43561.58      .9950
     393    394     3.994609      .0001       43565.57      .9951
     394    395     1.606917      .0000       43567.18      .9951
     395    396            0      .0000       43567.18      .9951
     396    397     3.728896      .0001       43570.91      .9952
     397    398     8.533085      .0002       43579.44      .9954
     398    399     1.510337      .0000       43580.95      .9955
     399    400            0      .0000       43580.95      .9955
     400    401            0      .0000       43580.95      .9955
     401    402            0      .0000       43580.95      .9955
     402    403     4.714245      .0001       43585.67      .9956
     403    404     2.814797      .0001       43588.48      .9956
     404    405      .809597      .0000       43589.29      .9956
     405    406            0      .0000       43589.29      .9956
     406    407     1.609485      .0000        43590.9      .9957
     407    408     3.931299      .0001       43594.83      .9958
     408    409            0      .0000       43594.83      .9958
     409    410     2.512744      .0001       43597.34      .9958
     410    411     8.324636      .0002       43605.67      .9960
     411    412            0      .0000       43605.67      .9960
     412    413      .804893      .0000       43606.47      .9960
     413    414            0      .0000       43606.47      .9960
     414    415     15.23865      .0003       43621.71      .9964
     415    416            0      .0000       43621.71      .9964
     416    417            0      .0000       43621.71      .9964
     417    418            0      .0000       43621.71      .9964
     418    419            0      .0000       43621.71      .9964
     419    420            0      .0000       43621.71      .9964
     420    421            0      .0000       43621.71      .9964
     421    422            0      .0000       43621.71      .9964
     422    423            0      .0000       43621.71      .9964
     423    424            0      .0000       43621.71      .9964
     424    425            0      .0000       43621.71      .9964
     425    426            0      .0000       43621.71      .9964
     426    427            0      .0000       43621.71      .9964
     427    428            0      .0000       43621.71      .9964
     428    429            0      .0000       43621.71      .9964
     429    430            0      .0000       43621.71      .9964
     430    431            0      .0000       43621.71      .9964
     431    432            0      .0000       43621.71      .9964
     432    433            0      .0000       43621.71      .9964
     433    434            0      .0000       43621.71      .9964
     434    435            0      .0000       43621.71      .9964
     435    436            0      .0000       43621.71      .9964
     436    437            0      .0000       43621.71      .9964
     437    438            0      .0000       43621.71      .9964
     438    439            0      .0000       43621.71      .9964
     439    440            0      .0000       43621.71      .9964
     440    441            0      .0000       43621.71      .9964
     441    442            0      .0000       43621.71      .9964
     442    443            0      .0000       43621.71      .9964
     443    444            0      .0000       43621.71      .9964
     444    445            0      .0000       43621.71      .9964
     445    446            0      .0000       43621.71      .9964
     446    447            0      .0000       43621.71      .9964
     447    448            0      .0000       43621.71      .9964
     448    449            0      .0000       43621.71      .9964
     449    450            0      .0000       43621.71      .9964
     450    451            0      .0000       43621.71      .9964
     451    452            0      .0000       43621.71      .9964
     452    453            0      .0000       43621.71      .9964
     453    454            0      .0000       43621.71      .9964
     454    455            0      .0000       43621.71      .9964
     455    456            0      .0000       43621.71      .9964
     456    457            0      .0000       43621.71      .9964
     457    458            0      .0000       43621.71      .9964
     458    459            0      .0000       43621.71      .9964
     459    460            0      .0000       43621.71      .9964
     460    461            0      .0000       43621.71      .9964
     461    462            0      .0000       43621.71      .9964
     462    463            0      .0000       43621.71      .9964
     463    464            0      .0000       43621.71      .9964
     464    465            0      .0000       43621.71      .9964
     465    466            0      .0000       43621.71      .9964
     466    467            0      .0000       43621.71      .9964
     467    468            0      .0000       43621.71      .9964
     468    469            0      .0000       43621.71      .9964
     469    470            0      .0000       43621.71      .9964
     470    471            0      .0000       43621.71      .9964
     471    472            0      .0000       43621.71      .9964
     472    473            0      .0000       43621.71      .9964
     473    474            0      .0000       43621.71      .9964
     474    475            0      .0000       43621.71      .9964
     475    476            0      .0000       43621.71      .9964
     476    477            0      .0000       43621.71      .9964
     477    478            0      .0000       43621.71      .9964
     478    479            0      .0000       43621.71      .9964
     479    480            0      .0000       43621.71      .9964
     480    481            0      .0000       43621.71      .9964
     481    482            0      .0000       43621.71      .9964
     482    483            0      .0000       43621.71      .9964
     483    484            0      .0000       43621.71      .9964
     484    485            0      .0000       43621.71      .9964
     485    486            0      .0000       43621.71      .9964
     486    487            0      .0000       43621.71      .9964
     487    488            0      .0000       43621.71      .9964
     488    489            0      .0000       43621.71      .9964
     489    490            0      .0000       43621.71      .9964
     490    491            0      .0000       43621.71      .9964
     491    492            0      .0000       43621.71      .9964
     492    493            0      .0000       43621.71      .9964
     493    494            0      .0000       43621.71      .9964
     494    495            0      .0000       43621.71      .9964
     495    496            0      .0000       43621.71      .9964
     496    497            0      .0000       43621.71      .9964
     497    498            0      .0000       43621.71      .9964
     498    499            0      .0000       43621.71      .9964
     499    500            0      .0000       43621.71      .9964


 MATRIX CALCULATIONS
 *******************


 Expression:

  mf01   = 0

 Result matrix:         mf01  : temp1                                         Temporary Matrix 1                                                               (18-11-21 10:44:47)

 Constraint matrix:     none

 Submatrix:             all origins             all destinations

 Number of expression evaluations:          35721
 Minimum expression value:                .000000   (at      1      1)
 Maximum expression value:                .000000   (at      1      1)
 Average expression value:                .000000
 Sum of expression values:                .000000


 MATRIX CALCULATIONS
 *******************


 Expression:

  mf01   = mf912 + mf907'

 Result matrix:         mf01  : temp1                                         Temporary Matrix 1                                                               (18-11-21 10:44:47)

 Data matrices:         mf912 : MND1220                                       Mobile AM HBEDOB Car                                                             (18-11-21 10:44:33)
                        mf907 : MND1219                                       Mobile AM HBEDIB Car                                                             (18-11-21 10:44:31)

 Constraint matrix:     none

 Submatrix:             all origins             all destinations

 Number of expression evaluations:          35721
 Minimum expression value:                .000000   (at      1     22)
 Maximum expression value:          337465.187500   (at    142    142)
 Average expression value:              83.112525
 Sum of expression values:         2968862.500000
