

 Matrix histogram
 ----------------


 data   matrix        mf172 : DSTSK                                    Distance Skim Car                                                               

 weight matrix        mf598 : MrgL4211                                 Merged OP NHBEB Car                                                             

  all  origins   all  destinations

 constraint matrix    mf10  : temp10                                   Temporary Matrix 10                                                             
          interval  lower:         1
                    upper:         1  include 

 out of range       above: 127.1389
                    below:        0

 statistics         mean : 63.97032
                    std  : 101.9852

    interval        ------density-------      -----cumulative-----
 (from  ,    to)    absolute  normalized      absolute  normalized

       0      1     320.1556      .0383       320.1556      .0383
       1      2     190.7285      .0228        510.884      .0611
       2      3     252.7341      .0302       763.6182      .0914
       3      4     100.0037      .0120       863.6219      .1034
       4      5      139.457      .0167       1003.079      .1200
       5      6     162.9059      .0195       1165.985      .1395
       6      7     195.9066      .0234       1361.891      .1630
       7      8     153.4383      .0184        1515.33      .1813
       8      9     208.1842      .0249       1723.514      .2063
       9     10     317.7944      .0380       2041.308      .2443
      10     11     148.6968      .0178       2190.005      .2621
      11     12     339.2775      .0406       2529.282      .3027
      12     13     205.9765      .0247       2735.259      .3273
      13     14      131.555      .0157       2866.814      .3431
      14     15     139.2734      .0167       3006.087      .3598
      15     16     241.7052      .0289       3247.793      .3887
      16     17     135.6388      .0162       3383.431      .4049
      17     18     175.7799      .0210       3559.211      .4260
      18     19     168.3561      .0201       3727.568      .4461
      19     20     168.9618      .0202        3896.53      .4663
      20     21     74.48567      .0089       3971.015      .4752
      21     22     119.2491      .0143       4090.264      .4895
      22     23     57.38505      .0069       4147.649      .4964
      23     24     55.32454      .0066       4202.974      .5030
      24     25     67.82414      .0081       4270.798      .5111
      25     26     50.13078      .0060       4320.929      .5171
      26     27      68.4535      .0082       4389.383      .5253
      27     28     94.58507      .0113       4483.968      .5366
      28     29     56.72347      .0068       4540.691      .5434
      29     30     82.28357      .0098       4622.975      .5533
      30     31       90.069      .0108       4713.044      .5640
      31     32     108.3439      .0130       4821.388      .5770
      32     33     64.73361      .0077       4886.121      .5847
      33     34     93.80735      .0112       4979.928      .5960
      34     35     56.35381      .0067       5036.282      .6027
      35     36     76.67879      .0092       5112.961      .6119
      36     37     25.63587      .0031       5138.597      .6150
      37     38     62.80083      .0075       5201.397      .6225
      38     39     56.29238      .0067        5257.69      .6292
      39     40     54.23927      .0065       5311.929      .6357
      40     41     28.92295      .0035       5340.852      .6392
      41     42     49.13532      .0059       5389.987      .6450
      42     43     45.19132      .0054       5435.179      .6505
      43     44      52.9789      .0063       5488.158      .6568
      44     45     46.45423      .0056       5534.612      .6624
      45     46      35.8565      .0043       5570.468      .6666
      46     47     32.89844      .0039       5603.367      .6706
      47     48     51.61994      .0062       5654.987      .6768
      48     49     37.90084      .0045       5692.888      .6813
      49     50     61.88786      .0074       5754.775      .6887
      50     51     38.36757      .0046       5793.143      .6933
      51     52     56.14186      .0067       5849.285      .7000
      52     53     33.73773      .0040       5883.023      .7041
      53     54     37.35419      .0045       5920.377      .7085
      54     55     62.93223      .0075       5983.309      .7161
      55     56     49.45942      .0059       6032.769      .7220
      56     57     37.59111      .0045        6070.36      .7265
      57     58     33.53723      .0040       6103.897      .7305
      58     59     25.09824      .0030       6128.995      .7335
      59     60     27.13898      .0032       6156.134      .7367
      60     61     26.03521      .0031       6182.169      .7399
      61     62     25.84321      .0031       6208.013      .7429
      62     63     19.36114      .0023       6227.374      .7453
      63     64     35.40859      .0042       6262.783      .7495
      64     65     25.79521      .0031       6288.578      .7526
      65     66     23.60495      .0028       6312.183      .7554
      66     67     27.55883      .0033       6339.742      .7587
      67     68     27.86481      .0033       6367.606      .7620
      68     69     26.40766      .0032       6394.014      .7652
      69     70     20.93962      .0025       6414.954      .7677
      70     71     13.90055      .0017       6428.854      .7694
      71     72     20.86966      .0025       6449.724      .7719
      72     73     21.15872      .0025       6470.882      .7744
      73     74     26.40023      .0032       6497.283      .7776
      74     75     18.69153      .0022       6515.974      .7798
      75     76     18.09134      .0022       6534.065      .7820
      76     77     14.17004      .0017       6548.235      .7837
      77     78     15.74952      .0019       6563.985      .7855
      78     79     12.88696      .0015       6576.872      .7871
      79     80     14.03032      .0017       6590.902      .7888
      80     81     12.39631      .0015       6603.299      .7903
      81     82     20.42679      .0024       6623.726      .7927
      82     83     12.07936      .0014       6635.805      .7941
      83     84     16.93165      .0020       6652.737      .7962
      84     85     11.23392      .0013       6663.971      .7975
      85     86     13.72662      .0016       6677.697      .7992
      86     87     14.16733      .0017       6691.865      .8009
      87     88     11.48551      .0014        6703.35      .8022
      88     89     9.604454      .0011       6712.955      .8034
      89     90     14.42403      .0017       6727.378      .8051
      90     91     18.88779      .0023       6746.266      .8074
      91     92     15.35113      .0018       6761.617      .8092
      92     93     11.59316      .0014        6773.21      .8106
      93     94     11.54655      .0014       6784.757      .8120
      94     95     8.405284      .0010       6793.162      .8130
      95     96     12.76158      .0015       6805.924      .8145
      96     97     9.933967      .0012       6815.858      .8157
      97     98     12.74005      .0015       6828.598      .8172
      98     99     12.28237      .0015        6840.88      .8187
      99    100     9.244149      .0011       6850.125      .8198
     100    101     8.841587      .0011       6858.966      .8208
     101    102     7.616774      .0009       6866.583      .8218
     102    103     8.682752      .0010       6875.266      .8228
     103    104     10.27947      .0012       6885.545      .8240
     104    105     8.238322      .0010       6893.783      .8250
     105    106     8.854783      .0011       6902.638      .8261
     106    107     6.106988      .0007       6908.745      .8268
     107    108     9.596543      .0011       6918.342      .8280
     108    109     7.430754      .0009       6925.772      .8288
     109    110     6.660229      .0008       6932.433      .8296
     110    111     7.536127      .0009       6939.969      .8305
     111    112     6.365705      .0008       6946.334      .8313
     112    113     12.18601      .0015        6958.52      .8328
     113    114     16.54752      .0020       6975.068      .8347
     114    115     12.87806      .0015       6987.946      .8363
     115    116      16.6438      .0020        7004.59      .8383
     116    117     11.60901      .0014       7016.199      .8397
     117    118      16.5823      .0020       7032.781      .8417
     118    119     15.79343      .0019       7048.575      .8435
     119    120     11.15907      .0013       7059.734      .8449
     120    121     10.78866      .0013       7070.522      .8462
     121    122      7.04303      .0008       7077.565      .8470
     122    123     11.86519      .0014       7089.431      .8484
     123    124     8.779422      .0011        7098.21      .8495
     124    125     14.01547      .0017       7112.226      .8512
     125    126     7.007802      .0008       7119.233      .8520
     126    127     9.708783      .0012       7128.942      .8532
     127    128     11.66077      .0014       7140.603      .8546
     128    129     12.67894      .0015       7153.282      .8561
     129    130     8.839135      .0011       7162.121      .8571
     130    131     9.983384      .0012       7172.104      .8583
     131    132     10.78722      .0013       7182.892      .8596
     132    133     8.796149      .0011       7191.688      .8607
     133    134     19.05711      .0023       7210.745      .8629
     134    135      13.0285      .0016       7223.773      .8645
     135    136     10.91051      .0013       7234.684      .8658
     136    137     10.34544      .0012       7245.029      .8671
     137    138     6.675097      .0008       7251.705      .8679
     138    139     13.29023      .0016       7264.995      .8694
     139    140     10.12833      .0012       7275.123      .8707
     140    141     7.840052      .0009       7282.963      .8716
     141    142     6.693719      .0008       7289.657      .8724
     142    143     7.065931      .0008       7296.723      .8732
     143    144     9.953546      .0012       7306.676      .8744
     144    145     7.880043      .0009       7314.556      .8754
     145    146     20.99032      .0025       7335.546      .8779
     146    147     13.50741      .0016       7349.054      .8795
     147    148     14.52482      .0017       7363.579      .8812
     148    149     7.515115      .0009       7371.094      .8821
     149    150     15.13569      .0018       7386.229      .8840
     150    151     8.460632      .0010        7394.69      .8850
     151    152     7.998844      .0010       7402.689      .8859
     152    153     6.544743      .0008       7409.234      .8867
     153    154     8.566048      .0010         7417.8      .8877
     154    155     7.068081      .0008       7424.868      .8886
     155    156     5.485533      .0007       7430.353      .8892
     156    157     4.955617      .0006       7435.309      .8898
     157    158     14.11315      .0017       7449.422      .8915
     158    159     11.11993      .0013       7460.542      .8928
     159    160     11.94507      .0014       7472.487      .8943
     160    161     3.952668      .0005        7476.44      .8947
     161    162     4.485316      .0005       7480.925      .8953
     162    163     4.282723      .0005       7485.208      .8958
     163    164     7.729266      .0009       7492.937      .8967
     164    165     6.525587      .0008       7499.463      .8975
     165    166     4.469164      .0005       7503.932      .8980
     166    167     6.102058      .0007       7510.034      .8988
     167    168     3.071731      .0004       7513.106      .8991
     168    169     3.010421      .0004       7516.116      .8995
     169    170     4.361287      .0005       7520.478      .9000
     170    171     6.469707      .0008       7526.947      .9008
     171    172     6.748646      .0008       7533.696      .9016
     172    173     6.006824      .0007       7539.703      .9023
     173    174     4.791733      .0006       7544.494      .9029
     174    175      4.68336      .0006       7549.178      .9035
     175    176     2.926942      .0004       7552.104      .9038
     176    177     1.162028      .0001       7553.267      .9039
     177    178     2.647977      .0003       7555.915      .9043
     178    179     1.950851      .0002       7557.865      .9045
     179    180     2.692414      .0003       7560.558      .9048
     180    181      3.53361      .0004       7564.091      .9052
     181    182     2.733938      .0003       7566.825      .9056
     182    183     1.255172      .0002       7568.081      .9057
     183    184     5.156018      .0006       7573.237      .9063
     184    185     2.388018      .0003       7575.625      .9066
     185    186     3.494201      .0004       7579.119      .9070
     186    187     2.175485      .0003       7581.294      .9073
     187    188     2.523032      .0003       7583.817      .9076
     188    189     3.109951      .0004       7586.927      .9080
     189    190     4.192704      .0005        7591.12      .9085
     190    191      2.55187      .0003       7593.672      .9088
     191    192     4.058423      .0005        7597.73      .9093
     192    193     1.463459      .0002       7599.194      .9094
     193    194     2.187016      .0003       7601.381      .9097
     194    195     2.605233      .0003       7603.986      .9100
     195    196     1.705545      .0002       7605.692      .9102
     196    197     2.461864      .0003       7608.154      .9105
     197    198     2.141735      .0003       7610.295      .9108
     198    199     2.835622      .0003       7613.131      .9111
     199    200     4.161585      .0005       7617.292      .9116
     200    201     2.844548      .0003       7620.137      .9119
     201    202      2.73313      .0003        7622.87      .9123
     202    203     2.586364      .0003       7625.457      .9126
     203    204     1.825317      .0002       7627.282      .9128
     204    205     1.217424      .0001       7628.499      .9129
     205    206     2.181489      .0003       7630.681      .9132
     206    207     1.645513      .0002       7632.326      .9134
     207    208     4.344064      .0005        7636.67      .9139
     208    209     3.836101      .0005       7640.506      .9144
     209    210     1.640002      .0002       7642.146      .9146
     210    211      2.21803      .0003       7644.365      .9148
     211    212      .751036      .0001       7645.116      .9149
     212    213     2.057252      .0002       7647.173      .9152
     213    214      .701244      .0001       7647.874      .9153
     214    215     1.293832      .0002       7649.168      .9154
     215    216     1.726595      .0002       7650.895      .9156
     216    217     1.622046      .0002       7652.517      .9158
     217    218     2.523299      .0003        7655.04      .9161
     218    219     1.724442      .0002       7656.765      .9163
     219    220      .458153      .0001       7657.223      .9164
     220    221      .737787      .0001        7657.96      .9165
     221    222      .368319      .0000       7658.329      .9165
     222    223     2.656547      .0003       7660.985      .9168
     223    224     1.453695      .0002       7662.439      .9170
     224    225     1.234648      .0001       7663.674      .9172
     225    226     1.989558      .0002       7665.664      .9174
     226    227      .852228      .0001       7666.516      .9175
     227    228     1.399002      .0002       7667.915      .9177
     228    229      .658674      .0001       7668.573      .9177
     229    230      .440668      .0001       7669.014      .9178
     230    231       .08636      .0000         7669.1      .9178
     231    232     2.295106      .0003       7671.395      .9181
     232    233     1.452934      .0002       7672.848      .9183
     233    234     2.248356      .0003       7675.097      .9185
     234    235     1.248471      .0001       7676.345      .9187
     235    236     1.366564      .0002       7677.712      .9188
     236    237      .537533      .0001        7678.25      .9189
     237    238      .790674      .0001        7679.04      .9190
     238    239      1.53362      .0002       7680.574      .9192
     239    240     1.665821      .0002        7682.24      .9194
     240    241      3.26614      .0004       7685.506      .9198
     241    242     1.428056      .0002       7686.934      .9199
     242    243     3.567518      .0004       7690.501      .9204
     243    244     1.202442      .0001       7691.704      .9205
     244    245     1.360096      .0002       7693.064      .9207
     245    246      .935369      .0001           7694      .9208
     246    247      2.15702      .0003       7696.157      .9210
     247    248     1.390744      .0002       7697.547      .9212
     248    249     1.978299      .0002       7699.526      .9214
     249    250      .976753      .0001       7700.502      .9216
     250    251     1.787279      .0002        7702.29      .9218
     251    252     4.214889      .0005       7706.504      .9223
     252    253     8.970481      .0011       7715.475      .9234
     253    254     6.043035      .0007       7721.518      .9241
     254    255     3.143491      .0004       7724.662      .9245
     255    256     3.111508      .0004       7727.773      .9248
     256    257     1.808545      .0002       7729.582      .9250
     257    258     3.983229      .0005       7733.565      .9255
     258    259     7.394223      .0009       7740.959      .9264
     259    260     7.420698      .0009        7748.38      .9273
     260    261     8.759441      .0010       7757.139      .9283
     261    262     5.546184      .0007       7762.686      .9290
     262    263     9.743288      .0012       7772.429      .9302
     263    264     6.089356      .0007       7778.518      .9309
     264    265     4.371922      .0005        7782.89      .9314
     265    266     2.368867      .0003       7785.259      .9317
     266    267     3.857396      .0005       7789.116      .9322
     267    268     3.453202      .0004       7792.569      .9326
     268    269     6.332758      .0008       7798.902      .9333
     269    270      7.65331      .0009       7806.555      .9343
     270    271      11.9794      .0014       7818.535      .9357
     271    272     5.875486      .0007        7824.41      .9364
     272    273     5.459743      .0007        7829.87      .9370
     273    274     18.22591      .0022       7848.096      .9392
     274    275     2.560579      .0003       7850.657      .9395
     275    276     3.087843      .0004       7853.745      .9399
     276    277     8.011493      .0010       7861.756      .9409
     277    278     7.740525      .0009       7869.497      .9418
     278    279     5.848248      .0007       7875.345      .9425
     279    280     8.092136      .0010       7883.437      .9435
     280    281     4.733745      .0006       7888.171      .9440
     281    282     2.643713      .0003       7890.815      .9443
     282    283     1.083833      .0001       7891.899      .9445
     283    284      2.41158      .0003       7894.311      .9448
     284    285     4.955151      .0006       7899.266      .9453
     285    286     7.509971      .0009       7906.775      .9462
     286    287     13.41022      .0016       7920.186      .9479
     287    288      3.49909      .0004       7923.685      .9483
     288    289     6.797238      .0008       7930.482      .9491
     289    290     7.005496      .0008       7937.487      .9499
     290    291     4.366702      .0005       7941.854      .9504
     291    292      .462046      .0001       7942.316      .9505
     292    293     2.444213      .0003        7944.76      .9508
     293    294     2.447547      .0003       7947.208      .9511
     294    295     7.120898      .0009       7954.329      .9519
     295    296     1.063812      .0001       7955.393      .9521
     296    297     1.046463      .0001       7956.439      .9522
     297    298     11.05177      .0013       7967.491      .9535
     298    299     3.917789      .0005       7971.409      .9540
     299    300     1.807357      .0002       7973.216      .9542
     300    301     1.421167      .0002       7974.638      .9544
     301    302     1.926066      .0002       7976.564      .9546
     302    303     1.844379      .0002       7978.408      .9548
     303    304      4.91783      .0006       7983.326      .9554
     304    305      4.50354      .0005        7987.83      .9559
     305    306      5.63977      .0007       7993.469      .9566
     306    307     5.486395      .0007       7998.956      .9573
     307    308     2.877874      .0003       8001.833      .9576
     308    309     2.226078      .0003        8004.06      .9579
     309    310     7.276611      .0009       8011.336      .9588
     310    311     3.439493      .0004       8014.775      .9592
     311    312     4.907413      .0006       8019.683      .9598
     312    313     4.888055      .0006       8024.571      .9603
     313    314      6.09226      .0007       8030.663      .9611
     314    315     6.420236      .0008       8037.083      .9618
     315    316     6.648779      .0008       8043.732      .9626
     316    317     7.228977      .0009       8050.961      .9635
     317    318      5.40456      .0006       8056.366      .9641
     318    319     1.705854      .0002       8058.072      .9644
     319    320     2.891021      .0003       8060.963      .9647
     320    321     6.898594      .0008       8067.862      .9655
     321    322     4.948019      .0006        8072.81      .9661
     322    323     5.546654      .0007       8078.357      .9668
     323    324     6.247029      .0007       8084.604      .9675
     324    325     10.41843      .0012       8095.022      .9688
     325    326      3.33048      .0004       8098.353      .9692
     326    327     1.025116      .0001       8099.378      .9693
     327    328     1.216395      .0001       8100.594      .9694
     328    329     2.768514      .0003       8103.363      .9698
     329    330     10.92002      .0013       8114.283      .9711
     330    331     4.851618      .0006       8119.134      .9717
     331    332     19.87237      .0024       8139.007      .9740
     332    333     8.660829      .0010       8147.667      .9751
     333    334     11.40489      .0014       8159.072      .9764
     334    335      .776768      .0001       8159.849      .9765
     335    336      .686465      .0001       8160.536      .9766
     336    337            0      .0000       8160.536      .9766
     337    338      4.20937      .0005       8164.745      .9771
     338    339     1.015991      .0001       8165.761      .9772
     339    340     5.620079      .0007       8171.381      .9779
     340    341     1.823873      .0002       8173.205      .9781
     341    342            0      .0000       8173.205      .9781
     342    343            0      .0000       8173.205      .9781
     343    344            0      .0000       8173.205      .9781
     344    345            0      .0000       8173.205      .9781
     345    346     3.454302      .0004       8176.659      .9785
     346    347            0      .0000       8176.659      .9785
     347    348            0      .0000       8176.659      .9785
     348    349            0      .0000       8176.659      .9785
     349    350            0      .0000       8176.659      .9785
     350    351            0      .0000       8176.659      .9785
     351    352      .349413      .0000       8177.009      .9786
     352    353            0      .0000       8177.009      .9786
     353    354      .149725      .0000       8177.159      .9786
     354    355      .998086      .0001       8178.157      .9787
     355    356      .183602      .0000        8178.34      .9787
     356    357      .031107      .0000       8178.372      .9788
     357    358     6.432427      .0008       8184.804      .9795
     358    359      .056303      .0000        8184.86      .9795
     359    360      .182793      .0000       8185.043      .9795
     360    361            0      .0000       8185.043      .9795
     361    362      .053496      .0000       8185.097      .9796
     362    363      .041728      .0000       8185.138      .9796
     363    364            0      .0000       8185.138      .9796
     364    365            0      .0000       8185.138      .9796
     365    366       .04745      .0000       8185.186      .9796
     366    367       .00004      .0000       8185.186      .9796
     367    368      .000459      .0000       8185.186      .9796
     368    369      .225828      .0000       8185.412      .9796
     369    370      .001002      .0000       8185.413      .9796
     370    371      .000327      .0000       8185.413      .9796
     371    372      .060882      .0000       8185.474      .9796
     372    373     1.569364      .0002       8187.043      .9798
     373    374      .657065      .0001       8187.701      .9799
     374    375      .386695      .0000       8188.087      .9799
     375    376     1.089993      .0001       8189.177      .9800
     376    377      .512516      .0001        8189.69      .9801
     377    378      .683171      .0001       8190.373      .9802
     378    379      .719161      .0001       8191.092      .9803
     379    380      .653921      .0001       8191.746      .9804
     380    381      .527373      .0001       8192.274      .9804
     381    382      .401963      .0000       8192.676      .9805
     382    383      .168498      .0000       8192.845      .9805
     383    384      .614053      .0001       8193.459      .9806
     384    385      .000172      .0000       8193.459      .9806
     385    386      .212028      .0000       8193.671      .9806
     386    387        .9053      .0001       8194.577      .9807
     387    388      .347503      .0000       8194.924      .9807
     388    389     1.073358      .0001       8195.998      .9809
     389    390     1.143967      .0001       8197.141      .9810
     390    391     3.967144      .0005       8201.108      .9815
     391    392       .66057      .0001       8201.768      .9815
     392    393     1.459072      .0002       8203.227      .9817
     393    394     6.026235      .0007       8209.253      .9824
     394    395      .407586      .0000       8209.661      .9825
     395    396      .968257      .0001       8210.628      .9826
     396    397      .109685      .0000       8210.738      .9826
     397    398     2.289098      .0003       8213.027      .9829
     398    399     1.663012      .0002        8214.69      .9831
     399    400      .977315      .0001       8215.667      .9832
     400    401     1.084351      .0001       8216.751      .9833
     401    402      .152698      .0000       8216.904      .9834
     402    403      .325063      .0000       8217.229      .9834
     403    404      .136426      .0000       8217.366      .9834
     404    405      .569518      .0001       8217.935      .9835
     405    406     1.076612      .0001       8219.011      .9836
     406    407     1.330903      .0002       8220.342      .9838
     407    408      .942228      .0001       8221.285      .9839
     408    409     1.140144      .0001       8222.425      .9840
     409    410      .133916      .0000       8222.559      .9840
     410    411     1.025323      .0001       8223.584      .9842
     411    412      .276337      .0000       8223.861      .9842
     412    413      .055805      .0000       8223.916      .9842
     413    414      .666325      .0001       8224.583      .9843
     414    415     3.519499      .0004       8228.102      .9847
     415    416            0      .0000       8228.102      .9847
     416    417            0      .0000       8228.102      .9847
     417    418            0      .0000       8228.102      .9847
     418    419            0      .0000       8228.102      .9847
     419    420            0      .0000       8228.102      .9847
     420    421            0      .0000       8228.102      .9847
     421    422      .694725      .0001       8228.796      .9848
     422    423            0      .0000       8228.796      .9848
     423    424            0      .0000       8228.796      .9848
     424    425            0      .0000       8228.796      .9848
     425    426            0      .0000       8228.796      .9848
     426    427            0      .0000       8228.796      .9848
     427    428            0      .0000       8228.796      .9848
     428    429            0      .0000       8228.796      .9848
     429    430            0      .0000       8228.796      .9848
     430    431            0      .0000       8228.796      .9848
     431    432            0      .0000       8228.796      .9848
     432    433            0      .0000       8228.796      .9848
     433    434            0      .0000       8228.796      .9848
     434    435            0      .0000       8228.796      .9848
     435    436            0      .0000       8228.796      .9848
     436    437            0      .0000       8228.796      .9848
     437    438            0      .0000       8228.796      .9848
     438    439            0      .0000       8228.796      .9848
     439    440            0      .0000       8228.796      .9848
     440    441            0      .0000       8228.796      .9848
     441    442            0      .0000       8228.796      .9848
     442    443            0      .0000       8228.796      .9848
     443    444            0      .0000       8228.796      .9848
     444    445            0      .0000       8228.796      .9848
     445    446            0      .0000       8228.796      .9848
     446    447            0      .0000       8228.796      .9848
     447    448            0      .0000       8228.796      .9848
     448    449            0      .0000       8228.796      .9848
     449    450            0      .0000       8228.796      .9848
     450    451            0      .0000       8228.796      .9848
     451    452            0      .0000       8228.796      .9848
     452    453            0      .0000       8228.796      .9848
     453    454            0      .0000       8228.796      .9848
     454    455            0      .0000       8228.796      .9848
     455    456            0      .0000       8228.796      .9848
     456    457            0      .0000       8228.796      .9848
     457    458            0      .0000       8228.796      .9848
     458    459            0      .0000       8228.796      .9848
     459    460            0      .0000       8228.796      .9848
     460    461            0      .0000       8228.796      .9848
     461    462            0      .0000       8228.796      .9848
     462    463            0      .0000       8228.796      .9848
     463    464            0      .0000       8228.796      .9848
     464    465            0      .0000       8228.796      .9848
     465    466            0      .0000       8228.796      .9848
     466    467            0      .0000       8228.796      .9848
     467    468            0      .0000       8228.796      .9848
     468    469            0      .0000       8228.796      .9848
     469    470            0      .0000       8228.796      .9848
     470    471            0      .0000       8228.796      .9848
     471    472            0      .0000       8228.796      .9848
     472    473            0      .0000       8228.796      .9848
     473    474            0      .0000       8228.796      .9848
     474    475            0      .0000       8228.796      .9848
     475    476            0      .0000       8228.796      .9848
     476    477            0      .0000       8228.796      .9848
     477    478            0      .0000       8228.796      .9848
     478    479            0      .0000       8228.796      .9848
     479    480            0      .0000       8228.796      .9848
     480    481            0      .0000       8228.796      .9848
     481    482            0      .0000       8228.796      .9848
     482    483            0      .0000       8228.796      .9848
     483    484            0      .0000       8228.796      .9848
     484    485            0      .0000       8228.796      .9848
     485    486            0      .0000       8228.796      .9848
     486    487            0      .0000       8228.796      .9848
     487    488            0      .0000       8228.796      .9848
     488    489            0      .0000       8228.796      .9848
     489    490            0      .0000       8228.796      .9848
     490    491            0      .0000       8228.796      .9848
     491    492            0      .0000       8228.796      .9848
     492    493            0      .0000       8228.796      .9848
     493    494            0      .0000       8228.796      .9848
     494    495            0      .0000       8228.796      .9848
     495    496            0      .0000       8228.796      .9848
     496    497            0      .0000       8228.796      .9848
     497    498            0      .0000       8228.796      .9848
     498    499            0      .0000       8228.796      .9848
     499    500            0      .0000       8228.796      .9848
