

 Matrix histogram
 ----------------


 data   matrix        mf172 : DSTSK                                    Distance Skim Car                                                               

 weight matrix        mf01  : temp1                                    Temporary Matrix 1                                                              

  all  origins   all  destinations

 constraint matrix    mf10  : temp10                                   Temporary Matrix 10                                                             
          interval  lower:         1
                    upper:         1  include 

 out of range       above: 100.3953
                    below:        0

 statistics         mean : 10.04677
                    std  : 14.64862

    interval        ------density-------      -----cumulative-----
 (from  ,    to)    absolute  normalized      absolute  normalized

       0      1        26083      .0440          26083      .0440
       1      2     61065.33      .1030       87148.33      .1470
       2      3     93258.28      .1573       180406.6      .3043
       3      4     36175.44      .0610         216582      .3653
       4      5     46723.83      .0788       263305.9      .4441
       5      6     26028.48      .0439       289334.4      .4880
       6      7     45041.03      .0760       334375.4      .5639
       7      8     19332.26      .0326       353707.6      .5965
       8      9      17546.4      .0296         371254      .6261
       9     10     25508.48      .0430       396762.5      .6691
      10     11     18919.31      .0319       415681.8      .7011
      11     12     15875.34      .0268       431557.2      .7278
      12     13     14032.91      .0237       445590.1      .7515
      13     14      15008.9      .0253         460599      .7768
      14     15     10816.33      .0182       471415.3      .7950
      15     16     18426.63      .0311       489841.9      .8261
      16     17     7420.687      .0125       497262.6      .8386
      17     18     11003.73      .0186       508266.3      .8572
      18     19     9416.531      .0159       517682.9      .8731
      19     20     7318.691      .0123       525001.6      .8854
      20     21      4891.72      .0082       529893.3      .8937
      21     22     6979.982      .0118       536873.3      .9054
      22     23     3631.674      .0061         540505      .9116
      23     24     3000.033      .0051       543505.1      .9166
      24     25     3531.142      .0060       547036.2      .9226
      25     26     2326.882      .0039       549363.1      .9265
      26     27     2583.235      .0044       551946.3      .9309
      27     28     2142.805      .0036       554089.1      .9345
      28     29     2587.485      .0044       556676.6      .9388
      29     30     2591.004      .0044       559267.6      .9432
      30     31     2245.745      .0038       561513.4      .9470
      31     32     2296.794      .0039       563810.2      .9509
      32     33     2203.035      .0037       566013.3      .9546
      33     34     3282.293      .0055       569295.6      .9601
      34     35     1390.126      .0023       570685.7      .9625
      35     36     1613.764      .0027       572299.5      .9652
      36     37     957.4119      .0016       573256.9      .9668
      37     38     1112.194      .0019       574369.1      .9687
      38     39     1185.033      .0020       575554.1      .9707
      39     40     1375.322      .0023       576929.5      .9730
      40     41     725.7322      .0012       577655.2      .9742
      41     42     998.6748      .0017       578653.9      .9759
      42     43     523.3518      .0009       579177.3      .9768
      43     44     893.5697      .0015       580070.8      .9783
      44     45     809.2195      .0014       580880.1      .9797
      45     46     663.5344      .0011       581543.6      .9808
      46     47     490.2127      .0008       582033.8      .9816
      47     48     536.9692      .0009       582570.8      .9825
      48     49     419.8386      .0007       582990.6      .9832
      49     50     612.2574      .0010       583602.9      .9843
      50     51     406.0312      .0007       584008.9      .9849
      51     52     395.5367      .0007       584404.5      .9856
      52     53      294.003      .0005       584698.5      .9861
      53     54      329.889      .0006       585028.3      .9867
      54     55     673.3568      .0011       585701.7      .9878
      55     56     408.9168      .0007       586110.6      .9885
      56     57     385.3247      .0006         586496      .9891
      57     58     325.6506      .0005       586821.6      .9897
      58     59     268.9833      .0005       587090.6      .9901
      59     60     200.0482      .0003       587290.6      .9905
      60     61     188.6476      .0003       587479.3      .9908
      61     62     186.7768      .0003         587666      .9911
      62     63     140.7856      .0002       587806.8      .9913
      63     64     202.0274      .0003       588008.8      .9917
      64     65     162.0551      .0003       588170.9      .9920
      65     66      150.721      .0003       588321.6      .9922
      66     67     169.7781      .0003       588491.4      .9925
      67     68     259.8784      .0004       588751.3      .9929
      68     69     175.9785      .0003       588927.3      .9932
      69     70     127.1432      .0002       589054.4      .9935
      70     71     109.4429      .0002       589163.8      .9936
      71     72     145.5817      .0002       589309.4      .9939
      72     73     114.4538      .0002       589423.8      .9941
      73     74     152.3128      .0003       589576.1      .9943
      74     75     128.3224      .0002       589704.5      .9945
      75     76     84.89689      .0001       589789.3      .9947
      76     77     51.90975      .0001       589841.3      .9948
      77     78     84.06667      .0001       589925.3      .9949
      78     79     93.23912      .0002       590018.6      .9951
      79     80      75.2281      .0001       590093.8      .9952
      80     81       77.942      .0001       590171.8      .9953
      81     82      182.046      .0003       590353.8      .9956
      82     83     38.01802      .0001       590391.8      .9957
      83     84      66.3202      .0001       590458.1      .9958
      84     85     50.80743      .0001         590509      .9959
      85     86     67.03546      .0001         590576      .9960
      86     87     62.88351      .0001       590638.9      .9961
      87     88     72.90731      .0001       590711.8      .9962
      88     89     28.41419      .0000       590740.3      .9963
      89     90     45.45291      .0001       590785.7      .9964
      90     91     140.0697      .0002       590925.8      .9966
      91     92     100.1671      .0002         591026      .9968
      92     93     42.90294      .0001       591068.8      .9968
      93     94     43.52928      .0001       591112.3      .9969
      94     95     29.60457      .0000         591142      .9970
      95     96     27.20561      .0000       591169.1      .9970
      96     97     44.44826      .0001       591213.6      .9971
      97     98     74.85369      .0001       591288.5      .9972
      98     99     132.6515      .0002       591421.1      .9974
      99    100     36.34938      .0001       591457.5      .9975
     100    101     36.26537      .0001       591493.7      .9976
     101    102     37.33874      .0001         591531      .9976
     102    103     22.72138      .0000       591553.8      .9977
     103    104     37.88416      .0001       591591.6      .9977
     104    105     36.56303      .0001       591628.2      .9978
     105    106      21.3839      .0000       591649.6      .9978
     106    107     25.81695      .0000       591675.4      .9979
     107    108     33.67159      .0001       591709.1      .9979
     108    109     23.81344      .0000       591732.9      .9980
     109    110     23.75271      .0000       591756.6      .9980
     110    111     19.72526      .0000       591776.4      .9980
     111    112     15.13978      .0000       591791.5      .9981
     112    113     31.41044      .0001         591823      .9981
     113    114     23.09834      .0000       591846.1      .9982
     114    115     14.25204      .0000       591860.3      .9982
     115    116     24.36365      .0000       591884.7      .9982
     116    117     17.24491      .0000         591902      .9983
     117    118     34.62551      .0001       591936.6      .9983
     118    119     44.97831      .0001       591981.6      .9984
     119    120     35.73694      .0001       592017.3      .9984
     120    121     30.61935      .0001         592048      .9985
     121    122     23.51349      .0000       592071.5      .9985
     122    123     14.32525      .0000       592085.8      .9986
     123    124     13.84068      .0000       592099.6      .9986
     124    125     31.24844      .0001       592130.8      .9986
     125    126     17.67987      .0000       592148.5      .9987
     126    127     22.86262      .0000       592171.4      .9987
     127    128     20.26789      .0000       592191.6      .9987
     128    129     8.676402      .0000       592200.3      .9988
     129    130     15.79915      .0000       592216.1      .9988
     130    131     14.45537      .0000       592230.6      .9988
     131    132     22.54504      .0000       592253.1      .9988
     132    133      18.9027      .0000         592272      .9989
     133    134     16.90105      .0000       592288.9      .9989
     134    135     15.91624      .0000       592304.8      .9989
     135    136     8.785065      .0000       592313.6      .9989
     136    137     7.538352      .0000       592321.2      .9990
     137    138     10.99415      .0000       592332.2      .9990
     138    139     10.33588      .0000       592342.5      .9990
     139    140     26.96656      .0000       592369.5      .9990
     140    141     12.29744      .0000       592381.8      .9991
     141    142      16.3055      .0000       592398.1      .9991
     142    143     12.85717      .0000         592411      .9991
     143    144     23.35971      .0000       592434.3      .9992
     144    145     9.736371      .0000       592444.1      .9992
     145    146     22.99034      .0000       592467.1      .9992
     146    147     13.95974      .0000         592481      .9992
     147    148     7.245329      .0000       592488.3      .9992
     148    149     5.367489      .0000       592493.6      .9993
     149    150     17.20901      .0000       592510.8      .9993
     150    151     3.316861      .0000       592514.1      .9993
     151    152     6.265079      .0000       592520.4      .9993
     152    153     5.743102      .0000       592526.1      .9993
     153    154     4.673933      .0000       592530.8      .9993
     154    155     6.990026      .0000       592537.8      .9993
     155    156     7.556123      .0000       592545.4      .9993
     156    157     4.739755      .0000       592550.1      .9993
     157    158     43.00657      .0001       592593.1      .9994
     158    159     11.60672      .0000       592604.8      .9994
     159    160     27.69042      .0000       592632.5      .9995
     160    161     6.353592      .0000       592638.8      .9995
     161    162     8.004877      .0000       592646.8      .9995
     162    163     7.461251      .0000       592654.3      .9995
     163    164     23.61741      .0000       592677.9      .9996
     164    165     7.790767      .0000       592685.7      .9996
     165    166     8.261247      .0000         592694      .9996
     166    167     6.501417      .0000       592700.5      .9996
     167    168     8.753849      .0000       592709.2      .9996
     168    169     8.381523      .0000       592717.6      .9996
     169    170     4.748064      .0000       592722.3      .9996
     170    171     11.95586      .0000       592734.3      .9997
     171    172     7.010834      .0000       592741.3      .9997
     172    173     5.875963      .0000       592747.1      .9997
     173    174     6.145978      .0000       592753.3      .9997
     174    175     13.18851      .0000       592766.5      .9997
     175    176     2.419223      .0000       592768.9      .9997
     176    177     3.940507      .0000       592772.8      .9997
     177    178     2.025403      .0000       592774.8      .9997
     178    179     1.357659      .0000       592776.2      .9997
     179    180     1.743521      .0000         592778      .9997
     180    181       .44324      .0000       592778.4      .9997
     181    182     1.995079      .0000       592780.4      .9997
     182    183     8.759519      .0000       592789.1      .9997
     183    184     2.150198      .0000       592791.3      .9998
     184    185     1.505633      .0000       592792.8      .9998
     185    186     4.668255      .0000       592797.5      .9998
     186    187     1.157977      .0000       592798.6      .9998
     187    188      .850569      .0000       592799.5      .9998
     188    189     4.207231      .0000       592803.7      .9998
     189    190      .664709      .0000       592804.4      .9998
     190    191      1.61357      .0000         592806      .9998
     191    192     9.629816      .0000       592815.6      .9998
     192    193      .687741      .0000       592816.3      .9998
     193    194      .592091      .0000       592816.9      .9998
     194    195     1.109599      .0000         592818      .9998
     195    196     1.763341      .0000       592819.8      .9998
     196    197      .674503      .0000       592820.5      .9998
     197    198      .428401      .0000       592820.9      .9998
     198    199      .372196      .0000       592821.3      .9998
     199    200      .476989      .0000       592821.8      .9998
     200    201      .585419      .0000       592822.3      .9998
     201    202      .220146      .0000       592822.6      .9998
     202    203      .239685      .0000       592822.8      .9998
     203    204      .449058      .0000       592823.3      .9998
     204    205      .387739      .0000       592823.6      .9998
     205    206      .662368      .0000       592824.3      .9998
     206    207      .296258      .0000       592824.6      .9998
     207    208      .203723      .0000       592824.8      .9998
     208    209      .441216      .0000       592825.3      .9998
     209    210      .679383      .0000         592826      .9998
     210    211      .259958      .0000       592826.2      .9998
     211    212      .685482      .0000       592826.9      .9998
     212    213      .378631      .0000       592827.3      .9998
     213    214      .186499      .0000       592827.5      .9998
     214    215      .099628      .0000       592827.6      .9998
     215    216      .100145      .0000       592827.7      .9998
     216    217      .168799      .0000       592827.9      .9998
     217    218      .172093      .0000       592828.1      .9998
     218    219       .10205      .0000       592828.2      .9998
     219    220      .094899      .0000       592828.3      .9998
     220    221      .748923      .0000       592829.1      .9998
     221    222      .084979      .0000       592829.1      .9998
     222    223      .107296      .0000       592829.3      .9998
     223    224      .087374      .0000       592829.3      .9998
     224    225      .041449      .0000       592829.4      .9998
     225    226      .055986      .0000       592829.5      .9998
     226    227      .035759      .0000       592829.5      .9998
     227    228      .040369      .0000       592829.6      .9998
     228    229      .079074      .0000       592829.6      .9998
     229    230      .212626      .0000       592829.8      .9998
     230    231       .08448      .0000       592829.9      .9998
     231    232      .171208      .0000       592830.1      .9998
     232    233       .06623      .0000       592830.1      .9998
     233    234      .043507      .0000       592830.2      .9998
     234    235      .080521      .0000       592830.3      .9998
     235    236      .028984      .0000       592830.3      .9998
     236    237      .127332      .0000       592830.4      .9998
     237    238      .008704      .0000       592830.4      .9998
     238    239      .070212      .0000       592830.5      .9998
     239    240      .061264      .0000       592830.5      .9998
     240    241      .097817      .0000       592830.6      .9998
     241    242      .027116      .0000       592830.6      .9998
     242    243      .031313      .0000       592830.7      .9998
     243    244      .028226      .0000       592830.7      .9998
     244    245      .022187      .0000       592830.7      .9998
     245    246      .047139      .0000       592830.8      .9998
     246    247      .069294      .0000       592830.8      .9998
     247    248      .157943      .0000         592831      .9998
     248    249      .066282      .0000       592831.1      .9998
     249    250       .01372      .0000       592831.1      .9998
     250    251      .044196      .0000       592831.1      .9998
     251    252      .067863      .0000       592831.2      .9998
     252    253      .140122      .0000       592831.3      .9998
     253    254      .156671      .0000       592831.5      .9998
     254    255      .064443      .0000       592831.6      .9998
     255    256      .142278      .0000       592831.7      .9998
     256    257      .043289      .0000       592831.8      .9998
     257    258      .054764      .0000       592831.8      .9998
     258    259      .105232      .0000         592832      .9998
     259    260      .100915      .0000       592832.1      .9998
     260    261      .159203      .0000       592832.3      .9998
     261    262       .11978      .0000       592832.4      .9998
     262    263      .154641      .0000       592832.5      .9998
     263    264      .054556      .0000       592832.6      .9998
     264    265       .05608      .0000       592832.6      .9998
     265    266      .050692      .0000       592832.7      .9998
     266    267      .054253      .0000       592832.8      .9998
     267    268      .050911      .0000       592832.8      .9998
     268    269      .060232      .0000       592832.9      .9998
     269    270      .078709      .0000         592833      .9998
     270    271      .134823      .0000       592833.1      .9998
     271    272      .039596      .0000       592833.1      .9998
     272    273      .031312      .0000       592833.2      .9998
     273    274      .091182      .0000       592833.3      .9998
     274    275      .045705      .0000       592833.3      .9998
     275    276      .035057      .0000       592833.4      .9998
     276    277      .136611      .0000       592833.5      .9998
     277    278      .152012      .0000       592833.6      .9998
     278    279      .116434      .0000       592833.8      .9998
     279    280      .099468      .0000       592833.9      .9998
     280    281      .045549      .0000         592834      .9998
     281    282       .07588      .0000         592834      .9998
     282    283       .08822      .0000       592834.1      .9998
     283    284      .044879      .0000       592834.1      .9998
     284    285      .044077      .0000       592834.2      .9998
     285    286      .175549      .0000       592834.4      .9998
     286    287      .149738      .0000       592834.5      .9998
     287    288      .109857      .0000       592834.6      .9998
     288    289       .11885      .0000       592834.8      .9998
     289    290       .17557      .0000         592835      .9998
     290    291      .086276      .0000         592835      .9998
     291    292      .069514      .0000       592835.1      .9998
     292    293      .080371      .0000       592835.1      .9998
     293    294      .050023      .0000       592835.2      .9998
     294    295      .086269      .0000       592835.3      .9998
     295    296       .06073      .0000       592835.3      .9998
     296    297      .104216      .0000       592835.5      .9998
     297    298      .180277      .0000       592835.6      .9998
     298    299      .097979      .0000       592835.8      .9998
     299    300       .03694      .0000       592835.8      .9998
     300    301      .046498      .0000       592835.9      .9998
     301    302      .094919      .0000         592836      .9998
     302    303        .0241      .0000         592836      .9998
     303    304      .095674      .0000       592836.1      .9998
     304    305      .056946      .0000       592836.2      .9998
     305    306      .129699      .0000       592836.3      .9998
     306    307       .09585      .0000       592836.5      .9998
     307    308      .074833      .0000       592836.5      .9998
     308    309      .036699      .0000       592836.6      .9998
     309    310      .048438      .0000       592836.6      .9998
     310    311      .055164      .0000       592836.7      .9998
     311    312      .141925      .0000       592836.8      .9998
     312    313      .034113      .0000       592836.9      .9998
     313    314      .077586      .0000         592837      .9998
     314    315      .045408      .0000         592837      .9998
     315    316      .035274      .0000       592837.1      .9998
     316    317      .044713      .0000       592837.1      .9998
     317    318      .015627      .0000       592837.1      .9998
     318    319      .085948      .0000       592837.2      .9998
     319    320      .030367      .0000       592837.2      .9998
     320    321      .053794      .0000       592837.3      .9998
     321    322       .02759      .0000       592837.3      .9998
     322    323      .011773      .0000       592837.3      .9998
     323    324      .029215      .0000       592837.3      .9998
     324    325      .049982      .0000       592837.3      .9998
     325    326      .016531      .0000       592837.3      .9998
     326    327      .008624      .0000       592837.3      .9998
     327    328      .004447      .0000       592837.3      .9998
     328    329      .008068      .0000       592837.3      .9998
     329    330      .034786      .0000       592837.4      .9998
     330    331      .052484      .0000       592837.5      .9998
     331    332      .021483      .0000       592837.5      .9998
     332    333      .060281      .0000       592837.5      .9998
     333    334      .029168      .0000       592837.5      .9998
     334    335      .008508      .0000       592837.5      .9998
     335    336      .006957      .0000       592837.5      .9998
     336    337            0      .0000       592837.5      .9998
     337    338      .048454      .0000       592837.6      .9998
     338    339      .006402      .0000       592837.6      .9998
     339    340      .018704      .0000       592837.6      .9998
     340    341      .009063      .0000       592837.6      .9998
     341    342            0      .0000       592837.6      .9998
     342    343            0      .0000       592837.6      .9998
     343    344            0      .0000       592837.6      .9998
     344    345            0      .0000       592837.6      .9998
     345    346      .008425      .0000       592837.6      .9998
     346    347            0      .0000       592837.6      .9998
     347    348            0      .0000       592837.6      .9998
     348    349            0      .0000       592837.6      .9998
     349    350            0      .0000       592837.6      .9998
     350    351            0      .0000       592837.6      .9998
     351    352            0      .0000       592837.6      .9998
     352    353            0      .0000       592837.6      .9998
     353    354      .004027      .0000       592837.6      .9998
     354    355      .006938      .0000       592837.6      .9998
     355    356            0      .0000       592837.6      .9998
     356    357            0      .0000       592837.6      .9998
     357    358      .022281      .0000       592837.6      .9998
     358    359      .004243      .0000       592837.6      .9998
     359    360      .002096      .0000       592837.6      .9998
     360    361      .001517      .0000       592837.6      .9998
     361    362      .000787      .0000       592837.6      .9998
     362    363      .001061      .0000       592837.6      .9998
     363    364            0      .0000       592837.6      .9998
     364    365      .000777      .0000       592837.6      .9998
     365    366      .003429      .0000       592837.6      .9998
     366    367      .000224      .0000       592837.6      .9998
     367    368      .000976      .0000       592837.6      .9998
     368    369      .000972      .0000       592837.6      .9998
     369    370      .001072      .0000       592837.6      .9998
     370    371      .001117      .0000       592837.6      .9998
     371    372      .000743      .0000       592837.6      .9998
     372    373      .013708      .0000       592837.6      .9998
     373    374       .00572      .0000       592837.6      .9998
     374    375      .003386      .0000       592837.6      .9998
     375    376      .009925      .0000       592837.6      .9998
     376    377      .001699      .0000       592837.6      .9998
     377    378      .003116      .0000       592837.6      .9998
     378    379      .006173      .0000       592837.6      .9998
     379    380      .003942      .0000       592837.6      .9998
     380    381      .008152      .0000       592837.6      .9998
     381    382      .003346      .0000       592837.6      .9998
     382    383      .001365      .0000       592837.6      .9998
     383    384       .00309      .0000       592837.6      .9998
     384    385      .000353      .0000       592837.6      .9998
     385    386      .000605      .0000       592837.6      .9998
     386    387      .001783      .0000       592837.6      .9998
     387    388       .00154      .0000       592837.6      .9998
     388    389      .004873      .0000       592837.6      .9998
     389    390      .006428      .0000       592837.6      .9998
     390    391       .01552      .0000       592837.6      .9998
     391    392      .006661      .0000       592837.6      .9998
     392    393       .00303      .0000       592837.6      .9998
     393    394      .009594      .0000       592837.6      .9998
     394    395      .001282      .0000       592837.6      .9998
     395    396      .001995      .0000       592837.6      .9998
     396    397      .000544      .0000       592837.6      .9998
     397    398      .003133      .0000       592837.6      .9998
     398    399      .002547      .0000       592837.6      .9998
     399    400      .001693      .0000       592837.6      .9998
     400    401       .00127      .0000       592837.6      .9998
     401    402      .001139      .0000       592837.6      .9998
     402    403      .001212      .0000       592837.6      .9998
     403    404      .000913      .0000       592837.6      .9998
     404    405      .001787      .0000       592837.6      .9998
     405    406      .001748      .0000       592837.6      .9998
     406    407      .003215      .0000       592837.6      .9998
     407    408       .00199      .0000       592837.6      .9998
     408    409      .003289      .0000       592837.6      .9998
     409    410      .000286      .0000       592837.6      .9998
     410    411       .00187      .0000       592837.6      .9998
     411    412      .000384      .0000       592837.6      .9998
     412    413      .000366      .0000       592837.6      .9998
     413    414      .001823      .0000       592837.6      .9998
     414    415      .001872      .0000       592837.6      .9998
     415    416            0      .0000       592837.6      .9998
     416    417            0      .0000       592837.6      .9998
     417    418      .000231      .0000       592837.6      .9998
     418    419            0      .0000       592837.6      .9998
     419    420            0      .0000       592837.6      .9998
     420    421            0      .0000       592837.6      .9998
     421    422      .001946      .0000       592837.6      .9998
     422    423            0      .0000       592837.6      .9998
     423    424            0      .0000       592837.6      .9998
     424    425            0      .0000       592837.6      .9998
     425    426            0      .0000       592837.6      .9998
     426    427            0      .0000       592837.6      .9998
     427    428            0      .0000       592837.6      .9998
     428    429            0      .0000       592837.6      .9998
     429    430            0      .0000       592837.6      .9998
     430    431            0      .0000       592837.6      .9998
     431    432            0      .0000       592837.6      .9998
     432    433            0      .0000       592837.6      .9998
     433    434            0      .0000       592837.6      .9998
     434    435            0      .0000       592837.6      .9998
     435    436            0      .0000       592837.6      .9998
     436    437            0      .0000       592837.6      .9998
     437    438            0      .0000       592837.6      .9998
     438    439            0      .0000       592837.6      .9998
     439    440            0      .0000       592837.6      .9998
     440    441            0      .0000       592837.6      .9998
     441    442            0      .0000       592837.6      .9998
     442    443            0      .0000       592837.6      .9998
     443    444            0      .0000       592837.6      .9998
     444    445            0      .0000       592837.6      .9998
     445    446            0      .0000       592837.6      .9998
     446    447            0      .0000       592837.6      .9998
     447    448            0      .0000       592837.6      .9998
     448    449            0      .0000       592837.6      .9998
     449    450            0      .0000       592837.6      .9998
     450    451            0      .0000       592837.6      .9998
     451    452            0      .0000       592837.6      .9998
     452    453            0      .0000       592837.6      .9998
     453    454            0      .0000       592837.6      .9998
     454    455            0      .0000       592837.6      .9998
     455    456            0      .0000       592837.6      .9998
     456    457            0      .0000       592837.6      .9998
     457    458            0      .0000       592837.6      .9998
     458    459            0      .0000       592837.6      .9998
     459    460            0      .0000       592837.6      .9998
     460    461            0      .0000       592837.6      .9998
     461    462            0      .0000       592837.6      .9998
     462    463            0      .0000       592837.6      .9998
     463    464            0      .0000       592837.6      .9998
     464    465            0      .0000       592837.6      .9998
     465    466            0      .0000       592837.6      .9998
     466    467            0      .0000       592837.6      .9998
     467    468            0      .0000       592837.6      .9998
     468    469            0      .0000       592837.6      .9998
     469    470            0      .0000       592837.6      .9998
     470    471            0      .0000       592837.6      .9998
     471    472            0      .0000       592837.6      .9998
     472    473            0      .0000       592837.6      .9998
     473    474            0      .0000       592837.6      .9998
     474    475            0      .0000       592837.6      .9998
     475    476            0      .0000       592837.6      .9998
     476    477            0      .0000       592837.6      .9998
     477    478            0      .0000       592837.6      .9998
     478    479            0      .0000       592837.6      .9998
     479    480            0      .0000       592837.6      .9998
     480    481            0      .0000       592837.6      .9998
     481    482            0      .0000       592837.6      .9998
     482    483            0      .0000       592837.6      .9998
     483    484            0      .0000       592837.6      .9998
     484    485            0      .0000       592837.6      .9998
     485    486            0      .0000       592837.6      .9998
     486    487            0      .0000       592837.6      .9998
     487    488            0      .0000       592837.6      .9998
     488    489            0      .0000       592837.6      .9998
     489    490            0      .0000       592837.6      .9998
     490    491            0      .0000       592837.6      .9998
     491    492            0      .0000       592837.6      .9998
     492    493            0      .0000       592837.6      .9998
     493    494            0      .0000       592837.6      .9998
     494    495            0      .0000       592837.6      .9998
     495    496            0      .0000       592837.6      .9998
     496    497            0      .0000       592837.6      .9998
     497    498            0      .0000       592837.6      .9998
     498    499            0      .0000       592837.6      .9998
     499    500            0      .0000       592837.6      .9998


 MATRIX CALCULATIONS
 *******************


 Expression:

  mf01   = 0

 Result matrix:         mf01  : temp1                                         Temporary Matrix 1                                                               (18-11-21 17:16:49)

 Constraint matrix:     none

 Submatrix:             all origins             all destinations

 Number of expression evaluations:         982081
 Minimum expression value:                .000000   (at   1001   1001)
 Maximum expression value:                .000000   (at   1001   1001)
 Average expression value:                .000000
 Sum of expression values:                .000000


 MATRIX CALCULATIONS
 *******************


 Expression:

  mf01   = mf551 + mf550'

 Result matrix:         mf01  : temp1                                         Temporary Matrix 1                                                               (18-11-21 17:16:49)

 Data matrices:         mf551 : MrgL228                                       Merged IP HBEBOB Car                                                             (18-11-21 17:15:12)
                        mf550 : MrgL227                                       Merged IP HBEBIB Car                                                             (18-11-21 17:15:12)

 Constraint matrix:     none

 Submatrix:             all origins             all destinations

 Number of expression evaluations:         982081
 Minimum expression value:                .000000   (at   1001   2501)
 Maximum expression value:           95523.335937   (at   2803   2803)
 Average expression value:               1.064256
 Sum of expression values:         1045186.000000
