

 Matrix histogram
 ----------------


 data   matrix        mf172 : DSTSK                                    Distance Skim Car                                                               

 weight matrix        mf01  : temp1                                    Temporary Matrix 1                                                              

  all  origins   all  destinations

 constraint matrix    mf10  : temp10                                   Temporary Matrix 10                                                             
          interval  lower:         1
                    upper:         1  include 

 out of range       above: 135.7949
                    below:        0

 statistics         mean : 10.47222
                    std  : 18.00449

    interval        ------density-------      -----cumulative-----
 (from  ,    to)    absolute  normalized      absolute  normalized

       0      1     10905.21      .0422       10905.21      .0422
       1      2     24938.18      .0965       35843.38      .1388
       2      3     37349.91      .1446       73193.29      .2833
       3      4     14434.01      .0559       87627.31      .3392
       4      5     18834.87      .0729       106462.2      .4121
       5      6     11704.85      .0453         118167      .4574
       6      7     18508.63      .0717       136675.7      .5291
       7      8      9094.09      .0352       145769.7      .5643
       8      9     8648.569      .0335       154418.3      .5978
       9     10     12988.62      .0503       167406.9      .6481
      10     11     8588.654      .0332       175995.6      .6813
      11     12     7973.534      .0309       183969.1      .7122
      12     13     7015.603      .0272       190984.7      .7393
      13     14     7421.757      .0287       198406.5      .7681
      14     15     5162.814      .0200       203569.3      .7881
      15     16     8967.291      .0347       212536.6      .8228
      16     17     3488.138      .0135       216024.7      .8363
      17     18     4908.826      .0190       220933.6      .8553
      18     19     4627.931      .0179       225561.5      .8732
      19     20     3414.174      .0132       228975.7      .8864
      20     21     2214.507      .0086       231190.2      .8950
      21     22     3003.181      .0116       234193.4      .9066
      22     23     1611.575      .0062       235804.9      .9128
      23     24      1284.19      .0050       237089.1      .9178
      24     25     1535.968      .0059       238625.1      .9238
      25     26     982.2276      .0038       239607.3      .9276
      26     27     1085.868      .0042       240693.2      .9318
      27     28     991.9304      .0038       241685.1      .9356
      28     29     1118.854      .0043         242804      .9399
      29     30     952.5076      .0037       243756.5      .9436
      30     31     893.0159      .0035       244649.5      .9471
      31     32     1055.119      .0041       245704.6      .9512
      32     33     925.2724      .0036       246629.9      .9547
      33     34     1400.808      .0054       248030.7      .9602
      34     35       606.72      .0023       248637.4      .9625
      35     36     755.8846      .0029       249393.3      .9654
      36     37     353.8575      .0014       249747.2      .9668
      37     38     413.8407      .0016         250161      .9684
      38     39     649.2771      .0025       250810.3      .9709
      39     40     645.6661      .0025         251456      .9734
      40     41     284.4416      .0011       251740.4      .9745
      41     42     413.4801      .0016       252153.9      .9761
      42     43     240.5948      .0009       252394.5      .9771
      43     44     426.7623      .0017       252821.3      .9787
      44     45     331.2144      .0013       253152.5      .9800
      45     46     302.2908      .0012       253454.8      .9812
      46     47     207.7617      .0008       253662.5      .9820
      47     48     206.4412      .0008         253869      .9828
      48     49     173.8791      .0007       254042.9      .9834
      49     50     329.2485      .0013       254372.1      .9847
      50     51     170.1121      .0007       254542.2      .9854
      51     52     204.0615      .0008       254746.3      .9862
      52     53     128.2059      .0005       254874.5      .9867
      53     54     132.7253      .0005       255007.2      .9872
      54     55     272.5988      .0011       255279.8      .9882
      55     56     165.5864      .0006       255445.4      .9889
      56     57     189.4066      .0007       255634.8      .9896
      57     58     152.6307      .0006       255787.4      .9902
      58     59     101.7228      .0004       255889.1      .9906
      59     60     94.21141      .0004       255983.4      .9910
      60     61     95.55624      .0004       256078.9      .9913
      61     62     89.63146      .0003       256168.5      .9917
      62     63     58.95036      .0002       256227.5      .9919
      63     64     93.49241      .0004         256321      .9923
      64     65     70.13072      .0003       256391.1      .9925
      65     66     76.49455      .0003       256467.6      .9928
      66     67     74.64652      .0003       256542.3      .9931
      67     68     97.23905      .0004       256639.5      .9935
      68     69     62.23954      .0002       256701.7      .9937
      69     70     49.96665      .0002       256751.7      .9939
      70     71     46.62841      .0002       256798.3      .9941
      71     72     71.28565      .0003       256869.6      .9944
      72     73      58.3678      .0002         256928      .9946
      73     74     67.75662      .0003       256995.7      .9949
      74     75     62.30253      .0002         257058      .9951
      75     76     35.20325      .0001       257093.2      .9953
      76     77     18.97033      .0001       257112.2      .9953
      77     78     37.29186      .0001       257149.5      .9955
      78     79     29.45207      .0001         257179      .9956
      79     80     38.18836      .0001       257217.1      .9957
      80     81     28.04902      .0001       257245.2      .9958
      81     82     65.90062      .0003       257311.1      .9961
      82     83     14.77443      .0001       257325.9      .9962
      83     84     27.37993      .0001       257353.2      .9963
      84     85     21.34189      .0001       257374.6      .9963
      85     86     25.77739      .0001       257400.4      .9964
      86     87     22.20665      .0001       257422.6      .9965
      87     88     29.35012      .0001       257451.9      .9966
      88     89     10.47282      .0000       257462.4      .9967
      89     90     17.80957      .0001       257480.2      .9967
      90     91     50.24252      .0002       257530.5      .9969
      91     92      45.7967      .0002       257576.2      .9971
      92     93     15.97871      .0001       257592.2      .9972
      93     94     15.25871      .0001       257607.5      .9972
      94     95     9.272768      .0000       257616.8      .9973
      95     96     11.88803      .0000       257628.7      .9973
      96     97     17.65813      .0001       257646.3      .9974
      97     98      22.3937      .0001       257668.7      .9975
      98     99     36.65258      .0001       257705.4      .9976
      99    100      11.9843      .0000       257717.3      .9977
     100    101     10.78442      .0000       257728.1      .9977
     101    102     10.10121      .0000       257738.2      .9977
     102    103     5.363264      .0000       257743.6      .9978
     103    104     10.61152      .0000       257754.2      .9978
     104    105     10.47283      .0000       257764.7      .9979
     105    106     9.719899      .0000       257774.4      .9979
     106    107     12.41578      .0000       257786.8      .9979
     107    108     19.36999      .0001       257806.2      .9980
     108    109     14.90813      .0001       257821.1      .9981
     109    110     11.99307      .0000       257833.1      .9981
     110    111     5.748746      .0000       257838.8      .9981
     111    112     3.914438      .0000       257842.7      .9982
     112    113     7.883844      .0000       257850.6      .9982
     113    114     6.986371      .0000       257857.6      .9982
     114    115     6.351814      .0000         257864      .9982
     115    116     8.665929      .0000       257872.7      .9983
     116    117     7.429352      .0000       257880.1      .9983
     117    118     11.37622      .0000       257891.5      .9983
     118    119      11.7781      .0000       257903.2      .9984
     119    120     13.78946      .0001         257917      .9984
     120    121     12.76294      .0000       257929.8      .9985
     121    122      7.01807      .0000       257936.8      .9985
     122    123     4.623425      .0000       257941.4      .9985
     123    124     3.744647      .0000       257945.2      .9985
     124    125      9.71546      .0000       257954.9      .9986
     125    126     5.996359      .0000       257960.9      .9986
     126    127     12.34032      .0000       257973.2      .9987
     127    128     7.569112      .0000       257980.8      .9987
     128    129     2.482772      .0000       257983.3      .9987
     129    130     4.708565      .0000         257988      .9987
     130    131     3.149145      .0000       257991.2      .9987
     131    132      7.63363      .0000       257998.8      .9988
     132    133     4.569571      .0000       258003.4      .9988
     133    134      4.95856      .0000       258008.3      .9988
     134    135     4.816137      .0000       258013.1      .9988
     135    136     2.563485      .0000       258015.7      .9988
     136    137     2.234638      .0000       258017.9      .9988
     137    138     3.123497      .0000         258021      .9988
     138    139     3.093673      .0000       258024.1      .9989
     139    140     9.353899      .0000       258033.5      .9989
     140    141     4.039928      .0000       258037.5      .9989
     141    142     5.759147      .0000       258043.3      .9989
     142    143     4.004825      .0000       258047.3      .9989
     143    144     8.551989      .0000       258055.9      .9990
     144    145     2.462355      .0000       258058.3      .9990
     145    146      8.96545      .0000       258067.3      .9990
     146    147     4.402222      .0000       258071.7      .9990
     147    148     1.725759      .0000       258073.4      .9990
     148    149     1.401326      .0000       258074.8      .9991
     149    150     6.674041      .0000       258081.5      .9991
     150    151     1.113442      .0000       258082.6      .9991
     151    152     1.999906      .0000       258084.6      .9991
     152    153     2.094286      .0000       258086.7      .9991
     153    154     1.132758      .0000       258087.8      .9991
     154    155     2.383157      .0000       258090.2      .9991
     155    156     3.715298      .0000       258093.9      .9991
     156    157      1.15285      .0000       258095.1      .9991
     157    158     17.12766      .0001       258112.2      .9992
     158    159     2.724365      .0000       258114.9      .9992
     159    160     11.10008      .0000         258126      .9992
     160    161        1.701      .0000       258127.7      .9993
     161    162     1.618249      .0000       258129.4      .9993
     162    163     3.189536      .0000       258132.5      .9993
     163    164     6.747598      .0000       258139.3      .9993
     164    165     3.179687      .0000       258142.5      .9993
     165    166     2.089925      .0000       258144.6      .9993
     166    167     1.679481      .0000       258146.2      .9993
     167    168     2.928272      .0000       258149.2      .9993
     168    169     2.040695      .0000       258151.2      .9993
     169    170     1.584223      .0000       258152.8      .9994
     170    171     3.178303      .0000         258156      .9994
     171    172     2.940435      .0000       258158.9      .9994
     172    173     2.335466      .0000       258161.2      .9994
     173    174      3.01598      .0000       258164.2      .9994
     174    175     2.447817      .0000       258166.7      .9994
     175    176      .261026      .0000         258167      .9994
     176    177      .640333      .0000       258167.6      .9994
     177    178      .368752      .0000         258168      .9994
     178    179       .23525      .0000       258168.2      .9994
     179    180      .441286      .0000       258168.6      .9994
     180    181      .234334      .0000       258168.9      .9994
     181    182      .667792      .0000       258169.5      .9994
     182    183     2.124411      .0000       258171.7      .9994
     183    184       .64396      .0000       258172.3      .9994
     184    185      .555101      .0000       258172.9      .9994
     185    186     1.303667      .0000       258174.2      .9994
     186    187      .392285      .0000       258174.6      .9994
     187    188      .409658      .0000         258175      .9994
     188    189     1.510102      .0000       258176.5      .9994
     189    190      .144325      .0000       258176.6      .9994
     190    191      .413361      .0000         258177      .9994
     191    192     2.690215      .0000       258179.7      .9995
     192    193      .260795      .0000         258180      .9995
     193    194      .148039      .0000       258180.1      .9995
     194    195      .257267      .0000       258180.4      .9995
     195    196      .375581      .0000       258180.7      .9995
     196    197      .140885      .0000       258180.9      .9995
     197    198      .081959      .0000         258181      .9995
     198    199      .032322      .0000         258181      .9995
     199    200      .075594      .0000       258181.1      .9995
     200    201       .14368      .0000       258181.2      .9995
     201    202      .037893      .0000       258181.2      .9995
     202    203      .049197      .0000       258181.3      .9995
     203    204      .105015      .0000       258181.4      .9995
     204    205      .060733      .0000       258181.5      .9995
     205    206      .117588      .0000       258181.6      .9995
     206    207      .054099      .0000       258181.6      .9995
     207    208       .02996      .0000       258181.7      .9995
     208    209      .084103      .0000       258181.7      .9995
     209    210      .113424      .0000       258181.9      .9995
     210    211      .045984      .0000       258181.9      .9995
     211    212      .094823      .0000         258182      .9995
     212    213      .081114      .0000       258182.1      .9995
     213    214      .041274      .0000       258182.1      .9995
     214    215       .03251      .0000       258182.2      .9995
     215    216      .018321      .0000       258182.2      .9995
     216    217      .031145      .0000       258182.2      .9995
     217    218      .068865      .0000       258182.3      .9995
     218    219      .023857      .0000       258182.3      .9995
     219    220      .021377      .0000       258182.3      .9995
     220    221      .055903      .0000       258182.4      .9995
     221    222      .011357      .0000       258182.4      .9995
     222    223       .02214      .0000       258182.4      .9995
     223    224      .019751      .0000       258182.4      .9995
     224    225      .007429      .0000       258182.4      .9995
     225    226      .012224      .0000       258182.4      .9995
     226    227      .009809      .0000       258182.5      .9995
     227    228       .00835      .0000       258182.5      .9995
     228    229      .019188      .0000       258182.5      .9995
     229    230      .040505      .0000       258182.5      .9995
     230    231       .01013      .0000       258182.5      .9995
     231    232      .033932      .0000       258182.6      .9995
     232    233      .008463      .0000       258182.6      .9995
     233    234      .006974      .0000       258182.6      .9995
     234    235      .009233      .0000       258182.6      .9995
     235    236      .007208      .0000       258182.6      .9995
     236    237      .021459      .0000       258182.6      .9995
     237    238      .002413      .0000       258182.6      .9995
     238    239      .012243      .0000       258182.6      .9995
     239    240      .010563      .0000       258182.7      .9995
     240    241      .014028      .0000       258182.7      .9995
     241    242      .006721      .0000       258182.7      .9995
     242    243      .008591      .0000       258182.7      .9995
     243    244       .00735      .0000       258182.7      .9995
     244    245      .005612      .0000       258182.7      .9995
     245    246      .010633      .0000       258182.7      .9995
     246    247       .01616      .0000       258182.7      .9995
     247    248      .020487      .0000       258182.7      .9995
     248    249       .00897      .0000       258182.7      .9995
     249    250       .00261      .0000       258182.7      .9995
     250    251      .008819      .0000       258182.8      .9995
     251    252      .013933      .0000       258182.8      .9995
     252    253      .040544      .0000       258182.8      .9995
     253    254      .028365      .0000       258182.9      .9995
     254    255      .010966      .0000       258182.9      .9995
     255    256      .026197      .0000       258182.9      .9995
     256    257      .010036      .0000       258182.9      .9995
     257    258      .012255      .0000       258182.9      .9995
     258    259      .028775      .0000         258183      .9995
     259    260      .016331      .0000         258183      .9995
     260    261      .023163      .0000         258183      .9995
     261    262       .01875      .0000         258183      .9995
     262    263        .0249      .0000         258183      .9995
     263    264      .012889      .0000       258183.1      .9995
     264    265      .017274      .0000       258183.1      .9995
     265    266      .012093      .0000       258183.1      .9995
     266    267      .010434      .0000       258183.1      .9995
     267    268      .009157      .0000       258183.1      .9995
     268    269      .009198      .0000       258183.1      .9995
     269    270      .013866      .0000       258183.2      .9995
     270    271      .028189      .0000       258183.2      .9995
     271    272      .007378      .0000       258183.2      .9995
     272    273      .009182      .0000       258183.2      .9995
     273    274      .018426      .0000       258183.2      .9995
     274    275      .006688      .0000       258183.2      .9995
     275    276      .007112      .0000       258183.2      .9995
     276    277      .012314      .0000       258183.2      .9995
     277    278      .031867      .0000       258183.3      .9995
     278    279      .021904      .0000       258183.3      .9995
     279    280      .013399      .0000       258183.3      .9995
     280    281      .008842      .0000       258183.3      .9995
     281    282      .008627      .0000       258183.3      .9995
     282    283      .012459      .0000       258183.3      .9995
     283    284      .009143      .0000       258183.4      .9995
     284    285      .015491      .0000       258183.4      .9995
     285    286      .032277      .0000       258183.4      .9995
     286    287      .018399      .0000       258183.4      .9995
     287    288      .019495      .0000       258183.4      .9995
     288    289       .01723      .0000       258183.5      .9995
     289    290       .03889      .0000       258183.5      .9995
     290    291      .017509      .0000       258183.5      .9995
     291    292      .009563      .0000       258183.5      .9995
     292    293      .016055      .0000       258183.5      .9995
     293    294       .01494      .0000       258183.5      .9995
     294    295      .022103      .0000       258183.6      .9995
     295    296      .016714      .0000       258183.6      .9995
     296    297      .028307      .0000       258183.6      .9995
     297    298      .028538      .0000       258183.6      .9995
     298    299      .024521      .0000       258183.7      .9995
     299    300      .008077      .0000       258183.7      .9995
     300    301      .009026      .0000       258183.7      .9995
     301    302      .016631      .0000       258183.7      .9995
     302    303      .005387      .0000       258183.7      .9995
     303    304      .035058      .0000       258183.7      .9995
     304    305      .010264      .0000       258183.8      .9995
     305    306      .027294      .0000       258183.8      .9995
     306    307      .018273      .0000       258183.8      .9995
     307    308      .013127      .0000       258183.8      .9995
     308    309      .006071      .0000       258183.8      .9995
     309    310       .00902      .0000       258183.8      .9995
     310    311      .014749      .0000       258183.9      .9995
     311    312      .019499      .0000       258183.9      .9995
     312    313      .007402      .0000       258183.9      .9995
     313    314      .021457      .0000       258183.9      .9995
     314    315      .006754      .0000       258183.9      .9995
     315    316      .006412      .0000       258183.9      .9995
     316    317      .007325      .0000       258183.9      .9995
     317    318      .002706      .0000       258183.9      .9995
     318    319      .015419      .0000       258183.9      .9995
     319    320      .007234      .0000       258183.9      .9995
     320    321      .010372      .0000       258183.9      .9995
     321    322      .005384      .0000       258183.9      .9995
     322    323      .002487      .0000       258183.9      .9995
     323    324      .006306      .0000       258183.9      .9995
     324    325      .015943      .0000       258183.9      .9995
     325    326      .004467      .0000       258183.9      .9995
     326    327      .001863      .0000       258183.9      .9995
     327    328      .001048      .0000       258183.9      .9995
     328    329       .00194      .0000       258183.9      .9995
     329    330      .009402      .0000         258184      .9995
     330    331      .012132      .0000         258184      .9995
     331    332      .003353      .0000         258184      .9995
     332    333       .01688      .0000         258184      .9995
     333    334      .003866      .0000         258184      .9995
     334    335      .001158      .0000         258184      .9995
     335    336      .000892      .0000         258184      .9995
     336    337            0      .0000         258184      .9995
     337    338      .012965      .0000         258184      .9995
     338    339      .000802      .0000         258184      .9995
     339    340      .002292      .0000         258184      .9995
     340    341      .001136      .0000         258184      .9995
     341    342            0      .0000         258184      .9995
     342    343            0      .0000         258184      .9995
     343    344            0      .0000         258184      .9995
     344    345            0      .0000         258184      .9995
     345    346      .002587      .0000         258184      .9995
     346    347            0      .0000         258184      .9995
     347    348            0      .0000         258184      .9995
     348    349            0      .0000         258184      .9995
     349    350            0      .0000         258184      .9995
     350    351            0      .0000         258184      .9995
     351    352      .000124      .0000         258184      .9995
     352    353            0      .0000         258184      .9995
     353    354      .000245      .0000         258184      .9995
     354    355      .000393      .0000         258184      .9995
     355    356      .000167      .0000         258184      .9995
     356    357      .000026      .0000         258184      .9995
     357    358      .004357      .0000         258184      .9995
     358    359      .000119      .0000         258184      .9995
     359    360      .000486      .0000         258184      .9995
     360    361      .000516      .0000         258184      .9995
     361    362      .000149      .0000         258184      .9995
     362    363       .00004      .0000         258184      .9995
     363    364            0      .0000         258184      .9995
     364    365      .000105      .0000         258184      .9995
     365    366      .000409      .0000         258184      .9995
     366    367      .000521      .0000         258184      .9995
     367    368      .000403      .0000         258184      .9995
     368    369      .000384      .0000         258184      .9995
     369    370      .000831      .0000         258184      .9995
     370    371      .000714      .0000         258184      .9995
     371    372      .000099      .0000         258184      .9995
     372    373      .002224      .0000         258184      .9995
     373    374      .000449      .0000         258184      .9995
     374    375      .000448      .0000         258184      .9995
     375    376      .001215      .0000         258184      .9995
     376    377      .000302      .0000         258184      .9995
     377    378      .000702      .0000         258184      .9995
     378    379      .001102      .0000         258184      .9995
     379    380      .001113      .0000         258184      .9995
     380    381      .001644      .0000         258184      .9995
     381    382      .001027      .0000         258184      .9995
     382    383      .000364      .0000         258184      .9995
     383    384      .000773      .0000         258184      .9995
     384    385      .000112      .0000         258184      .9995
     385    386      .000175      .0000         258184      .9995
     386    387      .000451      .0000         258184      .9995
     387    388      .000725      .0000         258184      .9995
     388    389      .001801      .0000         258184      .9995
     389    390       .00202      .0000         258184      .9995
     390    391      .003688      .0000         258184      .9995
     391    392      .000997      .0000         258184      .9995
     392    393        .0007      .0000         258184      .9995
     393    394      .002181      .0000         258184      .9995
     394    395      .000254      .0000         258184      .9995
     395    396      .000668      .0000         258184      .9995
     396    397       .00016      .0000         258184      .9995
     397    398      .000919      .0000         258184      .9995
     398    399      .000523      .0000         258184      .9995
     399    400       .00033      .0000         258184      .9995
     400    401      .000203      .0000         258184      .9995
     401    402      .000194      .0000         258184      .9995
     402    403      .000249      .0000         258184      .9995
     403    404      .000143      .0000         258184      .9995
     404    405      .000387      .0000         258184      .9995
     405    406       .00042      .0000         258184      .9995
     406    407       .00079      .0000         258184      .9995
     407    408      .000447      .0000         258184      .9995
     408    409       .00049      .0000         258184      .9995
     409    410       .00008      .0000         258184      .9995
     410    411      .000511      .0000         258184      .9995
     411    412      .000125      .0000         258184      .9995
     412    413      .000089      .0000         258184      .9995
     413    414       .00021      .0000         258184      .9995
     414    415      .000365      .0000         258184      .9995
     415    416            0      .0000         258184      .9995
     416    417            0      .0000         258184      .9995
     417    418      .000045      .0000         258184      .9995
     418    419            0      .0000         258184      .9995
     419    420            0      .0000         258184      .9995
     420    421            0      .0000         258184      .9995
     421    422      .000262      .0000         258184      .9995
     422    423            0      .0000         258184      .9995
     423    424            0      .0000         258184      .9995
     424    425            0      .0000         258184      .9995
     425    426            0      .0000         258184      .9995
     426    427            0      .0000         258184      .9995
     427    428            0      .0000         258184      .9995
     428    429            0      .0000         258184      .9995
     429    430            0      .0000         258184      .9995
     430    431            0      .0000         258184      .9995
     431    432            0      .0000         258184      .9995
     432    433            0      .0000         258184      .9995
     433    434            0      .0000         258184      .9995
     434    435            0      .0000         258184      .9995
     435    436            0      .0000         258184      .9995
     436    437            0      .0000         258184      .9995
     437    438            0      .0000         258184      .9995
     438    439            0      .0000         258184      .9995
     439    440            0      .0000         258184      .9995
     440    441            0      .0000         258184      .9995
     441    442            0      .0000         258184      .9995
     442    443            0      .0000         258184      .9995
     443    444            0      .0000         258184      .9995
     444    445            0      .0000         258184      .9995
     445    446            0      .0000         258184      .9995
     446    447            0      .0000         258184      .9995
     447    448            0      .0000         258184      .9995
     448    449            0      .0000         258184      .9995
     449    450            0      .0000         258184      .9995
     450    451            0      .0000         258184      .9995
     451    452            0      .0000         258184      .9995
     452    453            0      .0000         258184      .9995
     453    454            0      .0000         258184      .9995
     454    455            0      .0000         258184      .9995
     455    456            0      .0000         258184      .9995
     456    457            0      .0000         258184      .9995
     457    458            0      .0000         258184      .9995
     458    459            0      .0000         258184      .9995
     459    460            0      .0000         258184      .9995
     460    461            0      .0000         258184      .9995
     461    462            0      .0000         258184      .9995
     462    463            0      .0000         258184      .9995
     463    464            0      .0000         258184      .9995
     464    465            0      .0000         258184      .9995
     465    466            0      .0000         258184      .9995
     466    467            0      .0000         258184      .9995
     467    468            0      .0000         258184      .9995
     468    469            0      .0000         258184      .9995
     469    470            0      .0000         258184      .9995
     470    471            0      .0000         258184      .9995
     471    472            0      .0000         258184      .9995
     472    473            0      .0000         258184      .9995
     473    474            0      .0000         258184      .9995
     474    475            0      .0000         258184      .9995
     475    476            0      .0000         258184      .9995
     476    477            0      .0000         258184      .9995
     477    478            0      .0000         258184      .9995
     478    479            0      .0000         258184      .9995
     479    480            0      .0000         258184      .9995
     480    481            0      .0000         258184      .9995
     481    482            0      .0000         258184      .9995
     482    483            0      .0000         258184      .9995
     483    484            0      .0000         258184      .9995
     484    485            0      .0000         258184      .9995
     485    486            0      .0000         258184      .9995
     486    487            0      .0000         258184      .9995
     487    488            0      .0000         258184      .9995
     488    489            0      .0000         258184      .9995
     489    490            0      .0000         258184      .9995
     490    491            0      .0000         258184      .9995
     491    492            0      .0000         258184      .9995
     492    493            0      .0000         258184      .9995
     493    494            0      .0000         258184      .9995
     494    495            0      .0000         258184      .9995
     495    496            0      .0000         258184      .9995
     496    497            0      .0000         258184      .9995
     497    498            0      .0000         258184      .9995
     498    499            0      .0000         258184      .9995
     499    500            0      .0000         258184      .9995


 MATRIX CALCULATIONS
 *******************


 Expression:

  mf01   = 0

 Result matrix:         mf01  : temp1                                         Temporary Matrix 1                                                               (18-11-21 17:16:52)

 Constraint matrix:     none

 Submatrix:             all origins             all destinations

 Number of expression evaluations:         982081
 Minimum expression value:                .000000   (at   1001   1001)
 Maximum expression value:                .000000   (at   1001   1001)
 Average expression value:                .000000
 Sum of expression values:                .000000


 MATRIX CALCULATIONS
 *******************


 Expression:

  mf01   = mf573 + mf572'

 Result matrix:         mf01  : temp1                                         Temporary Matrix 1                                                               (18-11-21 17:16:52)

 Data matrices:         mf573 : MrgL328                                       Merged PM HBEBOB Car                                                             (18-11-21 17:15:24)
                        mf572 : MrgL327                                       Merged PM HBEBIB Car                                                             (18-11-21 17:15:24)

 Constraint matrix:     none

 Submatrix:             all origins             all destinations

 Number of expression evaluations:         982081
 Minimum expression value:                .000000   (at   1001   2501)
 Maximum expression value:          103537.843750   (at   2803   2803)
 Average expression value:               1.156949
 Sum of expression values:         1136218.000000
